{
    "added": ["||www.sport24.gr/img/app/8982787/922000/o/0/0/Sport24_Football_940x60_new.gif$image", "||static.car.gr/static/funshop/3boxesofmasks*.jpg$image"],
    "removed": ["||static.car.gr/static/funshop/3boxesofmasks2.jpg$image", "||static.car.gr/static/funshop/3boxesofmasks1.jpg$image"]
}