{
    "added": ["||static.car.gr/static/funshop/3boxesofmasks*.jpg$image"],
    "removed": ["||static.car.gr/static/funshop/3boxesofmasks2.jpg$image", "||static.car.gr/static/funshop/3boxesofmasks1.jpg$image"]
}