{
    "tracker_domain_version": "c472029c458f1c3f0a67d059681d3d0c",
    "unsafekey_version": "04271bb7647e8e4e593e427d38f29822",
    "shortTokenLength": 6,
    "force_clean": false,
    "safekey_version": "75ec77bb93b1997da11d3d361c2e944d",
    "whitelist_token_version": "e70c986bc5b7256b96f6a2f45fadb5f0",
    "placeHolder": "anonymized",
    "token_whitelist_version": "c5eabd96dac1b5b3637e98018f5372a5"
}