{
    "added": ["||yes999.cf^$third-party", "||yes999.ga^$third-party", "||yes999.ml^$third-party", "||yes999.tk^$third-party", "://i.hizliresim.com^$domain=onlineanimeizle.com|websporizle.com|sonfullhdfilm.com|fiilmizleyeni.com|filmizle.movie|dizilla.com|iddaanet.com|dizipas.net|bifilmizlesene.net|dizison.com|radardizi.com|sinefilm.net|fulldiziizleyin.org|fanfilmizle.com|hdizletekpart.net|gameinsano.com|hddiziizlez.com|fullhdfilmtekpart.com|diziizleyin.org|sozlerisozu.com|bedavamacizle.tv|filmkeyif.com|ispor.net|macizlesene.tv|tekparthd.net|seyirlikfilm.org|hdfilmizlemelisin.com|hdfilmekani.com|fulldizi7.com|fullhdfilm.gen.tr|ajans32.com|sezonlukdizi.net|higshoes.com|sendeizlesene.net|limitsizfilmizle.net|hizlifullfilmizle.com|hintfilmi.net|fullfilmihdizlesene.com|haber32.com.tr|sinemapol.org|hdfilmakinasi.com|pembefilm.com|buyuktorbali.com|dizison.pw|technopat.net|ertehaber.com|filmmom.org|fullhdizle720p.com|duzcetv.com|unyenethaber.com|r10.net|filmwatch.net", "||static.wixstatic.com/media/*/smarttradecoin.webp$domain=isiptv.net", "/\\/.*banner(-\\d)?\\.(gif|jpg)/$domain=ha-ber.com", "||egemeclisi.com/files/banner/", "||dunyasozluk.com/images/ks/kafasozluk_d.png", "||satoshiturk.com/binance1.gif", "/frmtr\\.com\\/images\\/\\w{0,2}\\d?.gif/$domain=frmtr.com", "||s.fullhdfilmizlesene.com/js/common.js", "||film-modu.net/suv.js", "/filmwatch\\.net\\/(g|m)?\\._/$media,redirect=noopmp4-1s,domain=filmwatch.net", "||filmwatch.net/wp-content/uploads/*.jpeg", "||dizilla.*/wp-content/plugins/wpsa-manager/assets/js/script.min.js", "dizilla.net##img[src^=\"https://finema-net.cdn.ampproject.org/\"]", "fullhdfilmcehennemi8.live##.arkark", "fullhdfilmcehennemi8.live##.yabadaba", "fullhdfilmcehennemi8.live##a[href][target=\"_blank\"] > video", "habersiz.co##.pcads", "ha-ber.com##.widget_reklam_widget", "abcgazetesi.com##.banner-wide", "egemeclisi.com##a[href=\"http://bortargroup.com.tr\"][target=\"_blank\"] > img", "egemeclisi.com##.page_inner_right > div[style^=\" width:230px; height:378; overflow:hidden; margin:\"]", "teknolojimuhbiri.com##.jnews_sidefeed_ads", "dunyasozluk.com##a[href=\"https://kafasozluk.com\"][target=\"_blank\"] > img", "filmwatch.net##div[data-no] > video[data-no] + a[href][target=\"_blank\"]", "filmwatch.net##a[onclick=\"this.target='_blank'\"][rel=\"nofollow external noopener\"]", "filmwatch.net##body > div#mobile-menu + div[class]", "dizilla.net,dizilla.org,unutulmazfilmler.pw,dizipub.*,dizilla.com,720pizle.org###footerFixedDiv", "dizilla.net,720pizle.org,dizilla.com##iframe[style*=\"position: fixed;\"][style*=\"z-index: 0;\"]", "dizilla.net,dizilla.org,dizi-st.com,roketdizi1.com,720pizle.org,dizist.pw,unutulmazfilmler.pw,dizist.net,dizipub.*,dizilla.com###preRollBd", "satoshiturk.com,forumandroid.com,forum.warezm.com,technopat.net,gezenbilir.com,bisikletforum.com##.samBannerUnit", "fullhdfilmizlesene.com,fullhdfilmizlesene.*##.rekgec-div", "sinefilmizlesen.com,ultrafullfilmizle.com,fullhdfilmizleten.org,hdfilmakinasi.com##.reklam-yatay"],
    "removed": ["://i.hizliresim.com^$domain=onlineanimeizle.com|websporizle.com|sonfullhdfilm.com|fiilmizleyeni.com|filmizle.movie|dizilla.com|iddaanet.com|dizipas.net|bifilmizlesene.net|dizison.com|radardizi.com|sinefilm.net|fulldiziizleyin.org|fanfilmizle.com|hdizletekpart.net|gameinsano.com|hddiziizlez.com|fullhdfilmtekpart.com|diziizleyin.org|sozlerisozu.com|bedavamacizle.tv|filmkeyif.com|ispor.net|macizlesene.tv|tekparthd.net|seyirlikfilm.org|hdfilmizlemelisin.com|hdfilmekani.com|fulldizi7.com|fullhdfilm.gen.tr|ajans32.com|sezonlukdizi.net|higshoes.com|sendeizlesene.net|limitsizfilmizle.net|hizlifullfilmizle.com|hintfilmi.net|fullfilmihdizlesene.com|haber32.com.tr|sinemapol.org|hdfilmakinasi.com|pembefilm.com|buyuktorbali.com|dizison.pw|technopat.net|ertehaber.com|filmmom.org|fullhdizle720p.com|duzcetv.com|unyenethaber.com|r10.net", "||dizilla.org/wp-content/plugins/wpsa-manager/assets/js/script.min.js", "/frmtr.com\\/images\\/\\w\\d.gif/$domain=frmtr.com", "||dizilla.com/wp-content/plugins/wpsa-manager/assets/js/script.min.js", "dizilla.org###footerFixedDiv", "unutulmazfilmler.pw,dizipub.*,dizilla.com,720pizle.org###footerFixedDiv", "720pizle.org,dizilla.com##iframe[style*=\"position: fixed;\"][style*=\"z-index: 0;\"]", "dizilla.org,dizi-st.com,roketdizi1.com,720pizle.org,dizist.pw,unutulmazfilmler.pw,dizist.net,dizipub.*,dizilla.com###preRollBd", "fullhdfilmizleten.org##.reklam-yatay", "ultrafullfilmizle.com##.reklam-yatay", "forumandroid.com,forum.warezm.com,technopat.net,gezenbilir.com,bisikletforum.com##.samBannerUnit", "fullhdfilmizlesene.org##.rekgec-div", "hdfilmakinasi.com##.reklam-yatay"]
}