{
    "added": ["||yes999.cf^$third-party", "/filmwatch\\.net\\/(g|m)?\\._/$media,redirect=noopmp4-1s,domain=filmwatch.net", "dizilla.net##img[src^=\"https://finema-net.cdn.ampproject.org/\"]", "fullhdfilmcehennemi8.live##.arkark", "fullhdfilmcehennemi8.live##.yabadaba", "fullhdfilmcehennemi8.live##a[href][target=\"_blank\"] > video", "habersiz.co##.pcads", "fullhdfilmizlesene.com,fullhdfilmizlesene.*##.rekgec-div"],
    "removed": ["/filmwatch\\.net\\/wp-content\\/([giza_]|[magnum_])+\\.[a-z_0-9]{0,3}/$media,redirect=noopmp4-1s,domain=filmwatch.net", "fullhdfilmizlesene.org##.rekgec-div"]
}