{
    "added": ["||rootsingput9.live^$all", "||rootsingput3.live^$all", "||ideaanstudy1.live^$all", "||ideaanstudy2.live^$all", "||ideaanstudy3.live^$all", "||ideaanstudy4.live^$all", "||ideaanstudy5.live^$all", "||ideaanstudy6.live^$all", "||ideaanstudy7.live^$all", "||ideaanstudy8.live^$all", "||ideaanstudy9.live^$all", "||ideaanstudy11.live^$all", "||ideaanstudy12.live^$all", "||ideaanstudy13.live^$all", "||ideaanstudy14.live^$all", "||ideaanstudy15.live^$all", "||video-adblock.com^$all", "||vid-adblocker.com^$all", "||global-survey-online.com^$all"],
    "removed": []
}