{
    "added": ["/adv-mediumrectangle-", "||adresponse.it^$third-party", "||booking.com^$subdocument,domain=cosafarei.it|guida-polinesia.com|guidaviaggi.org|iltempo.it|milleunadonna.it|notizie.tiscali.it|panannablogdiviaggi.com|quattroruote.it|sport.tiscali.it|tuttobaviera.it|viaggi-lowcost.info|viaggi-nel-tempo.com", "||clickdoc.it/components/ricettainfarmacia2.js", "||ibb.co^$domain=edicolafree.xp3.biz", "||rentalcars.com^$script,subdocument,domain=guida-polinesia.com|guidaviaggi.org", "||teetee.eu^$subdocument,third-party", "||abruzzolive.it^*/banner-", "||abruzzolive.it^*/VERTICALE", "||acquariofiliaitalia.it^*/aziende/", "||animalinelmondo.com/images/banner/", "||askanews.it/img_diverse/300x100_", "||audirsclub.it/images/misc/Faratech", "||audisportclub.com/banner/", "||cinemondium.com^*/720x90-", "||citroen-club.it/portale/img/banner_", "||citroen-club.it/portale/img/logo_lopez_racing.jpg", "||citynotizie.it^*/adv-", "||citynotizie.it^*/Antey.jpg", "||citynotizie.it^*/Becca.jpg", "||citynotizie.it^*/CRIperTe_SpesaAmica.jpg", "||citynotizie.it^*/DB.jpg", "||citynotizie.it^*/Energym.jpg", "||citynotizie.it^*/Gran-Paradiso.jpg", "||citynotizie.it^*/idillium.jpg", "||citynotizie.it^*/mascognaz.jpg", "||citynotizie.it^*/regina.jpg", "||confinelive.it^*/banner-", "||digitalic.it^*/skin_", "||dronezine.it^*-banner-", "||dronezine.it^*/banner-", "||dronezine.it^*/mavic-", "||eastwest.eu^*/banner/", "||ecodelcinema.com^*/bnnrdionysus-", "||emiliaeunanotte.it^*/Banner-", "||fantascientificast.com/partner/", "||fashionandroid.com^*-banner.", "||fumettologica.it^*/413907652.jpeg", "||gingergeneration.it/n/", "||gingergeneration.it^*/banner-", "||giornaledibarga.it^*/banner-", "||giornaledibarga.it^*/bsnner-", "||giornaledibarga.it^*/cmf2020.jpg", "||giornaledibarga.it^*/pensarecasa.", "||giornaledibarga.it^*/PP-", "||gizchina.it^*-gshopper.", "||gizchina.it^*/banggood-", "||gizchina.it^*/geekbuying-", "||hobbyquotidiano.com^*/amazon_", "||ilsoftware.it/images/sezioni/btn_arubacloud.png", "||infoperte.it^*/franchising.jpg", "||juzaphoto.com^*/imgj_1603286335.jpg", "||key4biz.it^*/req-", "||kiaclub.it/kia/banner/", "||kurdistanonline.net/img/scarica", "||lavocedellevalli.it^*_Banner_", "||lifegate.it^*/LogoGuna_", "||maidirelink.it^*/sconti-amazon.jpg", "||mangiobenevivobene.it^*/banner-", "||marsicalive.it^*-480x400_", "||marsicalive.it^*/Fiat-1300-", "||mywhere.it^*/310x310.png", "||noitv.it^*-Banner-", "||noitv.it^*/banner-", "||noitv.it^*/banner_", "||noitv.it^*/clasiss-", "||notizieoggi24.it^*/gel-farmacia.jpg", "||novabbe.com^*/guardalo-su-amazon-", "||obiettivoscuola.it/images/Articoli/MAD_", "||obiettivoscuola.it/images/banners/", "||obiettivoscuola.it/images/Edises/", "||paesesera.toscana.it^*/Estra_", "||pescaralive.it^*/banner-", "||reporter.it^*-banner-", "||reporter.it^*-banner.", "||reporter.it^*-Webbanner-", "||reporter.it^*/anigif.gif", "||reporter.it^*/ARCOBALENO-copia-", "||reporter.it^*/banner-", "||reporter.it^*/CUCINE-OGGI.jpg", "||reporter.it^*/IRENFORSU-", "||reporter.it^*/REAnimali.", "||reporter.it^*/ReggioCivitas.jpg", "||reporter.it^*/scubasail.png", "||robadainformatici.it^*_banner_", "||scubaportal.it^*/skin-", "||segretodonna.com^*/720x90-", "||sienanews.it^*/300x250px.", "||sienanews.it^*/6384073f-", "||sienanews.it^*/960x300-", "||sienanews.it^*/banner-", "||sienanews.it^*/banner234.", "||sienanews.it^*/CAPTUR-", "||sienanews.it^*/Composizione-", "||sienanews.it^*/www.termeaq.it_", "||sienanews.it^*/www.vismederi.com_", "||sienanews.it^*_banner_", "||stateofmind.it^*-Banner-", "||telegramdirectory.it^*/discount-", "||trainingpedia.it^*/banner-", "||trainingpedia.it^*/corso-personal-trainer.jpg", "||turismoitalianews.it^*/banner/", "||turismoitalianews.it^*/banners/", "||tuttozampe.com^*/Premium_", "||uberti.eu^*/guide/", "||varesesport.com^*500x300", "||venividivici.us^*-280x280.", "||venividivici.us^*-banner_", "||viaggioingermania.it^*/corso-tedesco-", "||vwgolfcommunity.com/banner/", "||vwgolfcommunity.com/sponsor/", "||windowsblogitalia.com^*/sconto-5-euro-amazon.jpg", "||worldofwrestling.it^*/wow.gif", "||wp.com/genovaquotidiana.com/*-320x320-", "||wp.com/guerrestellari.net/*/Amazon_", "||wp.com/www.meganerd.it/*/MNERD15685.png", "||wp.com/www.worldofwrestling.it/*/wow.gif", "||wp.com^*/banner-$domain=cinecorriere.it|giornaledicalabria.it|ilgiornaledeiveronesi.it|infocilento.it|nonsoloturisti.it|temporeale.info", "||wp.com^*_Banner_$domain=gliacchiappafilm.it", "||zonawrestling.net^*-banner.", "###adv-masthead-0", "##.adv100", "##.cp_adv300x250", "##.gtv-adv-slot", "##.sal-adv-adsense", "##.sito-adv-sopra-main", "##.tn_adv", "catt.ch###advertising", "tuttosuigatti.it###block-bean-banner-content-bottom", "tuttosuigatti.it###block-bean-banner-content-center", "tuttosuigatti.it###block-bean-banner-header", "noitv.it###bn-sidebar", "scubaportal.it###bodylink", "corrierequotidiano.it###custom_html-8", "trueriders.it###div-TRD_MPU_CONT", "nextpit.it###div-header", "nextpit.it###div-sidebar_right_extra", "grecia.info###fh_content", "varesesport.com###floorsunrise", "buongiornoalghero.it,freeonline.org,itvonline.news,lospiffero.com,planetmountain.com,salernonotizie.it###skinlink", "mangiobenevivobene.it###youtube_responsive-2", "amazon.it##.MultiBrandCreativeDesktop", "gnius.it##.aalb-product-carousel-unit", "cityrumors.it,londranews.com,migliorigiochi.eu,outofbit.it##.aawp", "ilfoglio.it,jugo.it,lacrocequotidiano.it,le-citazioni.it,liberatv.ch,lonelyplanetitalia.it,mondoplay.it,mondoxbox.com,motorbox.com,quotidianoapuano.net,serietvu.link,smartbuildingitalia.it,trend-online.com,tripadvisor.it##.ad", "abruzzolive.it,confinelive.it,lamilano.it,marsicalive.it,pescaralive.it##.adcontainer", "24emilia.com,autoscout24.ch,brocardi.it,cb01.online,filmpertutti.onl,filmpertutti.voto,gamemag.it,hdblog.it,hdmotori.it,hdtroll.it,ilgeniodellostreaming.rest,ilikepuglia.it,live-sport-tv.it,teleborsa.it,viamichelin.ch,viamichelin.it##.ads", "adessoin.tv,allaguida.it,amica.it,ansa.it,buttalapasta.it,calciomercato.com,curioctopus.it,dissapore.com,forbes.it,gelocal.it,gianlucadimarzio.com,gta-expert.it,ilfattoquotidiano.it,ilpost.it,ilsole24ore.com,latina24ore.it,libero.it,mediaset.it,movieplayer.it,multiplayer.it,nanopress.it,notiziemilan.it,pourfemme.it,prealpina.it,radioindiretta.fm,repubblica.it,salepepe.it,skuola.net,staffettaonline.com,stylosophy.it,supereva.it,virgilio.it,vocenuova.tv##.adv", "germania.info##.article_buttons_end", "germania.info##.article_hotel_vicino", "agi.it,america24.com,casateonline.it,cremonaoggi.it,cronacheancona.it,cronachemaceratesi.it,cuneocronaca.it,dagospia.com,designmag.it,difesaonline.it,diretta.it,ejatv.com,euroregionalpmed.eu,foodweb.it,globalist.it,gossip.it,guidaviaggi.it,html.it,ilfriuli.it,ilturista.info,informacalcio.quotidiano.net,irpinianews.it,key4biz.it,lavoripubblici.it,legnanonews.com,lipari.biz,merateonline.it,meteoweb.eu,modellismopiu.it,oggitreviso.it,radionorba.it,riassuntini.com,rockit.it,sassarinotizie.com,secoloditalia.it,sostariffe.it,strettoweb.com,teatronaturale.it,technologyreview.it,telejato.it,tenews.it,tg24.info,traniviva.it,varesenews.it,vocenuova.tv##.banner", "universodelgioco.it##.banner-btf-side-rectangle", "universodelgioco.it##.banner-leaderboard", "universodelgioco.it##.banner-sky", "giornaledibarga.it##.bnside", "noitv.it##.bntop", "iphoneitalia.com##.box-amazon", "abruzzolive.it##.btxe-container", "pomiglianolive.it##.code-block-11", "pomiglianolive.it##.code-block-12", "pomiglianolive.it##.code-block-5", "pomiglianolive.it##.code-block-8", "pomiglianolive.it##.code-block-9", "giornaledibarga.it##.fascia-banner", "nextpit.it##.gptSlot", "sorrisi.com##.gtv-trigger-elevator", "ecodelcinema.com,ondatv.tv##.header-banner", "calabria7.it##.header__banner", "libero.it##.lancio_promo", "ildolomiti.it##.native", "goodtrekking.it##.no-one", "filmpertutti.onl,filmpertutti.voto##.no_pop", "cure-naturali.it,fc-suedtirol.com,lifegate.it,ragusanews.com##.partner", "ideegreen.it,motori.it##.promobox", "digitalic.it##.skin_a_dx", "digitalic.it##.skin_a_sx", "alpauno.com,asbiscegliecalcio.it,asgiana.com,business24tv.it,legavolleyfemminile.it,teleoccidente.it,venividivici.us##.slides", "dday.it,lifegate.it,tomshw.it##.sponsored", "ilgiornaledeltermoidraulico.it,pescaracalcio.com,tennispavese.it,ternanacalcio.com##.td-footer-wrapper", "tomshw.it##.teetee-embed", "confinelive.it##.tmsgfrekab-container", "allsongs.tv,casamagazine.it,dica33.it,donnemagazine.it,foodblog.it,lavocedellevalli.it,mammemagazine.it,motorimagazine.it,offerteshopping.it,style24.it,tuobenessere.it,viaggiamo.it##.top-banner", "colonnesonore.net##.uk-panel.uk-panel-header", "fashionandroid.com##.widget-header", "tuttoapp-android.com##.wpmoneyclick_template_simple_button", "consigli.it##.zio_", "amalfinotizie.it,birramoriamoci.it,canale3.tv,centotrentuno.com,corrieredellacalabria.it,cremaoggi.it,cremonaoggi.it,cremonasport.it,freeonline.org,hwupgrade.it,lasiritide.it,lavorincasa.it,oglioponews.it,ricettedellanonna.net,rivistanatura.com,settesere.it,telegramdirectory.it,tusciaweb.eu,tuttowrestling.com,tvadrano.com##a[href*=\"//bit.ly/\"]", "ilgeniodellostreaming.tel##a[href*=\"/fake2/\"]", "gizchina.it##a[href^=\"http://shrsl.com/\"]", "animalinelmondo.com##a[href^=\"http://tiny.cc/\"]", "markos.it##a[href^=\"http://www.bookings.net/\"]", "birramoriamoci.it,fattoincasadabenedetta.it,guerrestellari.net,hovogliadidolce.it,hwupgrade.it,hynerd.it,ilsoftware.it,infotelematico.com,juzaphoto.com,macitynet.it,maidirelink.it,mio-ip.eu,nokioteca.net,tivusat.tv,trattamentinaturalibio.it,uberti.eu,videogiocare.it,windowsblogitalia.com##a[href^=\"https://amzn.to/\"]", "albengacorsara.it,campaniameteo.it,germania.info##a[href^=\"https://clk.tradedoubler.com/\"]", "libero.it##a[href^=\"https://httpslink.com/\"]", "gizchina.it##a[href^=\"https://it.banggood.com/marketing-\"]", "2backpack.it,alfemminile.com,badcomics.it,badgames.it,badtaste.it,badtv.it,beppegrillo.it,birramoriamoci.it,bora.la,bsnews.it,cityrumors.it,classifichemusica.it,cliccascienze.it,comingsoon.it,comprovendodischi.it,comprovendolibri.it,consigli.it,donnamoderna.com,eurogamer.it,everyeye.it,facciabuco.com,frasicelebri.it,game-experience.it,gamerclick.it,giardinaggio.it,giardinaggio.net,giardiniblog.it,giornaledellabirra.it,gizchina.it,hdblog.it,hobbyquotidiano.com,hwupgrade.it,inter.it,iphoneitalia.com,junglam.com,lavorincasa.it,londra.today,londranews.com,mangaforever.net,mantovanotizie.com,migliorigiochi.eu,miglioriofferteweb.com,nerdmovieproductions.it,newsly.it,nientepopcorn.it,nonsprecare.it,notebookcheck.it,notetralerighe.it,novabbe.com,orologipertutti.it,outofbit.it,pensieriparole.it,pianetamamma.it,punto-informatico.it,ridble.com,rifaidate.it,rockol.it,spaziogames.it,tabsernews.it,telefonino.net,termometropolitico.it,topdigamma.it,tuttotek.it,viaggioingermania.it,vuemmetv.it,webnews.it##a[href^=\"https://www.amazon.\"][href*=\"tag=\"]", "juzaphoto.com##a[onclick]", "lavocedellevalli.it##a[onclick^=\"ga('send', 'event',\"]", "calabria7.it##div[class^=\"angwp_\"]", "sienanews.it##div[style=\"border: #1e7ebc 1px solid; background: #ffffff url(https://jooble.org/images/logo_48x61.gif) no-repeat 5px 10px; width: 250px; height: 53px; text-align: right; padding: 5px; line-height: 14px;\"]", "repubblica.it##div[style=\"height:300px; clear:both;\"]", "voglioviverecosi.com##div[style=\"min-height: 90px; margin-top: 20px; margin-bottom: 20px\"]", "poki.it##div[style=\"width:300px;height:250px;\"]", "tennispavese.it##img[width=\"728\"]"],
    "removed": ["||booking.com^$subdocument,domain=cosafarei.it|iltempo.it|milleunadonna.it|notizie.tiscali.it|quattroruote.it|sport.tiscali.it|tuttobaviera.it", "||wp.com^*/banner-$domain=giornaledicalabria.it|ilgiornaledeiveronesi.it|infocilento.it|temporeale.info", "buongiornoalghero.it,freeonline.org,itvonline.news,lospiffero.com,salernonotizie.it###skinlink", "cityrumors.it,londranews.com##.aawp", "ilfoglio.it,jugo.it,lacrocequotidiano.it,le-citazioni.it,liberatv.ch,lonelyplanetitalia.it,mondoplay.it,mondoxbox.com,quotidianoapuano.net,serietvu.link,smartbuildingitalia.it,trend-online.com,tripadvisor.it##.ad", "lamilano.it##.adcontainer", "24emilia.com,autoscout24.ch,brocardi.it,cb01.online,filmpertutti.onl,gamemag.it,hdblog.it,hdmotori.it,hdtroll.it,ilgeniodellostreaming.rest,ilikepuglia.it,live-sport-tv.it,teleborsa.it,viamichelin.ch,viamichelin.it##.ads", "adessoin.tv,allaguida.it,amica.it,ansa.it,buttalapasta.it,calciomercato.com,curioctopus.it,dissapore.com,forbes.it,gelocal.it,gianlucadimarzio.com,gta-expert.it,ilfattoquotidiano.it,ilpost.it,ilsole24ore.com,latina24ore.it,mediaset.it,movieplayer.it,multiplayer.it,nanopress.it,notiziemilan.it,pourfemme.it,prealpina.it,radioindiretta.fm,repubblica.it,salepepe.it,skuola.net,staffettaonline.com,stylosophy.it,supereva.it,virgilio.it,vocenuova.tv##.adv", "agi.it,america24.com,casateonline.it,cremonaoggi.it,cronacheancona.it,cronachemaceratesi.it,cuneocronaca.it,dagospia.com,designmag.it,difesaonline.it,diretta.it,ejatv.com,euroregionalpmed.eu,foodweb.it,globalist.it,gossip.it,guidaviaggi.it,html.it,ilfriuli.it,ilturista.info,informacalcio.quotidiano.net,irpinianews.it,lavoripubblici.it,legnanonews.com,lipari.biz,merateonline.it,meteoweb.eu,modellismopiu.it,oggitreviso.it,radionorba.it,riassuntini.com,rockit.it,sassarinotizie.com,secoloditalia.it,sostariffe.it,strettoweb.com,teatronaturale.it,technologyreview.it,telejato.it,tenews.it,tg24.info,traniviva.it,varesenews.it,vocenuova.tv##.banner", "ondatv.tv##.header-banner", "filmpertutti.onl##.no_pop", "cure-naturali.it,fc-suedtirol.com,ragusanews.com##.partner", "calabria7.it,esperia.tv,wondernetmag.com##.penci-promo-link", "motori.it##.promobox", "alpauno.com,asbiscegliecalcio.it,asgiana.com,business24tv.it,legavolleyfemminile.it,teleoccidente.it##.slides", "dday.it,lifegate.it##.sponsored", "ilgiornaledeltermoidraulico.it,pescaracalcio.com,ternanacalcio.com##.td-footer-wrapper", "allsongs.tv,casamagazine.it,dica33.it,donnemagazine.it,foodblog.it,mammemagazine.it,motorimagazine.it,offerteshopping.it,style24.it,tuobenessere.it,viaggiamo.it##.top-banner", "amalfinotizie.it,birramoriamoci.it,canale3.tv,centotrentuno.com,corrieredellacalabria.it,cremaoggi.it,cremonaoggi.it,cremonasport.it,freeonline.org,hwupgrade.it,lasiritide.it,lavorincasa.it,oglioponews.it,ricettedellanonna.net,rivistanatura.com,settesere.it,tusciaweb.eu,tvadrano.com##a[href*=\"//bit.ly/\"]", "birramoriamoci.it,fattoincasadabenedetta.it,hovogliadidolce.it,hwupgrade.it,hynerd.it,ilsoftware.it,infotelematico.com,juzaphoto.com,macitynet.it,mio-ip.eu,nokioteca.net,tivusat.tv,trattamentinaturalibio.it,videogiocare.it##a[href^=\"https://amzn.to/\"]", "albengacorsara.it,campaniameteo.it##a[href^=\"https://clk.tradedoubler.com/\"]", "2backpack.it,alfemminile.com,badcomics.it,badgames.it,badtaste.it,badtv.it,beppegrillo.it,birramoriamoci.it,bora.la,bsnews.it,cityrumors.it,classifichemusica.it,cliccascienze.it,comingsoon.it,comprovendodischi.it,comprovendolibri.it,consigli.it,donnamoderna.com,eurogamer.it,everyeye.it,facciabuco.com,frasicelebri.it,game-experience.it,gamerclick.it,giardinaggio.it,giardinaggio.net,giardiniblog.it,giornaledellabirra.it,gizchina.it,hdblog.it,hwupgrade.it,inter.it,junglam.com,lavorincasa.it,londra.today,londranews.com,mangaforever.net,mantovanotizie.com,miglioriofferteweb.com,nerdmovieproductions.it,newsly.it,nientepopcorn.it,notebookcheck.it,notetralerighe.it,orologipertutti.it,pensieriparole.it,pianetamamma.it,punto-informatico.it,ridble.com,rifaidate.it,rockol.it,spaziogames.it,tabsernews.it,telefonino.net,termometropolitico.it,topdigamma.it,tuttotek.it,vuemmetv.it,webnews.it##a[href^=\"https://www.amazon.\"][href*=\"tag=\"]"]
}