{
    "added": ["||adresponse.it^$third-party", "||booking.com^$subdocument,domain=cosafarei.it|guida-polinesia.com|guidaviaggi.org|iltempo.it|milleunadonna.it|notizie.tiscali.it|panannablogdiviaggi.com|quattroruote.it|sport.tiscali.it|tuttobaviera.it|viaggi-lowcost.info|viaggi-nel-tempo.com", "||rentalcars.com^$script,subdocument,domain=guida-polinesia.com|guidaviaggi.org", "||audirsclub.it/images/misc/Faratech", "||audisportclub.com/banner/", "||citroen-club.it/portale/img/banner_", "||citroen-club.it/portale/img/logo_lopez_racing.jpg", "||citynotizie.it^*/adv-", "||citynotizie.it^*/Antey.jpg", "||citynotizie.it^*/Becca.jpg", "||citynotizie.it^*/CRIperTe_SpesaAmica.jpg", "||citynotizie.it^*/DB.jpg", "||citynotizie.it^*/Energym.jpg", "||citynotizie.it^*/Gran-Paradiso.jpg", "||citynotizie.it^*/idillium.jpg", "||citynotizie.it^*/mascognaz.jpg", "||citynotizie.it^*/regina.jpg", "||digitalic.it^*/skin_", "||dronezine.it^*-banner-", "||dronezine.it^*/banner-", "||dronezine.it^*/mavic-", "||eastwest.eu^*/banner/", "||emiliaeunanotte.it^*/Banner-", "||fashionandroid.com^*-banner.", "||giornaledibarga.it^*/banner-", "||giornaledibarga.it^*/bsnner-", "||giornaledibarga.it^*/cmf2020.jpg", "||giornaledibarga.it^*/pensarecasa.", "||giornaledibarga.it^*/PP-", "||gizchina.it^*-gshopper.", "||gizchina.it^*/banggood-", "||gizchina.it^*/geekbuying-", "||hobbyquotidiano.com^*/amazon_", "||ilsoftware.it/images/sezioni/btn_arubacloud.png", "||infoperte.it^*/franchising.jpg", "||juzaphoto.com^*/imgj_1603286335.jpg", "||key4biz.it^*/req-", "||kiaclub.it/kia/banner/", "||kurdistanonline.net/img/scarica", "||lavocedellevalli.it^*_Banner_", "||mangiobenevivobene.it^*/banner-", "||noitv.it^*-Banner-", "||noitv.it^*/banner-", "||noitv.it^*/banner_", "||noitv.it^*/clasiss-", "||novabbe.com^*/guardalo-su-amazon-", "||paesesera.toscana.it^*/Estra_", "||reporter.it^*-banner-", "||reporter.it^*-banner.", "||reporter.it^*-Webbanner-", "||reporter.it^*/anigif.gif", "||reporter.it^*/ARCOBALENO-copia-", "||reporter.it^*/banner-", "||reporter.it^*/CUCINE-OGGI.jpg", "||reporter.it^*/IRENFORSU-", "||reporter.it^*/REAnimali.", "||reporter.it^*/ReggioCivitas.jpg", "||reporter.it^*/scubasail.png", "||scubaportal.it^*/skin-", "||sienanews.it^*/300x250px.", "||sienanews.it^*/6384073f-", "||sienanews.it^*/960x300-", "||sienanews.it^*/banner-", "||sienanews.it^*/banner234.", "||sienanews.it^*/CAPTUR-", "||sienanews.it^*/Composizione-", "||sienanews.it^*/www.termeaq.it_", "||sienanews.it^*/www.vismederi.com_", "||sienanews.it^*_banner_", "||telegramdirectory.it^*/discount-", "||trainingpedia.it^*/banner-", "||trainingpedia.it^*/corso-personal-trainer.jpg", "||turismoitalianews.it^*/banner/", "||turismoitalianews.it^*/banners/", "||uberti.eu^*/guide/", "||varesesport.com^*500x300", "||viaggioingermania.it^*/corso-tedesco-", "||vwgolfcommunity.com/banner/", "||vwgolfcommunity.com/sponsor/", "||worldofwrestling.it^*/wow.gif", "||wp.com/www.worldofwrestling.it/*/wow.gif", "||wp.com^*/banner-$domain=cinecorriere.it|giornaledicalabria.it|ilgiornaledeiveronesi.it|infocilento.it|nonsoloturisti.it|temporeale.info", "||wp.com^*_Banner_$domain=gliacchiappafilm.it", "||zonawrestling.net^*-banner.", "##.tn_adv", "noitv.it###bn-sidebar", "scubaportal.it###bodylink", "corrierequotidiano.it###custom_html-8", "trueriders.it###div-TRD_MPU_CONT", "nextpit.it###div-header", "nextpit.it###div-sidebar_right_extra", "grecia.info###fh_content", "varesesport.com###floorsunrise", "buongiornoalghero.it,freeonline.org,itvonline.news,lospiffero.com,planetmountain.com,salernonotizie.it###skinlink", "mangiobenevivobene.it###youtube_responsive-2", "amazon.it##.MultiBrandCreativeDesktop", "gnius.it##.aalb-product-carousel-unit", "cityrumors.it,londranews.com,migliorigiochi.eu,outofbit.it##.aawp", "ilfoglio.it,jugo.it,lacrocequotidiano.it,le-citazioni.it,liberatv.ch,lonelyplanetitalia.it,mondoplay.it,mondoxbox.com,motorbox.com,quotidianoapuano.net,serietvu.link,smartbuildingitalia.it,trend-online.com,tripadvisor.it##.ad", "germania.info##.article_buttons_end", "germania.info##.article_hotel_vicino", "agi.it,america24.com,casateonline.it,cremonaoggi.it,cronacheancona.it,cronachemaceratesi.it,cuneocronaca.it,dagospia.com,designmag.it,difesaonline.it,diretta.it,ejatv.com,euroregionalpmed.eu,foodweb.it,globalist.it,gossip.it,guidaviaggi.it,html.it,ilfriuli.it,ilturista.info,informacalcio.quotidiano.net,irpinianews.it,key4biz.it,lavoripubblici.it,legnanonews.com,lipari.biz,merateonline.it,meteoweb.eu,modellismopiu.it,oggitreviso.it,radionorba.it,riassuntini.com,rockit.it,sassarinotizie.com,secoloditalia.it,sostariffe.it,strettoweb.com,teatronaturale.it,technologyreview.it,telejato.it,tenews.it,tg24.info,traniviva.it,varesenews.it,vocenuova.tv##.banner", "universodelgioco.it##.banner-btf-side-rectangle", "universodelgioco.it##.banner-leaderboard", "universodelgioco.it##.banner-sky", "giornaledibarga.it##.bnside", "noitv.it##.bntop", "giornaledibarga.it##.fascia-banner", "nextpit.it##.gptSlot", "ildolomiti.it##.native", "goodtrekking.it##.no-one", "digitalic.it##.skin_a_dx", "digitalic.it##.skin_a_sx", "ilgiornaledeltermoidraulico.it,pescaracalcio.com,tennispavese.it,ternanacalcio.com##.td-footer-wrapper", "allsongs.tv,casamagazine.it,dica33.it,donnemagazine.it,foodblog.it,lavocedellevalli.it,mammemagazine.it,motorimagazine.it,offerteshopping.it,style24.it,tuobenessere.it,viaggiamo.it##.top-banner", "fashionandroid.com##.widget-header", "tuttoapp-android.com##.wpmoneyclick_template_simple_button", "consigli.it##.zio_", "amalfinotizie.it,birramoriamoci.it,canale3.tv,centotrentuno.com,corrieredellacalabria.it,cremaoggi.it,cremonaoggi.it,cremonasport.it,freeonline.org,hwupgrade.it,lasiritide.it,lavorincasa.it,oglioponews.it,ricettedellanonna.net,rivistanatura.com,settesere.it,telegramdirectory.it,tusciaweb.eu,tuttowrestling.com,tvadrano.com##a[href*=\"//bit.ly/\"]", "gizchina.it##a[href^=\"http://shrsl.com/\"]", "markos.it##a[href^=\"http://www.bookings.net/\"]", "birramoriamoci.it,fattoincasadabenedetta.it,guerrestellari.net,hovogliadidolce.it,hwupgrade.it,hynerd.it,ilsoftware.it,infotelematico.com,juzaphoto.com,macitynet.it,maidirelink.it,mio-ip.eu,nokioteca.net,tivusat.tv,trattamentinaturalibio.it,uberti.eu,videogiocare.it,windowsblogitalia.com##a[href^=\"https://amzn.to/\"]", "albengacorsara.it,campaniameteo.it,germania.info##a[href^=\"https://clk.tradedoubler.com/\"]", "gizchina.it##a[href^=\"https://it.banggood.com/marketing-\"]", "2backpack.it,alfemminile.com,badcomics.it,badgames.it,badtaste.it,badtv.it,beppegrillo.it,birramoriamoci.it,bora.la,bsnews.it,cityrumors.it,classifichemusica.it,cliccascienze.it,comingsoon.it,comprovendodischi.it,comprovendolibri.it,consigli.it,donnamoderna.com,eurogamer.it,everyeye.it,facciabuco.com,frasicelebri.it,game-experience.it,gamerclick.it,giardinaggio.it,giardinaggio.net,giardiniblog.it,giornaledellabirra.it,gizchina.it,hdblog.it,hobbyquotidiano.com,hwupgrade.it,inter.it,iphoneitalia.com,junglam.com,lavorincasa.it,londra.today,londranews.com,mangaforever.net,mantovanotizie.com,migliorigiochi.eu,miglioriofferteweb.com,nerdmovieproductions.it,newsly.it,nientepopcorn.it,nonsprecare.it,notebookcheck.it,notetralerighe.it,novabbe.com,orologipertutti.it,outofbit.it,pensieriparole.it,pianetamamma.it,punto-informatico.it,ridble.com,rifaidate.it,rockol.it,spaziogames.it,tabsernews.it,telefonino.net,termometropolitico.it,topdigamma.it,tuttotek.it,viaggioingermania.it,vuemmetv.it,webnews.it##a[href^=\"https://www.amazon.\"][href*=\"tag=\"]", "juzaphoto.com##a[onclick]", "lavocedellevalli.it##a[onclick^=\"ga('send', 'event',\"]", "sienanews.it##div[style=\"border: #1e7ebc 1px solid; background: #ffffff url(https://jooble.org/images/logo_48x61.gif) no-repeat 5px 10px; width: 250px; height: 53px; text-align: right; padding: 5px; line-height: 14px;\"]", "tennispavese.it##img[width=\"728\"]"],
    "removed": ["||booking.com^$subdocument,domain=cosafarei.it|iltempo.it|milleunadonna.it|notizie.tiscali.it|quattroruote.it|sport.tiscali.it|tuttobaviera.it", "||wp.com^*/banner-$domain=cinecorriere.it|giornaledicalabria.it|ilgiornaledeiveronesi.it|infocilento.it|temporeale.info", "buongiornoalghero.it,freeonline.org,itvonline.news,lospiffero.com,salernonotizie.it###skinlink", "cityrumors.it,londranews.com##.aawp", "ilfoglio.it,jugo.it,lacrocequotidiano.it,le-citazioni.it,liberatv.ch,lonelyplanetitalia.it,mondoplay.it,mondoxbox.com,quotidianoapuano.net,serietvu.link,smartbuildingitalia.it,trend-online.com,tripadvisor.it##.ad", "agi.it,america24.com,casateonline.it,cremonaoggi.it,cronacheancona.it,cronachemaceratesi.it,cuneocronaca.it,dagospia.com,designmag.it,difesaonline.it,diretta.it,ejatv.com,euroregionalpmed.eu,foodweb.it,globalist.it,gossip.it,guidaviaggi.it,html.it,ilfriuli.it,ilturista.info,informacalcio.quotidiano.net,irpinianews.it,lavoripubblici.it,legnanonews.com,lipari.biz,merateonline.it,meteoweb.eu,modellismopiu.it,oggitreviso.it,radionorba.it,riassuntini.com,rockit.it,sassarinotizie.com,secoloditalia.it,sostariffe.it,strettoweb.com,teatronaturale.it,technologyreview.it,telejato.it,tenews.it,tg24.info,traniviva.it,varesenews.it,vocenuova.tv##.banner", "ilgiornaledeltermoidraulico.it,pescaracalcio.com,ternanacalcio.com##.td-footer-wrapper", "allsongs.tv,casamagazine.it,dica33.it,donnemagazine.it,foodblog.it,mammemagazine.it,motorimagazine.it,offerteshopping.it,style24.it,tuobenessere.it,viaggiamo.it##.top-banner", "amalfinotizie.it,birramoriamoci.it,canale3.tv,centotrentuno.com,corrieredellacalabria.it,cremaoggi.it,cremonaoggi.it,cremonasport.it,freeonline.org,hwupgrade.it,lasiritide.it,lavorincasa.it,oglioponews.it,ricettedellanonna.net,rivistanatura.com,settesere.it,tusciaweb.eu,tvadrano.com##a[href*=\"//bit.ly/\"]", "birramoriamoci.it,fattoincasadabenedetta.it,guerrestellari.net,hovogliadidolce.it,hwupgrade.it,hynerd.it,ilsoftware.it,infotelematico.com,juzaphoto.com,macitynet.it,maidirelink.it,mio-ip.eu,nokioteca.net,tivusat.tv,trattamentinaturalibio.it,videogiocare.it,windowsblogitalia.com##a[href^=\"https://amzn.to/\"]", "albengacorsara.it,campaniameteo.it##a[href^=\"https://clk.tradedoubler.com/\"]", "2backpack.it,alfemminile.com,badcomics.it,badgames.it,badtaste.it,badtv.it,beppegrillo.it,birramoriamoci.it,bora.la,bsnews.it,cityrumors.it,classifichemusica.it,cliccascienze.it,comingsoon.it,comprovendodischi.it,comprovendolibri.it,consigli.it,donnamoderna.com,eurogamer.it,everyeye.it,facciabuco.com,frasicelebri.it,game-experience.it,gamerclick.it,giardinaggio.it,giardinaggio.net,giardiniblog.it,giornaledellabirra.it,gizchina.it,hdblog.it,hwupgrade.it,inter.it,iphoneitalia.com,junglam.com,lavorincasa.it,londra.today,londranews.com,mangaforever.net,mantovanotizie.com,miglioriofferteweb.com,nerdmovieproductions.it,newsly.it,nientepopcorn.it,notebookcheck.it,notetralerighe.it,orologipertutti.it,pensieriparole.it,pianetamamma.it,punto-informatico.it,ridble.com,rifaidate.it,rockol.it,spaziogames.it,tabsernews.it,telefonino.net,termometropolitico.it,topdigamma.it,tuttotek.it,vuemmetv.it,webnews.it##a[href^=\"https://www.amazon.\"][href*=\"tag=\"]"]
}