{
    "added": ["||adresponse.it^$third-party", "||citynotizie.it^*/adv-", "||citynotizie.it^*/Antey.jpg", "||citynotizie.it^*/Becca.jpg", "||citynotizie.it^*/CRIperTe_SpesaAmica.jpg", "||citynotizie.it^*/DB.jpg", "||citynotizie.it^*/Energym.jpg", "||citynotizie.it^*/Gran-Paradiso.jpg", "||citynotizie.it^*/idillium.jpg", "||citynotizie.it^*/mascognaz.jpg", "||citynotizie.it^*/regina.jpg", "||dronezine.it^*-banner-", "||dronezine.it^*/banner-", "||dronezine.it^*/mavic-", "||eastwest.eu^*/banner/", "||hobbyquotidiano.com^*/amazon_", "||juzaphoto.com^*/imgj_1603286335.jpg", "||lavocedellevalli.it^*_Banner_", "||scubaportal.it^*/skin-", "||sienanews.it^*/300x250px.", "||sienanews.it^*/6384073f-", "||sienanews.it^*/960x300-", "||sienanews.it^*/banner-", "||sienanews.it^*/banner234.", "||sienanews.it^*/CAPTUR-", "||sienanews.it^*/Composizione-", "||sienanews.it^*/www.termeaq.it_", "||sienanews.it^*/www.vismederi.com_", "||sienanews.it^*_banner_", "scubaportal.it###bodylink", "buongiornoalghero.it,freeonline.org,itvonline.news,lospiffero.com,planetmountain.com,salernonotizie.it###skinlink", "cityrumors.it,londranews.com,migliorigiochi.eu,outofbit.it##.aawp", "ildolomiti.it##.native", "goodtrekking.it##.no-one", "allsongs.tv,casamagazine.it,dica33.it,donnemagazine.it,foodblog.it,lavocedellevalli.it,mammemagazine.it,motorimagazine.it,offerteshopping.it,style24.it,tuobenessere.it,viaggiamo.it##.top-banner", "consigli.it##.zio_", "2backpack.it,alfemminile.com,badcomics.it,badgames.it,badtaste.it,badtv.it,beppegrillo.it,birramoriamoci.it,bora.la,bsnews.it,cityrumors.it,classifichemusica.it,cliccascienze.it,comingsoon.it,comprovendodischi.it,comprovendolibri.it,consigli.it,donnamoderna.com,eurogamer.it,everyeye.it,facciabuco.com,frasicelebri.it,game-experience.it,gamerclick.it,giardinaggio.it,giardinaggio.net,giardiniblog.it,giornaledellabirra.it,gizchina.it,hdblog.it,hobbyquotidiano.com,hwupgrade.it,inter.it,iphoneitalia.com,junglam.com,lavorincasa.it,londra.today,londranews.com,mangaforever.net,mantovanotizie.com,migliorigiochi.eu,miglioriofferteweb.com,nerdmovieproductions.it,newsly.it,nientepopcorn.it,nonsprecare.it,notebookcheck.it,notetralerighe.it,novabbe.com,orologipertutti.it,outofbit.it,pensieriparole.it,pianetamamma.it,punto-informatico.it,ridble.com,rifaidate.it,rockol.it,spaziogames.it,tabsernews.it,telefonino.net,termometropolitico.it,topdigamma.it,tuttotek.it,viaggioingermania.it,vuemmetv.it,webnews.it##a[href^=\"https://www.amazon.\"][href*=\"tag=\"]", "juzaphoto.com##a[onclick]", "lavocedellevalli.it##a[onclick^=\"ga('send', 'event',\"]", "sienanews.it##div[style=\"border: #1e7ebc 1px solid; background: #ffffff url(https://jooble.org/images/logo_48x61.gif) no-repeat 5px 10px; width: 250px; height: 53px; text-align: right; padding: 5px; line-height: 14px;\"]"],
    "removed": ["buongiornoalghero.it,freeonline.org,itvonline.news,lospiffero.com,salernonotizie.it###skinlink", "cityrumors.it,londranews.com,outofbit.it##.aawp", "allsongs.tv,casamagazine.it,dica33.it,donnemagazine.it,foodblog.it,mammemagazine.it,motorimagazine.it,offerteshopping.it,style24.it,tuobenessere.it,viaggiamo.it##.top-banner", "2backpack.it,alfemminile.com,badcomics.it,badgames.it,badtaste.it,badtv.it,beppegrillo.it,birramoriamoci.it,bora.la,bsnews.it,cityrumors.it,classifichemusica.it,cliccascienze.it,comingsoon.it,comprovendodischi.it,comprovendolibri.it,consigli.it,donnamoderna.com,eurogamer.it,everyeye.it,facciabuco.com,frasicelebri.it,game-experience.it,gamerclick.it,giardinaggio.it,giardinaggio.net,giardiniblog.it,giornaledellabirra.it,gizchina.it,hdblog.it,hwupgrade.it,inter.it,iphoneitalia.com,junglam.com,lavorincasa.it,londra.today,londranews.com,mangaforever.net,mantovanotizie.com,miglioriofferteweb.com,nerdmovieproductions.it,newsly.it,nientepopcorn.it,notebookcheck.it,notetralerighe.it,novabbe.com,orologipertutti.it,outofbit.it,pensieriparole.it,pianetamamma.it,punto-informatico.it,ridble.com,rifaidate.it,rockol.it,spaziogames.it,tabsernews.it,telefonino.net,termometropolitico.it,topdigamma.it,tuttotek.it,viaggioingermania.it,vuemmetv.it,webnews.it##a[href^=\"https://www.amazon.\"][href*=\"tag=\"]"]
}