{
    "name": "mobile-react-native-ads-trackers",
    "engines": {
        "23": {
            "url": "https://api.pebblebrowser.com/adblocker/engines/0.7.0-engine.bytes",
            "checksum": "f8f1607b546debf1e9048211f533df41dfe4fedca4703bd2ddf59da4bcace475"
        },
        "24": {
            "url": "https://api.pebblebrowser.com/adblocker/engines/0.8.0-engine.bytes",
            "checksum": "993f8592699bfa3399b207b1fa76607edb44e541dd245d809f47b0ac6cd854c5"
        },
        "25": {
            "url": "https://api.pebblebrowser.com/adblocker/engines/0.9.0-engine.bytes",
            "checksum": "17a59c061c68155e9ffbee8509c234d69e7531f236fb42ac9013ad6c2e4e7a80"
        },
        "26": {
            "url": "https://api.pebblebrowser.com/adblocker/engines/0.9.1-engine.bytes",
            "checksum": "88ab62e6dfa69a23938d8047d62592d6a4acc102e246124294ac838291d25306"
        },
        "28": {
            "url": "https://api.pebblebrowser.com/adblocker/engines/0.10.0-engine.bytes",
            "checksum": "1082bc03886359bbc73a49b6c110e08f056937fba022ce49ed9009297ca3e941"
        },
        "29": {
            "url": "https://api.pebblebrowser.com/adblocker/engines/0.11.0-engine.bytes",
            "checksum": "cd5cc41ea6658c0c01214d11549660df0f68c2dffa49aaeab392d20b132dbd7f"
        },
        "30": {
            "url": "https://api.pebblebrowser.com/adblocker/engines/0.12.0-engine.bytes",
            "checksum": "8ffc4f9757634da36a04ca6c428546f18666089e65982201b3f919e22f08d9a4"
        },
        "32": {
            "url": "https://api.pebblebrowser.com/adblocker/engines/0.12.1-engine.bytes",
            "checksum": "ea7ecc4594d80d47bde633c18da7c1b51bd3b26e9dab74e54defd352034b07da"
        },
        "33": {
            "url": "https://api.pebblebrowser.com/adblocker/engines/0.13.0-engine.bytes",
            "checksum": "367ec31861f0e6a8e64361d3ce653c40ae6588a2051415963fff4922552d7cbd"
        },
        "34": {
            "url": "https://api.pebblebrowser.com/adblocker/engines/0.14.0-engine.bytes",
            "checksum": "ad6d7d083c3a04c892b313c8dd8e0780d17cbb2b42c13bbc7db4bc8c4588a0a5"
        },
        "35": {
            "url": "https://api.pebblebrowser.com/adblocker/engines/1.0.0-engine.bytes",
            "checksum": "f485d5947a276a15869f20ba88e9c1aa0fc15e1da9ff93085da3996f23d1f425"
        },
        "36": {
            "url": "https://api.pebblebrowser.com/adblocker/engines/1.0.1-engine.bytes",
            "checksum": "35e9b3fcd729fd51558dd604af917c93f1412ae1c3ded368f5a80a7cab1cd255"
        },
        "37": {
            "url": "https://api.pebblebrowser.com/adblocker/engines/1.1.0-engine.bytes",
            "checksum": "fa2cd7ab99cf8d6a250751ceff65bfeb903a739873e0d6060ed0ce5e851802bf"
        },
        "38": {
            "url": "https://api.pebblebrowser.com/adblocker/engines/1.2.0-engine.bytes",
            "checksum": "41192dbbfc8fb5b19fc52ea7e64a719f6ee691953f4f8391058febcfc109e0d1"
        },
        "39": {
            "url": "https://api.pebblebrowser.com/adblocker/engines/1.3.0-engine.bytes",
            "checksum": "8903c6be445defdab1e0a8a467d24b3f452f1a0ec998e1d17236da823c5868fc"
        },
        "40": {
            "url": "https://api.pebblebrowser.com/adblocker/engines/1.3.1-engine.bytes",
            "checksum": "28dd58603ce97a4e05e054ad2bbcb7f40c7f75313f50f508417016fd71c2233d"
        },
        "41": {
            "url": "https://api.pebblebrowser.com/adblocker/engines/1.4.0-engine.bytes",
            "checksum": "72bcffa20cff3d715ba79307b734a66219d16fa36a4b2b0e1ef4c06f175f86e9"
        },
        "42": {
            "url": "https://api.pebblebrowser.com/adblocker/engines/1.4.1-engine.bytes",
            "checksum": "1e44b172e5db62219cc460d5ec9f57dfe1e64a56ad320355b868d7f0eb251bf5"
        },
        "43": {
            "url": "https://api.pebblebrowser.com/adblocker/engines/1.4.18-engine.bytes",
            "checksum": "b517e56c3156dab38e0089f87007492230a912fceef4803c5d38f63c4b64cb79"
        },
        "44": {
            "url": "https://api.pebblebrowser.com/adblocker/engines/1.5.0-engine.bytes",
            "checksum": "e0f2e123bc28e9f089e3c4c76a78f0dd035ffb6d877572851275c8770d143717"
        },
        "45": {
            "url": "https://api.pebblebrowser.com/adblocker/engines/1.6.2-engine.bytes",
            "checksum": "bac6ad59ccd512547d5dbaf5a86d6af25d2253df07a18415d4274a1b33c6f39e"
        },
        "46": {
            "url": "https://api.pebblebrowser.com/adblocker/engines/1.7.1-engine.bytes",
            "checksum": "82d8bae5b29715b3e3466775b39aceb348c68243b5192632acf9e06e619fcae7"
        },
        "47": {
            "url": "https://api.pebblebrowser.com/adblocker/engines/1.8.3-engine.bytes",
            "checksum": "c282fa49f5fa41722baaf35fbe0412a0b9b837f074c36622f307ac07b4ecc038"
        },
        "49": {
            "url": "https://api.pebblebrowser.com/adblocker/engines/1.9.1-engine.bytes",
            "checksum": "11033f286b8284201aad42a8d5a9bd817dc2d1083f2e69a8938f12a7443c8930"
        },
        "51": {
            "url": "https://api.pebblebrowser.com/adblocker/engines/1.9.2-engine.bytes",
            "checksum": "500be32b601e890ea6139678c1ab0348d0f6cf62e4351607aab5aced67dd4a59"
        },
        "78": {
            "url": "https://api.pebblebrowser.com/adblocker/engines/1.10.0-engine.bytes",
            "checksum": "d0e782319d07ce8052c1fae3c81f4e59ec669b0d3e3add22882a3510c9cfba74"
        },
        "79": {
            "url": "https://api.pebblebrowser.com/adblocker/engines/1.11.0-engine.bytes",
            "checksum": "0309c205b418a033da7f121c88e57b8d6f752f0024c1912a84b98b909c283660"
        },
        "80": {
            "url": "https://api.pebblebrowser.com/adblocker/engines/1.12.0-engine.bytes",
            "checksum": "f959dfde4a3fdaec6218de55b8059a21888dd2d4151bc1774b4cf6c2b41717ea"
        },
        "81": {
            "url": "https://api.pebblebrowser.com/adblocker/engines/1.12.1-engine.bytes",
            "checksum": "bdf0f414cbd29c6a8405455debbb5d7b8cf9000b0a70fadeb880d30856245450"
        },
        "82": {
            "url": "https://api.pebblebrowser.com/adblocker/engines/1.12.2-engine.bytes",
            "checksum": "3d540c339cee0fcad5ed09350b0c0a174b64c1ff66f16234c6b2f00ab06d4311"
        },
        "83": {
            "url": "https://api.pebblebrowser.com/adblocker/engines/1.12.3-engine.bytes",
            "checksum": "d804c5ef6088cf9c0d2675d89ba0f78da85a23a6df86f9dc97a4f0484aec60c3"
        },
        "85": {
            "url": "https://api.pebblebrowser.com/adblocker/engines/1.13.0-engine.bytes",
            "checksum": "b58810ad8804c03e1efcd702cc4f24f5c78d2ac13c7c5a2dd80ff40c3b723497"
        },
        "89": {
            "url": "https://api.pebblebrowser.com/adblocker/engines/1.13.1-engine.bytes",
            "checksum": "d5a2078aeb40c43313ce296d668909016422866e9130bbed3e2dd8e742465626"
        },
        "95": {
            "url": "https://api.pebblebrowser.com/adblocker/engines/1.14.0-engine.bytes",
            "checksum": "aca482bfc5e9cbd37b08bff53c59d26ca0ecb9e61cd1d97ba96630c91ac6aa7a"
        },
        "96": {
            "url": "https://api.pebblebrowser.com/adblocker/engines/1.14.1-canary-engine.bytes",
            "checksum": "7c8e5d2448bf2cb05a46a57e9d61bef5e1005334997d0da60d309fefdb3f5ae7"
        },
        "97": {
            "url": "https://api.pebblebrowser.com/adblocker/engines/1.14.1-engine.bytes",
            "checksum": "a63b869e31de0d604a1775fe10b4395478dba4c2b5078358eabfc7a985741dfd"
        },
        "109": {
            "url": "https://api.pebblebrowser.com/adblocker/engines/1.14.2-engine.bytes",
            "checksum": "6293df2d44ea399e7838d7ee8e6a6e7b378072d6941c44b01dd58fa30e6db4cd"
        },
        "121": {
            "url": "https://api.pebblebrowser.com/adblocker/engines/1.14.3-engine.bytes",
            "checksum": "ee03036cff9a5c545ee8660acc990d4e8ba7cc579180009bd14b040bcb509000"
        },
        "123": {
            "url": "https://api.pebblebrowser.com/adblocker/engines/1.14.4-engine.bytes",
            "checksum": "5fe2b89cc892a283827247977a5a75fd305f89f32a598ca3626fb8e0890ded62"
        },
        "138": {
            "url": "https://api.pebblebrowser.com/adblocker/engines/1.15.0-engine.bytes",
            "checksum": "f79b122622a4d52244be7d5a435add60955e063d119869cd4db73d71b6cd20ad"
        },
        "140": {
            "url": "https://api.pebblebrowser.com/adblocker/engines/1.15.1-engine.bytes",
            "checksum": "358600e275bcb59a91224b77fa215fee6e1ff4756aff917d3cbcd78ddd0c16cc"
        },
        "156": {
            "url": "https://api.pebblebrowser.com/adblocker/engines/1.16.0-engine.bytes",
            "checksum": "cad3e30d49daff94258275d4bf6a50ee91643915b26efd3bec7765c0aad2c5ec"
        },
        "183": {
            "url": "https://api.pebblebrowser.com/adblocker/engines/1.16.1-engine.bytes",
            "checksum": "93653662d346f04cd1ecd33d6e5619578ac26c77c1542812cc200be634c96495"
        },
        "187": {
            "url": "https://api.pebblebrowser.com/adblocker/engines/1.17.0-engine.bytes",
            "checksum": "a0a659af80adcdb557097c03749517a53404f24e6dfb0c519efbcff84e266885"
        },
        "230": {
            "url": "https://api.pebblebrowser.com/adblocker/engines/1.18.0-engine.bytes",
            "checksum": "cbf2bcbbd95bfc830f9632b1d4b172a8a8829ea5e09c5bbed594be5b39a90124"
        },
        "233": {
            "url": "https://api.pebblebrowser.com/adblocker/engines/1.18.2-engine.bytes",
            "checksum": "e46f4c7b967a743dbc5fa9ec9f02ceb26d09c37f383031bc6e90802390736750"
        },
        "249": {
            "url": "https://api.pebblebrowser.com/adblocker/engines/1.18.3-engine.bytes",
            "checksum": "07fb48c56d3c1f73a630f1147bdc2ce78cf06e45ef9375b416e0f8cb07ac69cd"
        },
        "288": {
            "url": "https://api.pebblebrowser.com/adblocker/engines/1.18.4-engine.bytes",
            "checksum": "ccc1f9715b0bc4b1a7d1304004ed3b3bdd9a531ef33315a0f5bc943ab200846c"
        },
        "297": {
            "url": "https://api.pebblebrowser.com/adblocker/engines/1.18.5-engine.bytes",
            "checksum": "5a3d8d9b6a90ad9f2d04d3cf590e8591ec288e6c3bfe7dafb23288e698f62fc2"
        }
    },
    "lists": {
        "easylist": {
            "url": "https://api.pebblebrowser.com/adblocker/resources/easylist/list.txt",
            "checksum": "2ae8e1b4112ba8551b23078336ddfee6a2d41be432fcc5984412032364396201",
            "diffs": {
                "c887672f8de612247b89a3386f9b4a70b1764b07292cd21c7f82800a15b7fe4f": "https://api.pebblebrowser.com/adblocker/resources/easylist/1.json",
                "4664404d62cb8c78e67da6b15a06ef27ba845468797ef4ae95c1e51f1fb5854f": "https://api.pebblebrowser.com/adblocker/resources/easylist/2.json",
                "0900fe7dbcfc5cf93ab0670e73f2ebd3dc219e67f08bcce558a1a85c52a7e89a": "https://api.pebblebrowser.com/adblocker/resources/easylist/3.json",
                "8772bed079521660e93390c2377a8fd789a17b73d6fcd3b18605b552ec28f290": "https://api.pebblebrowser.com/adblocker/resources/easylist/4.json",
                "0b92f228c3ecf59cb437acc695f9dfefbf0dfa60789f4a4bf0199b12f1052567": "https://api.pebblebrowser.com/adblocker/resources/easylist/5.json",
                "cd261c60a6cd08fc79ac7037e2de1f0096151e30586fb872ac1ea8acfbcbd821": "https://api.pebblebrowser.com/adblocker/resources/easylist/6.json",
                "075ca0957fb4245f55605f0db1a6f0748ef8317aa94ccddc151c5daac7651424": "https://api.pebblebrowser.com/adblocker/resources/easylist/7.json"
            }
        },
        "plowe-0": {
            "url": "https://api.pebblebrowser.com/adblocker/resources/plowe-0/list.txt",
            "checksum": "8723d3b6e34ef7ddb17ce6b30a0f27e59df4165822e97a2b8d725619d0899de3",
            "diffs": {
                "4689525bb94e8bc487527374295456ed2a13603cd5092a8876b58e3389a2619c": "https://api.pebblebrowser.com/adblocker/resources/plowe-0/1.json",
                "0ef012a9b293c523893a9cc0c48c729e40b1be907a644dbc92b81daf0ca175f1": "https://api.pebblebrowser.com/adblocker/resources/plowe-0/2.json",
                "55e4f7a04031cae54e1a6af74aa5432174d7d094d7b117e0a2e1c7335be266cd": "https://api.pebblebrowser.com/adblocker/resources/plowe-0/3.json",
                "4a08b6f5eb92809ec7ffd8263227653bf645f3e65a51cfe4f69dfc9a1bf85b44": "https://api.pebblebrowser.com/adblocker/resources/plowe-0/4.json",
                "caa557de49e7806fa49c216d0cf804163d7f191badcdfa53033165cc4958ef06": "https://api.pebblebrowser.com/adblocker/resources/plowe-0/5.json",
                "09fda4660fcba1931481d1d9e5dbe25c7aba25fe44f9d4bd8930d93d5c245a8e": "https://api.pebblebrowser.com/adblocker/resources/plowe-0/6.json",
                "2c3e31abb8445dd73bcf22985964badd8574415006923f6386d4e542db53c774": "https://api.pebblebrowser.com/adblocker/resources/plowe-0/7.json"
            }
        },
        "cliqz-filters": {
            "url": "https://api.pebblebrowser.com/adblocker/resources/cliqz-filters/list.txt",
            "checksum": "fa6066266d6cb63b29183cc23728dc3a57f131a10e0ec1380f49ee64ed1cb228",
            "diffs": {
                "e8cb433a9fbd0de4ddfeeed4067d3e0c58bd58af2df7ab4e81b6a2cee54f59b9": "https://api.pebblebrowser.com/adblocker/resources/cliqz-filters/1.json",
                "a0f4bc08f6b35170477aee1f5049be6b35a1e582d83325d3d758711c487ad5c3": "https://api.pebblebrowser.com/adblocker/resources/cliqz-filters/2.json",
                "f3d1934b7dd035d5c19ff5d89e0ae0eae4d521ef53de5e4ef6a686008f80040f": "https://api.pebblebrowser.com/adblocker/resources/cliqz-filters/3.json",
                "50b46fbf28896b63e01e74e227243ec5bcb9b211365b0d0b727b2a83f77298e6": "https://api.pebblebrowser.com/adblocker/resources/cliqz-filters/4.json",
                "11d07e887a48c0fd545727d4adbd6df720a853a964f4ac0d9c28193bd8eb6d5a": "https://api.pebblebrowser.com/adblocker/resources/cliqz-filters/5.json",
                "c6ee3ba23ab7e04de813fb0206eecb7d5587a358548786413e81130644c9b04f": "https://api.pebblebrowser.com/adblocker/resources/cliqz-filters/6.json",
                "75c2fd5efce022362d63988cfa820086112ee9e1fa0da22930fc753f2cdf0e35": "https://api.pebblebrowser.com/adblocker/resources/cliqz-filters/7.json"
            }
        },
        "whotracksme-filters": {
            "url": "https://api.pebblebrowser.com/adblocker/resources/whotracksme-filters/list.txt",
            "checksum": "38ec9e885a0708245c4d6a44755b511aeacc6c9c76d991f1ac040ad7debcc5ee",
            "diffs": {
                "dd29d82c9c8fb22e2d95194ec1f583e0a717e5f0f0e771c6aaf562876956168f": "https://api.pebblebrowser.com/adblocker/resources/whotracksme-filters/1.json"
            }
        },
        "ublock-filters": {
            "url": "https://api.pebblebrowser.com/adblocker/resources/ublock-filters/list.txt",
            "checksum": "d71f2f663356dd6daab25b66fe7c18fbc6d4b6333eadf17af9c84a06c2e5fb2c",
            "diffs": {
                "e246032694c0e53d8d480a158fdb96a87f62d8d3812ab3ba58e0b9961d7cc9d5": "https://api.pebblebrowser.com/adblocker/resources/ublock-filters/1.json",
                "50d669d7ce43933e7a311d22af341d0f65104ec624f1e538c6b422bfaa4807b7": "https://api.pebblebrowser.com/adblocker/resources/ublock-filters/2.json",
                "8cf323da742cf649b0e39481cedfdf6edabc34a06633a10cf05d441ae2b40e67": "https://api.pebblebrowser.com/adblocker/resources/ublock-filters/3.json",
                "337b5392570c5a35a30079f2ba44867df0b46ded9e3c4f52f898dbe8f020f24d": "https://api.pebblebrowser.com/adblocker/resources/ublock-filters/4.json",
                "d2081bbb5cc2284f3484f284a4ee22a0068481d6be95793d1572c5d6cfb308d3": "https://api.pebblebrowser.com/adblocker/resources/ublock-filters/5.json",
                "08e6f0e6737ec726d73dd09633b1a4318a42f947e5e93425e3a6fd38960322ad": "https://api.pebblebrowser.com/adblocker/resources/ublock-filters/6.json",
                "88a4c672c50e46d44c804fd4f01d6c8f973adac08a44d95bf89d8cfee7c1f013": "https://api.pebblebrowser.com/adblocker/resources/ublock-filters/7.json"
            }
        },
        "ublock-filters-2020": {
            "url": "https://api.pebblebrowser.com/adblocker/resources/ublock-filters-2020/list.txt",
            "checksum": "357b260997b63bc9153e566acfbf129c46cd50cfa87891cb842638de7aa9cabf",
            "diffs": {
                "592225161955a0b3388cfb834761d41de1f1bf1f92334f1894b9d69b02bacc17": "https://api.pebblebrowser.com/adblocker/resources/ublock-filters-2020/1.json",
                "917f85e8f153bba361d93fd6273168925e293b6d96c54179ab34e019ab62c011": "https://api.pebblebrowser.com/adblocker/resources/ublock-filters-2020/2.json",
                "eb5924ca2935e6d3d9e83ea7a3c9a1cb6aeb8b5986044b9e418846b069d9e764": "https://api.pebblebrowser.com/adblocker/resources/ublock-filters-2020/3.json",
                "2dabbbdf0c40f19777d7a08fb17ffa5b6f88537e7ee33c1e75c7d235ceeffca4": "https://api.pebblebrowser.com/adblocker/resources/ublock-filters-2020/4.json",
                "c85e02275f1a4362989bac3bdd6cfa5215d9d3ddc9625eec58dd36b3df2628ad": "https://api.pebblebrowser.com/adblocker/resources/ublock-filters-2020/5.json",
                "e12ffe587ecc4a1cfde85b543d66955ec282109c162202f68b9d5828c9ddc48a": "https://api.pebblebrowser.com/adblocker/resources/ublock-filters-2020/6.json",
                "729c3778cff842c6f2ef39326043cabf1993b56e9d3837879b905ed849e63db5": "https://api.pebblebrowser.com/adblocker/resources/ublock-filters-2020/7.json"
            }
        },
        "ublock-badware": {
            "url": "https://api.pebblebrowser.com/adblocker/resources/ublock-badware/list.txt",
            "checksum": "0ee19870f391723ae2831a9f1b8ec64f39483e21ca036ff1e4f85daa7a1b0dd6",
            "diffs": {
                "c202efac789e94fd27d5b4867a853a580bea82e449884853b1374c9b63edb622": "https://api.pebblebrowser.com/adblocker/resources/ublock-badware/1.json",
                "52adeeaf7772c1b1497e2b062d7d9bcd8c9aac378dbff8331f3bf14809593639": "https://api.pebblebrowser.com/adblocker/resources/ublock-badware/2.json",
                "e0bde1c9658897a0cf3e96165306edecb740ebdf56bd30b48e16e8ec567a6a33": "https://api.pebblebrowser.com/adblocker/resources/ublock-badware/3.json",
                "3b116570b728dfb2473bd316498b31e0da9adc8e146d048b33c45b34fc5d6981": "https://api.pebblebrowser.com/adblocker/resources/ublock-badware/4.json",
                "6d2a586d25dfc366b36526b7f6f24899b5bd232579036275fc244ebe56c131e6": "https://api.pebblebrowser.com/adblocker/resources/ublock-badware/5.json",
                "b61e8a6b9a4556940c513611c8f587294d75180646da6f6203cbd9e137d8db96": "https://api.pebblebrowser.com/adblocker/resources/ublock-badware/6.json",
                "f66a4d6f6b22c41bf5b7bca6c2921570703684a86df722c60a2feac8e3411464": "https://api.pebblebrowser.com/adblocker/resources/ublock-badware/7.json"
            }
        },
        "ublock-abuse": {
            "url": "https://api.pebblebrowser.com/adblocker/resources/ublock-abuse/list.txt",
            "checksum": "fcc36338269784988449d986fb4491374c5f36dec3f525bfee0d35bf5a2a16b4",
            "diffs": {
                "f8dabf2456d7d232388df78c4331b3e59a18ef82940c64802d37bae59b0ee801": "https://api.pebblebrowser.com/adblocker/resources/ublock-abuse/1.json",
                "843adecb0240ab5bcded8ec25c3d5df0e25d2b01dd832d8ff3a3c655645d22a2": "https://api.pebblebrowser.com/adblocker/resources/ublock-abuse/2.json",
                "e4d09446295fe95721051dfe17704f6ddc4de618cd9a0e6c909e506589a8b763": "https://api.pebblebrowser.com/adblocker/resources/ublock-abuse/3.json",
                "57c0e2ab20924686d1a436e0f8106c4e14f0bc7037ca93f602b1c55c7cd5e453": "https://api.pebblebrowser.com/adblocker/resources/ublock-abuse/4.json",
                "2b7d5d51a921c1436b5bd8b9c33fce76267ab28019bb752279ad7a9255d2ddbb": "https://api.pebblebrowser.com/adblocker/resources/ublock-abuse/5.json",
                "7648feb62cdd76a8f94f4e3c20abcfd6d0c17232bd268f17bfec319a4e6285e6": "https://api.pebblebrowser.com/adblocker/resources/ublock-abuse/6.json",
                "d007306e38bae93e7c6ac22d9807a15926536fa35bd26bc9f5c4367b376b9cd6": "https://api.pebblebrowser.com/adblocker/resources/ublock-abuse/7.json"
            }
        },
        "ublock-unbreak": {
            "url": "https://api.pebblebrowser.com/adblocker/resources/ublock-unbreak/list.txt",
            "checksum": "837934f6f38c2d6958801ce5f915eecbef1cdf62adea45a004f03f645e85f644",
            "diffs": {
                "7754191594284e94c8b56fea2f2c1372dda8bea0ea711169cbe937210bdc58a0": "https://api.pebblebrowser.com/adblocker/resources/ublock-unbreak/1.json",
                "3f2025e3c29712c8c10385ed07bec81a96096f6345aecff5a5b4e93135a2a4cf": "https://api.pebblebrowser.com/adblocker/resources/ublock-unbreak/2.json",
                "e48f4d841ec32d52da62ce31b923e5da40ed8fa754af6aeae096069f8f5c8499": "https://api.pebblebrowser.com/adblocker/resources/ublock-unbreak/3.json",
                "24990a7260a995df6f66c05670dccd2a8453eecbf05fe691b5dbbc9e9708cd06": "https://api.pebblebrowser.com/adblocker/resources/ublock-unbreak/4.json",
                "a0ed632352fce1834bb08f45d78855ff828e0cd7e7bb4cfb89e0a24b4850e6a7": "https://api.pebblebrowser.com/adblocker/resources/ublock-unbreak/5.json",
                "f54fd304bceb6cba3564d22b30decf30669c6ebc862e2f58064674c36704caf5": "https://api.pebblebrowser.com/adblocker/resources/ublock-unbreak/6.json",
                "01255ddcb165292200d7973e6e87ccadf02aaf490b61c084e262434f901bedab": "https://api.pebblebrowser.com/adblocker/resources/ublock-unbreak/7.json"
            }
        },
        "easyprivacy": {
            "url": "https://api.pebblebrowser.com/adblocker/resources/easyprivacy/list.txt",
            "checksum": "42f0339fb983f61a1df63c9cc1f373ce801fa3b0c932373ac135dd76b1854efc",
            "diffs": {
                "a9a47be41b757639143c808db6c2317fa0a8a897269ffe8ed07e98ab40f7feee": "https://api.pebblebrowser.com/adblocker/resources/easyprivacy/1.json",
                "463e8ad684475949328e3ac7d765116bd7c291e4d0f6d4e4a72e1dd384ff066a": "https://api.pebblebrowser.com/adblocker/resources/easyprivacy/2.json",
                "694bfa06ebc4f3a60fa6894f43c5216cb8855180f197cf2ec313efc445e3fbfb": "https://api.pebblebrowser.com/adblocker/resources/easyprivacy/3.json",
                "3a70d0ab0e4f4b2cebaa8b39e79ebad854389a193c7e2c03dd4b5c55fc68e3e6": "https://api.pebblebrowser.com/adblocker/resources/easyprivacy/4.json",
                "a392f989cc84903d4d6a96358f333f1a5ed690920de9a604d303cc2d533de8f9": "https://api.pebblebrowser.com/adblocker/resources/easyprivacy/5.json",
                "75bbb7f9e6f978125c74726799b92f12b8eb81db489460d8431d79507bc8bc49": "https://api.pebblebrowser.com/adblocker/resources/easyprivacy/6.json",
                "f5a5d45c8baff7435beeeaa2003238df79204e452ec1e78f9eecf982708c2b4e": "https://api.pebblebrowser.com/adblocker/resources/easyprivacy/7.json"
            }
        },
        "ublock-privacy": {
            "url": "https://api.pebblebrowser.com/adblocker/resources/ublock-privacy/list.txt",
            "checksum": "53fc0b90afddd465e22f509197a7c389e5573e354033a2110b67a2d9b64dd318",
            "diffs": {
                "787acf8d78d4cd843e585f45b309020231f805435160e7038dfcea52ac63d980": "https://api.pebblebrowser.com/adblocker/resources/ublock-privacy/1.json",
                "68f9726c9ae02b3f41ffbc50b77f5878e58526ae7816ebdb76c90ed79d3bc60e": "https://api.pebblebrowser.com/adblocker/resources/ublock-privacy/2.json",
                "e852f83f09da5c8b2a0cb0ae7fa847de87d69f45e41481aabfe8a411c57d6bf1": "https://api.pebblebrowser.com/adblocker/resources/ublock-privacy/3.json",
                "43b51a3a975e5e8201b577ec10e99a7b0438b42ebcb16a08b95eddd13cb5045b": "https://api.pebblebrowser.com/adblocker/resources/ublock-privacy/4.json",
                "fe97130e6503cdcee85fadce8749627dd43347ee32324ffad35f13f0b4a3bf97": "https://api.pebblebrowser.com/adblocker/resources/ublock-privacy/5.json",
                "96488891527ef08861c69fd712a3ec389b389eb24f8c0d95b634bc11ed575c25": "https://api.pebblebrowser.com/adblocker/resources/ublock-privacy/6.json",
                "3240ad24140e1a3388d427e34a2537f93afb5e124cab00a72ab73cda2a7f289d": "https://api.pebblebrowser.com/adblocker/resources/ublock-privacy/7.json"
            }
        }
    },
    "resources": {
        "url": "https://api.pebblebrowser.com/adblocker/resources/ublock-resources/list.txt",
        "checksum": "78ca65dc81beddf4efb9d6fedd82997bd7bf326a89e76a85cf9b4f45fb046d5c"
    }
}