{
    "added": ["*$csp=worker-src 'none',domain=duckingproxy.eu|hyperbaytpb.top|pirate.shiksha|pirateproxy.yt|proxyproxyproxy.nl", "||csgo.xyz^$doc", "||mailboxdelivery.com^$doc", "csgoconfigs.com##+js(acis, m, CH.Anonymous)", "vidzi.tv##+js(aopw, decodeURIComponent)", "tubettajat.net##+js(aopr, miner)", "tasma.ru##+js(aopw, decodeURIComponent)", "shrink-service.it##+js(aopr, WebAssembly)", "djs.sk,mladipodnikatelia.sk##+js(aopr, miner)", "howucan.gr##+js(aopr, miner)", "cloudtime.to,nowvideo.sx,sickrage.ca,tomadivx.org,videoplayer2.xyz,wholecloud.net##+js(aopr, WebAssembly)", "123telugu.com,netiap.com##+js(aopr, _0x7bc7)", "nxload.com##+js(aopr, miner)", "sleeptimer.org##+js(aopr, WebAssembly)", "powvldeo.*,powv1deo.*##+js(aopw, CoinNebula)", "hqq.watch##+js(aopr,  mscript)", "tomadivx.tv##+js(aopr, WebAssembly)", "descargas2020.com##+js(acis, atob, _0x)", "onplay.tv##+js(aopr, Nimiq)", "steamplay.*##+js(aopw, CoinNebula)"],
    "removed": ["||d3ahinqqx1dy5v.cloudfront.net^", "||severita-service.ru^$csp=worker-src 'none'", "*$csp=worker-src 'none',domain=airproxyboat.in|bayhypertpb.be|duckingproxy.eu|hyperproxy.net|hyperbaytpb.top|pirata.pw|pirate.shiksha|piratebayproxy.tf|pirateproxy.yt|proxyproxyproxy.nl|thepirate.one|unblocktpb.com", "/coinimp-cache/*", "csgoconfigs.com##+js(abort-current-inline-script.js, m, CH.Anonymous)", "vidzi.tv##+js(abort-on-property-write.js, decodeURIComponent)", "tubettajat.net##+js(abort-on-property-read.js, miner)", "tasma.ru##+js(abort-on-property-write.js, decodeURIComponent)", "shrink-service.it##+js(abort-on-property-read.js, WebAssembly)", "djs.sk,mladipodnikatelia.sk##+js(abort-on-property-read.js, miner)", "howucan.gr##+js(abort-on-property-read.js, miner)", "cloudtime.to,nowvideo.sx,sickrage.ca,tomadivx.org,videoplayer2.xyz,wholecloud.net##+js(abort-on-property-read.js, WebAssembly)", "123telugu.com,netiap.com##+js(abort-on-property-read.js, _0x7bc7)", "nxload.com##+js(abort-on-property-read.js, miner)", "sleeptimer.org##+js(abort-on-property-read.js, WebAssembly)", "powvldeo.*,powv1deo.*##+js(abort-on-property-write.js, CoinNebula)", "hqq.watch##+js(abort-on-property-read.js,  mscript)", "tomadivx.tv##+js(abort-on-property-read.js, WebAssembly)", "descargas2020.com##+js(abort-current-inline-script.js, atob, _0x)", "onplay.tv##+js(abort-on-property-read.js, Nimiq)"]
}