{
    "added": ["*$script,3p,denyallow=enetscores.com|jsdelivr.net|jwpcdn.com|fbcdn.net|facebook.net|fastly.net|fastlylb.net|jquery.com|hwcdn.net|hcaptcha.com|recaptcha.net|cloudflare.com|cloudflare.net|google.com|googleapis.com|gstatic.com|consensu.org|agorahtag.tech|aghtag.tech|etop.ro,domain=ziare.com|cancan.ro|ciao.ro|gandul.ro|prosport.ro|descopera.ro", "||rejouassions.xyz^", "||terephtalate.xyz^", "||iamcdn.net/players/player*.*mins.js$script,domain=hydracdn.*", "*$script,3p,denyallow=cloudflare.com|google.com|gstatic.com|recaptcha.net,domain=adpop.me", "||lnk.parts^$csp=sandbox allow-forms allow-same-origin allow-scripts allow-modals allow-orientation-lock allow-pointer-lock allow-presentation allow-top-navigation", "||alifafdlnjeruif.com^", "*$script,3p,denyallow=cloudflare.com|google.com|gstatic.com|recaptcha.net,domain=payskip.org", "*$script,redirect-rule=noopjs,domain=hpjav.tv", "@@||ads.exosrv.com/ads.js$script,domain=hpav.tv|hpjav.tv", "@@||cdn.tsyndicate.com/sdk/$script,domain=hpav.tv|hpjav.tv", "||findnewline.com^", "*$script,3p,denyallow=cloudflare.com|google.com|gstatic.com|recaptcha.net,domain=lkop.me", "@@*$ghide,domain=conceptosde.net|cozyasociados.com|freeserverhostingweb.club|me-encantas.com|mejorconfrutas.com|mexicogob.com|noticiascripto.site|tanfacil.net|tecnoaldia.net|todoandroid.live", "@@||cdnjs.cloudflare.com/ajax/libs/fuckadblock/3.2.1/fuckadblock.$script,domain=conceptosde.net|cozyasociados.com|freeserverhostingweb.club|me-encantas.com|mejorconfrutas.com|mexicogob.com|noticiascripto.site|tanfacil.net|tecnoaldia.net|todoandroid.live", "*$frame,denyallow=google.com,domain=voxc.org", "*$script,3p,denyallow=cloudflare.com|google.com|gstatic.com|recaptcha.net,domain=voxc.org", "*$script,3p,denyallow=cloudflare.com|google.com|gstatic.com|recaptcha.net,domain=bolssc.com|cuts-url.com|eio.io|exee.io|exy.ai|pslfive.com|mealip.com", "/sw.js$script,1p,domain=eio.io|exee.io|exy.ai", "||tgpsew.com^", "||ndroip.com^", "*$script,3p,denyallow=cloudflare.com|google.com|gstatic.com|recaptcha.net,domain=tmearn.*", "@@|*ads.$script,domain=wstream.video", "*$script,3p,denyallow=google.com|gstatic.com|recaptcha.net,domain=kekolink.com", "@@||bernstein-ah.ml/popads.js$script,domain=animesonline.cz", "*$script,3p,denyallow=cloudflare.net|google.com|gstatic.com|solvemedia.com,domain=shorterall.com", "xhamster11.com,xhamster12.com,xhamster13.com,xhamster14.com,xhamster15.com,xhamster2.com##+js(nowoif)", "adbull.org##+js(set, blurred, false)", "ouo.press##+js(acis, Math, btoa)", "ouo.press##[id*=\"ScriptRoot\"]", "adpop.me##+js(aopr, open)", "adpop.me##+js(aopw, _pop)", "adpop.me##+js(set, blurred, false)", "xvideos.com,xvideos2.com,xnxx.com##.banner-game", "next-episode.net##+js(aost, document.getElementById, onload)", "poedb.tw##[id*=\"banner\"]", "psystreams.com##+js(nowoif)", "nulledteam.com##+js(acis, $, userAgent)", "lnk.news,lnk.parts##+js(aopr, popAdsClickCount)", "lnk.news,lnk.parts##+js(nano-sib, , , 0)", "lnk.news,lnk.parts##+js(nostif, redirectPage)", "lnk.news,lnk.parts##+js(set, Math.random, trueFunc)", "lnk.news,lnk.parts##.child-centered.display-300x250", "camwhores.tv##[href^=\"https://go.schjmp.com\"]", "pornrabbit.com##.stage-promo", "pornrabbit.com###inPlayer", "anon-v.com##.embed-container", "youporn.com##+js(aopr, page_params.holiday_promo)", "youporn.com##.adsbytrafficjunky", "youporn.com##.channel-header", "youporn.com##.channelSideAd", "youporn.com##[data-removelink=\"removeLink\"]", "payskip.org##+js(aopw, _pop)", "payskip.org##+js(set, blurred, false)", "camwhoreshd.com,camwhoria.com,camvideos.org,camgoddess.tv##+js(acis, crakPopInParams)", "camwhoria.com,camgoddess.tv##+js(aopr, console.log)", "camwhoreshd.com,camgoddess.tv##.table", "camseek.tv##div[style$=\"height: 240px; background: white\"]", "purelyceleb.com##.embed-container", "hpav.tv,hpjav.tv##+js(aeld, , _0x)", "18teenslut.com,anyxxxsex.com,bigjapaneseporn.com,bigsexhub.com,fullasiantube.com,hotpornsexvideos.com,hotxxxpussy.com,missasianporn.com,openxxxporn.com,peppersextube.com,primaryporntube.com,realteenbeauty.com,redsexhub.com,sexpussyfuck.com,teenpussylab.com,trendpornpics.com,xxxlargeporn.com,xxxpussyclips.com,xxxpussysextube.com##+js(aopr, popit)", "18teenslut.com,anyxxxsex.com,bigjapaneseporn.com,bigsexhub.com,fullasiantube.com,hotpornsexvideos.com,hotxxxpussy.com,missasianporn.com,openxxxporn.com,peppersextube.com,primaryporntube.com,realteenbeauty.com,redsexhub.com,sexpussyfuck.com,teenpussylab.com,trendpornpics.com,xxxlargeporn.com,xxxpussyclips.com,xxxpussysextube.com##+js(aeld, popstate, noPop)", "teenpussylab.com,trendpornpics.com##+js(aeld, click, popunder)", "teenpussylab.com##.sqs", "trendpornpics.com##.xowe-bns-bl", "trendpornpics.com##.xowe-gallery-bn", "tvguia.es##+js(acis, $, .height)", "lkop.me##+js(aopr, open)", "lkop.me##+js(set, blurred, false)", "iwalif.com##+js(set, global.waitAllTime, false)", "conceptosde.net,cozyasociados.com,freeserverhostingweb.club,me-encantas.com,mejorconfrutas.com,mexicogob.com,noticiascripto.site,tanfacil.net,tecnoaldia.net,todoandroid.live##+js(acis, document.oncontextmenu)", "conceptosde.net,cozyasociados.com,freeserverhostingweb.club,me-encantas.com,mejorconfrutas.com,mexicogob.com,noticiascripto.site,tanfacil.net,tecnoaldia.net,todoandroid.live##+js(acis, document.onkeydown)", "conceptosde.net,cozyasociados.com,freeserverhostingweb.club,me-encantas.com,mejorconfrutas.com,mexicogob.com,noticiascripto.site,tanfacil.net,tecnoaldia.net,todoandroid.live##+js(acis, document.onmousedown)", "voxc.org##+js(acis, String.fromCharCode, btoa)", "voxc.org##+js(set, blurred, false)", "series9.*##+js(acis, String.fromCharCode, btoa)", "series9.*##div[style=\"padding:15px 0;text-align:right;\"]", "upvid.net##+js(acis, String.fromCharCode, btoa)", "boxlink.us###link-view > center", "manhwa-manga34.bid,manhwa-manga35.bid##+js(aopr, loadRunative)", "manhwa-manga34.bid,manhwa-manga35.bid##.ai_widget", "manhwa-manga34.bid,manhwa-manga35.bid###custom_html-91", "tvnow.*##+js(set, Object.prototype.adReinsertion, noopFunc)", "streaming-vostfr.*##+js(acis, String.fromCharCode, btoa)", "2xs.io,beastvila.info,bolssc.com,cleft.xyz,cuts-url.com,dayy.site,eio.io,exe.io,exee.io,exy.ai,fasshi.xyz,industiiz.com,landd.xyz,mediumarticles.com,muteseries.info,networkingz.xyz,parentingss.xyz,rohtasfitness.com,techbeast.xyz,techshine.xyz,trendfaq.com,waar.site,wealthh.xyz,wheeledu.com,readnnews.com,pslfive.com,mealip.com##+js(aopr, app_vars.force_disable_adblock)", "bolssc.com,cuts-url.com,eio.io,exee.io,exy.ai,pslfive.com,mealip.com##+js(set, blurred, false)", "bolssc.com,mediumarticles.com##+js(acis, Math, XMLHttpRequest)", "exee.io,exy.ai##.banner-page > .short", "tmearn.*##+js(set, blurred, false)", "filedown.org##+js(nowoif)", "aii.sh###link-view > center", "kekolink.com##+js(aopw, adcashMacros)", "kekolink.com##+js(nostif, href)", "kekolink.com##+js(set, blurred, false)", "forex-lab.xyz##+js(set, timeleft, 0)", "newsonthegotoday.com##+js(aopr, STREAM_CONFIGS)", "newsonthegotoday.com##+js(ra, target, .clickbutton)", "popjav.tv##.video-boxad", "tii.ai###link-view > center", "animesonline.cz##+js(acis, String.fromCharCode, btoa)", "ateurmaturewives.com,ariestube.com,asian-teen-sex.com,18asiantube.com,wholevideos.com,asianporntube69.com,babeswp.com,bangyourwife.com,basiltube.com,bdsmslavemovie.com,bdsmwaytube.com,bestmaturewomen.com,classicpornvids.com,cockmeter.com,cocogals.com,pornpaw.com,dawntube.com,desihoes.com,desimmshd.com,dirtytubemix.com,plumperstube.com,enormousbabes.net,erowall.com,exclusiveindianporn.com,figtube.com,amateur-twink.com,freeboytwinks.com,freegrannyvids.com,freexmovs.com,freshbbw.com,frostytube.com,fuckhottwink.com,fuckslutsonline.com,gameofporn.com,gayboyshd.com,getitinside.com,giantshemalecocks.com,erofus.com,hd-tube-porn.com,hardcorehd.xxx,hairytwat.org,iwantmature.com,justababes.com,juicyflaps.com,jenpornuj.cz,javteentube.com,hard-tube-porn.com,klaustube.com,kaboomtube.com,lustyspot.com,lushdiaries.com,lovelynudez.com,dailyangels.com,ljcam.net,myfreemoms.com,mybestxtube.com,nakenprat.com,oosex.net,oldgrannylovers.com,ohueli.net,pornuploaded.net,pornstarsadvice.com,alotporn.com,bobs-tube.com,pornohaha.com,pornmam.com,pornhegemon.com,pornabcd.com,porn-hd-tube.com,pandamovies.pw,pomelotube.com,teensporn.tv,thehentaiworld.com,pantyhosepink.com,queenofmature.com,realvoyeursex.com,realbbwsex.com,rawindianporn.com,onlygoldmovies.com,rainytube.com,stileproject.com,slutdump.com,skygals.com,nastybulb.com,babesinporn.com,wantedbabes.com,sextube-6.com,gfsmovs.com,porntubegf.com,sassytube.com,smplace.com,mikesmatures.com,maturell.com,nakedolders.com,nudemilfwomen.com,paulsmatures.com,pornoplum.com,teensfacialized.com,widewifes.com,wowpornlist.xyz,vulgarmilf.com,oldgirlsporn.com,freepornrocks.com,desivideos.*##+js(aopr, document.dispatchEvent)", "decorativemodels.com,erowall.com,freyalist.com,eroticacamp.com,ghostbabes.com,guruofporn.com,infinityerotic.com,jesseporn.xyz,kendralist.com,vipergirls.to,lizardporn.com,wantedbabes.com,bustybloom.com,exgirlfriendmarket.com,nakedneighbour.com##+js(aopr, loadTool)", "pstream.net##+js(nowebrtc)"],
    "removed": ["*$script,3p,denyallow=enetscores.com|jsdelivr.net|jwpcdn.com|fbcdn.net|facebook.net|fastly.net|fastlylb.net|jquery.com|hwcdn.net|hcaptcha.com|recaptcha.net|cloudflare.com|cloudflare.net|google.com|googleapis.com|gstatic.com|consensu.org|agorahtag.tech,domain=cancan.ro|ciao.ro|gandul.ro|prosport.ro", "||andorranisas.xyz^", "||d1n7ypf85zfej7.cloudfront.net^", "||podsolnu9hi10.com^", "||fdrgtt9edmej010.com^", "||yim3eyv5.top^", "||houdodoo.net^", "||ablybeastssarcastic.com^", "@@||porntopic.com/player/player_ads.html$frame,1p", "||pointexcusestretching.com^", "@@||faucethub.io^$ghide", "||indecentfaces.com^", "||hqtlvmcrpb.com^", "||minorexportshopping.com^", "||madsoks.com^", "||realmpallduns.com^", "||zugnogne.com^", "||fjioh.com^", "||dairouzy.net^", "||dudslubesviol.com^", "@@*$ghide,domain=conceptosde.net|cozyasociados.com|freeserverhostingweb.club|me-encantas.com|mejorconfrutas.com|mexicogob.com|noticiascripto.site|tecnoaldia.net|todoandroid.live", "@@||cdnjs.cloudflare.com/ajax/libs/fuckadblock/3.2.1/fuckadblock.$script,domain=conceptosde.net|cozyasociados.com|freeserverhostingweb.club|me-encantas.com|mejorconfrutas.com|mexicogob.com|noticiascripto.site|tecnoaldia.net|todoandroid.live", "||pulpsbarndomed.com^", "||badsecs.com^", "||implicationdownloadpercy.com^", "||pregnancydiscreditbee.com^", "||whimsoplynx.com^", "||doufoacu.net^", "*$script,3p,denyallow=google.com|gstatic.com|recaptcha.net,domain=bolssc.com|cuts-url.com|pslfive.com|mealip.com", "||cutadlink.com/sw.js$script,1p", "||achedgodroad.com^", "||hoofstepfather.com^", "||halveclause.com^", "||showmebars.com^", "||web-bars.com^", "||d36zfztxfflmqo.cloudfront.net^", "*$script,3p,denyallow=cloudflare.net|google.com|gstatic.com,domain=shorterall.com", "ouo.press##+js(acis, Math, zfgloaded)", "adpop.me##+js(aeld, click, trigger)", "xvideos.com,xvideos2.com##.banner-game", "next-episode.net##+js(aost, document.getElementById, on)", "uploadkadeh.com##+js(nobab)", "porntopic.com##+js(acis, atob, tabunder)", "porntopic.com##+js(aopr, _cpp)", "porntopic.com##+js(aeld, /^(?:click|mousedown)$/, _0x)", "porntopic.com##+js(nosiif, (), 500)", "porntopic.com##+js(aopw, Fingerprint2)", "porntopic.com##+js(set, flashvars.popunder_url, undefined)", "porntopic.com##[href=\"http://porntopic.com/toplist/\"]", "porntopic.com##[href=\"http://porntopic.com/new/videos.php\"]", "nulledteam.com##+js(acis, $, adblock)", "nulledteam.com##+js(nosiif, visibility, 1000)", "lnk.news##+js(aopr, popAdsClickCount)", "lnk.news##+js(nano-sib, , , 0)", "lnk.news##+js(nostif, redirectPage)", "lnk.news##+js(set, Math.random, trueFunc)", "lnk.news##.child-centered.display-300x250", "watchtheoffice.online##+js(aopw, _pop)", "watchtheoffice.online##+js(nobab)", "javwhores.com##+js(aeld, /^(?:click|mousedown)$/, _0x)", "javwhores.com##+js(nosiif, (), 500)", "youporn.com##+js(acis, atob, decodeURIComponent)", "movizland.org##+js(aopw, Fingerprint2)", "camwhoreshd.com,camvideos.org##+js(acis, crakPopInParams)", "camwhoreshd.com##.table", "anyxxxsex.com,bigjapaneseporn.com,bigsexhub.com,fullasiantube.com,hotpornsexvideos.com,hotxxxpussy.com,missasianporn.com,openxxxporn.com,peppersextube.com,primaryporntube.com,redsexhub.com,sexpussyfuck.com,xxxlargeporn.com,xxxpussyclips.com,xxxpussysextube.com##+js(aopr, popit)", "anyxxxsex.com,bigjapaneseporn.com,bigsexhub.com,fullasiantube.com,hotpornsexvideos.com,hotxxxpussy.com,missasianporn.com,openxxxporn.com,peppersextube.com,primaryporntube.com,redsexhub.com,sexpussyfuck.com,xxxlargeporn.com,xxxpussyclips.com,xxxpussysextube.com##+js(aeld, popstate, noPop)", "tvguia.es##+js(aopr, isAdBlockActive)", "lkop.me##+js(aeld, click, trigger)", "acshort.site,drivelinks.me,hackshort.me,latinolinks.site,pclinks.site,pelislinks.me,pocoslinks.me##+js(nano-sib, , , 0)", "acshort.site,drivelinks.me,hackshort.me,latinolinks.site,pclinks.site,pelislinks.me,pocoslinks.me##+js(set, t, 0)", "conceptosde.net,cozyasociados.com,freeserverhostingweb.club,me-encantas.com,mejorconfrutas.com,mexicogob.com,noticiascripto.site,tecnoaldia.net,todoandroid.live##+js(acis, document.oncontextmenu)", "conceptosde.net,cozyasociados.com,freeserverhostingweb.club,me-encantas.com,mejorconfrutas.com,mexicogob.com,noticiascripto.site,tecnoaldia.net,todoandroid.live##+js(acis, document.onkeydown)", "conceptosde.net,cozyasociados.com,freeserverhostingweb.club,me-encantas.com,mejorconfrutas.com,mexicogob.com,noticiascripto.site,tecnoaldia.net,todoandroid.live##+js(acis, document.onmousedown)", "voxc.org##+js(acis, Math, zfgloaded)", "series9.*##+js(acis, Math, zfgloaded)", "bitcoin.refroma.ru##[src^=\"http://faucethub.io/assets/img/banners/\"]", "mkvboss.com##+js(acis, document.createElement, script)", "tvnow.de##+js(set, Object.prototype.adReinsertion, noopFunc)", "streaming-vostfr.*##+js(acis, Math, zfgloaded)", "streaming-vostfr.*##+js(aopw, Fingerprint2)", "2xs.io,beastvila.info,cleft.xyz,cuts-url.com,dayy.site,exe.io,exee.io,fasshi.xyz,industiiz.com,landd.xyz,mediumarticles.com,muteseries.info,networkingz.xyz,parentingss.xyz,rohtasfitness.com,techbeast.xyz,techshine.xyz,trendfaq.com,waar.site,wealthh.xyz,wheeledu.com,readnnews.com,pslfive.com,mealip.com##+js(aopr, app_vars.force_disable_adblock)", "bolssc.com,cuts-url.com,pslfive.com,mealip.com##+js(set, blurred, false)", "mediumarticles.com##+js(acis, Math, XMLHttpRequest)", "sangrembulan.net##+js(set, adsBlocker, true)", "zerodot1.gitlab.io##+js(ra, onclick, a[id])", "cutadlink.com##+js(acis, Math, zfgloaded)", "cutadlink.com##+js(aopr, document.onclick)", "cutadlink.com##+js(aopr, open)", "cutadlink.com##+js(aeld, click, trigger)", "cutadlink.com##.banner-inner", "cutadlink.com##+js(acis, $, modal)", "cutadlink.com##[href*=\"popcash\"]", "getstocks.net##+js(aopr, adblock)", "xhamster11.com,xhamster12.com,xhamster13.com,xhamster14.com,xhamster15.com##+js(nowoif)", "animesonline.cz##+js(acis, Math, XMLHttpRequest)", "ateurmaturewives.com,ariestube.com,asian-teen-sex.com,18asiantube.com,wholevideos.com,asianporntube69.com,babeswp.com,bangyourwife.com,basiltube.com,bdsmslavemovie.com,bdsmwaytube.com,bestmaturewomen.com,classicpornvids.com,cockmeter.com,cocogals.com,pornpaw.com,dawntube.com,desihoes.com,desimmshd.com,dirtytubemix.com,plumperstube.com,enormousbabes.net,erowall.com,exclusiveindianporn.com,figtube.com,amateur-twink.com,freeboytwinks.com,freegrannyvids.com,freexmovs.com,freshbbw.com,frostytube.com,fuckhottwink.com,fuckslutsonline.com,gameofporn.com,gayboyshd.com,getitinside.com,giantshemalecocks.com,erofus.com,hd-tube-porn.com,hardcorehd.xxx,hairytwat.org,iwantmature.com,justababes.com,juicyflaps.com,jenpornuj.cz,javteentube.com,hard-tube-porn.com,klaustube.com,kaboomtube.com,lustyspot.com,lushdiaries.com,lovelynudez.com,dailyangels.com,ljcam.net,myfreemoms.com,mybestxtube.com,nakenprat.com,oosex.net,oldgrannylovers.com,ohueli.net,pornuploaded.net,pornstarsadvice.com,alotporn.com,bobs-tube.com,pornohaha.com,pornmam.com,pornhegemon.com,pornabcd.com,porn-hd-tube.com,pandamovies.pw,pomelotube.com,teensporn.tv,thehentaiworld.com,pantyhosepink.com,queenofmature.com,realvoyeursex.com,realbbwsex.com,rawindianporn.com,onlygoldmovies.com,rainytube.com,stileproject.com,slutdump.com,skygals.com,nastybulb.com,babesinporn.com,wantedbabes.com,sextube-6.com,gfsmovs.com,porntubegf.com,sassytube.com,smplace.com,mikesmatures.com,maturell.com,nakedolders.com,nudemilfwomen.com,paulsmatures.com,pornoplum.com,teensfacialized.com,widewifes.com,wowpornlist.xyz,vulgarmilf.com,oldgirlsporn.com,freepornrocks.com##+js(aopr, document.dispatchEvent)", "decorativemodels.com,erowall.com,freyalist.com,eroticacamp.com,ghostbabes.com,guruofporn.com,infinityerotic.com,jesseporn.xyz,kendralist.com,vipergirls.to,lizardporn.com,wantedbabes.com,bustybloom.com,exgirlfriendmarket.com##+js(aopr, loadTool)", "pstream.net##+js(aopw, adcashMacros)"]
}