{
    "added": ["*$script,3p,denyallow=enetscores.com|jsdelivr.net|jwpcdn.com|fbcdn.net|facebook.net|fastly.net|fastlylb.net|jquery.com|hwcdn.net|hcaptcha.com|recaptcha.net|cloudflare.com|cloudflare.net|google.com|googleapis.com|gstatic.com|consensu.org|agorahtag.tech|aghtag.tech|etop.ro,domain=ziare.com|cancan.ro|ciao.ro|gandul.ro|prosport.ro|descopera.ro", "||terephtalate.xyz^", "*$script,3p,denyallow=cloudflare.com|google.com|gstatic.com|recaptcha.net,domain=adpop.me", "||lnk.parts^$csp=sandbox allow-forms allow-same-origin allow-scripts allow-modals allow-orientation-lock allow-pointer-lock allow-presentation allow-top-navigation", "||alifafdlnjeruif.com^", "*$script,3p,denyallow=cloudflare.com|google.com|gstatic.com|recaptcha.net,domain=payskip.org", "@@||cdn.tsyndicate.com/sdk/$script,domain=hpav.tv|hpjav.tv", "*$script,3p,denyallow=cloudflare.com|google.com|gstatic.com|recaptcha.net,domain=lkop.me", "@@*$ghide,domain=conceptosde.net|cozyasociados.com|freeserverhostingweb.club|me-encantas.com|mejorconfrutas.com|mexicogob.com|noticiascripto.site|tanfacil.net|tecnoaldia.net|todoandroid.live", "@@||cdnjs.cloudflare.com/ajax/libs/fuckadblock/3.2.1/fuckadblock.$script,domain=conceptosde.net|cozyasociados.com|freeserverhostingweb.club|me-encantas.com|mejorconfrutas.com|mexicogob.com|noticiascripto.site|tanfacil.net|tecnoaldia.net|todoandroid.live", "*$frame,denyallow=google.com,domain=voxc.org", "*$script,3p,denyallow=cloudflare.com|google.com|gstatic.com|recaptcha.net,domain=voxc.org", "*$script,3p,denyallow=cloudflare.com|google.com|gstatic.com|recaptcha.net,domain=tmearn.*", "*$script,3p,denyallow=cloudflare.net|google.com|gstatic.com|solvemedia.com,domain=shorterall.com", "adbull.org##+js(set, blurred, false)", "ouo.press##+js(acis, Math, btoa)", "ouo.press##[id*=\"ScriptRoot\"]", "adpop.me##+js(aopr, open)", "adpop.me##+js(aopw, _pop)", "adpop.me##+js(set, blurred, false)", "nulledteam.com##+js(acis, $, userAgent)", "lnk.news,lnk.parts##+js(aopr, popAdsClickCount)", "lnk.news,lnk.parts##+js(nano-sib, , , 0)", "lnk.news,lnk.parts##+js(nostif, redirectPage)", "lnk.news,lnk.parts##+js(set, Math.random, trueFunc)", "lnk.news,lnk.parts##.child-centered.display-300x250", "pornrabbit.com##.stage-promo", "pornrabbit.com###inPlayer", "youporn.com##+js(aopr, page_params.holiday_promo)", "youporn.com##.adsbytrafficjunky", "youporn.com##.channel-header", "youporn.com##.channelSideAd", "youporn.com##[data-removelink=\"removeLink\"]", "payskip.org##+js(aopw, _pop)", "payskip.org##+js(set, blurred, false)", "tvguia.es##+js(acis, $, .height)", "lkop.me##+js(aopr, open)", "lkop.me##+js(set, blurred, false)", "conceptosde.net,cozyasociados.com,freeserverhostingweb.club,me-encantas.com,mejorconfrutas.com,mexicogob.com,noticiascripto.site,tanfacil.net,tecnoaldia.net,todoandroid.live##+js(acis, document.oncontextmenu)", "conceptosde.net,cozyasociados.com,freeserverhostingweb.club,me-encantas.com,mejorconfrutas.com,mexicogob.com,noticiascripto.site,tanfacil.net,tecnoaldia.net,todoandroid.live##+js(acis, document.onkeydown)", "conceptosde.net,cozyasociados.com,freeserverhostingweb.club,me-encantas.com,mejorconfrutas.com,mexicogob.com,noticiascripto.site,tanfacil.net,tecnoaldia.net,todoandroid.live##+js(acis, document.onmousedown)", "voxc.org##+js(acis, String.fromCharCode, btoa)", "voxc.org##+js(set, blurred, false)", "boxlink.us###link-view > center", "manhwa-manga34.bid,manhwa-manga35.bid##+js(aopr, loadRunative)", "manhwa-manga34.bid,manhwa-manga35.bid##.ai_widget", "manhwa-manga34.bid,manhwa-manga35.bid###custom_html-91", "tmearn.*##+js(set, blurred, false)", "aii.sh###link-view > center", "newsonthegotoday.com##+js(ra, target, .clickbutton)"],
    "removed": ["*$script,3p,denyallow=enetscores.com|jsdelivr.net|jwpcdn.com|fbcdn.net|facebook.net|fastly.net|fastlylb.net|jquery.com|hwcdn.net|hcaptcha.com|recaptcha.net|cloudflare.com|cloudflare.net|google.com|googleapis.com|gstatic.com|consensu.org|agorahtag.tech|aghtag.tech,domain=cancan.ro|ciao.ro|gandul.ro|prosport.ro|descopera.ro", "@@||faucethub.io^$ghide", "@@*$ghide,domain=conceptosde.net|cozyasociados.com|freeserverhostingweb.club|me-encantas.com|mejorconfrutas.com|mexicogob.com|noticiascripto.site|tecnoaldia.net|todoandroid.live", "@@||cdnjs.cloudflare.com/ajax/libs/fuckadblock/3.2.1/fuckadblock.$script,domain=conceptosde.net|cozyasociados.com|freeserverhostingweb.club|me-encantas.com|mejorconfrutas.com|mexicogob.com|noticiascripto.site|tecnoaldia.net|todoandroid.live", "*$script,3p,denyallow=cloudflare.net|google.com|gstatic.com,domain=shorterall.com", "ouo.press##+js(acis, Math, zfgloaded)", "adpop.me##+js(aeld, click, trigger)", "nulledteam.com##+js(acis, $, adblock)", "nulledteam.com##+js(nosiif, visibility, 1000)", "lnk.news##+js(aopr, popAdsClickCount)", "lnk.news##+js(nano-sib, , , 0)", "lnk.news##+js(nostif, redirectPage)", "lnk.news##+js(set, Math.random, trueFunc)", "lnk.news##.child-centered.display-300x250", "watchtheoffice.online##+js(aopw, _pop)", "watchtheoffice.online##+js(nobab)", "javwhores.com##+js(aeld, /^(?:click|mousedown)$/, _0x)", "javwhores.com##+js(nosiif, (), 500)", "youporn.com##+js(acis, atob, decodeURIComponent)", "movizland.org##+js(aopw, Fingerprint2)", "tvguia.es##+js(aopr, isAdBlockActive)", "lkop.me##+js(aeld, click, trigger)", "acshort.site,drivelinks.me,hackshort.me,latinolinks.site,pclinks.site,pelislinks.me,pocoslinks.me##+js(nano-sib, , , 0)", "acshort.site,drivelinks.me,hackshort.me,latinolinks.site,pclinks.site,pelislinks.me,pocoslinks.me##+js(set, t, 0)", "conceptosde.net,cozyasociados.com,freeserverhostingweb.club,me-encantas.com,mejorconfrutas.com,mexicogob.com,noticiascripto.site,tecnoaldia.net,todoandroid.live##+js(acis, document.oncontextmenu)", "conceptosde.net,cozyasociados.com,freeserverhostingweb.club,me-encantas.com,mejorconfrutas.com,mexicogob.com,noticiascripto.site,tecnoaldia.net,todoandroid.live##+js(acis, document.onkeydown)", "conceptosde.net,cozyasociados.com,freeserverhostingweb.club,me-encantas.com,mejorconfrutas.com,mexicogob.com,noticiascripto.site,tecnoaldia.net,todoandroid.live##+js(acis, document.onmousedown)", "voxc.org##+js(acis, Math, zfgloaded)", "bitcoin.refroma.ru##[src^=\"http://faucethub.io/assets/img/banners/\"]", "manhwa-manga34.bid##+js(aopr, loadRunative)", "manhwa-manga34.bid##.ai_widget", "manhwa-manga34.bid###custom_html-91"]
}