{
    "added": ["-takeover-ad-", "/adsession.$domain=~adsession.com", "/advertising-$image,script,domain=~abramarketing.com|~advertising-direct.com|~advertising-excellence.com|~advertising-factory.de|~advertising.amazon.com|~deals-italy.com|~microsoft.com|~outbrain.com|~yellowimages.com", "/overture.$script,stylesheet,domain=~overture.doremus.org|~overture.london|~overture.plus", "_migrated/ads/", ".prebid&", "_128x600.", "||2894c9d5b32.com^", "||4ac484684040.com^", "||4cr447ewncl4.com^", "||55d6000d6d.com^", "||59a8e0d6fa2.com^", "||acceptablecolor.com^", "||achedgodroad.com^", "||aeeefzfuk.com^", "||affiliclk.org^", "||aidbaronice.casa^", "||andorranisas.xyz^", "||animosityluxurioussack.com^", "||armiesgiddinesscanes.com^", "||aspirinstaircase.com^", "||aunsajoa.com^", "||avenuehuminterpretation.com^", "||avuvldbc.com^", "||baileycommaserum.com^", "||baptismwitnesseddisobedience.com^", "||bdyjxghwfbyups.com^", "||bemobtrcks.com^", "||bemusic.xyz^", "||bgrndi.com^", "||bladswetis.com^", "||blockscoolest.com^", "||bogrodius.com^", "||bookingfreeze.com^", "||boxofficecounselling.com^", "||braintb.com^", "||brdmin.com^", "||busguyspec.com^", "||callburdenblizzard.com^", "||cavewaxmalt.com^", "||ccc1063d848b.com^", "||clasphs.xyz^", "||clearsettlementelegance.com^", "||cloakroomobsceneredress.com^", "||commissionkings.ag^", "||cornfloweramnesty.com^", "||cp2srvng.xyz^", "||d2ab631af57.com^", "||denetsuk.com^", "||diametertwelfthvending.com^", "||dislanelibrar.top^", "||dissimilarambient.com^", "||dissimilartongueoatmeal.com^", "||dmsqzqvuapb.com^", "||driverwinggranulated.com^", "||e5c4d8d221.com^", "||ebqfuphibj.com^", "||ejirytuw.xyz^", "||emotificc.top^", "||enthusiasmturnipflare.com^", "||entrecent.xyz^", "||ersunt.com^", "||evergreensignificance.com^", "||ewedivotsfop.com^", "||f4674af89e.com^", "||f56e3ea35a4.com^", "||faciliatestudied.com^", "||fakinggivewacko.com^", "||flagros2sii8fdbrh09.com^", "||fqbucxkfcya.com^", "||fudgenine.com^", "||glfrjgeco.com^", "||gnatgrocery.com^", "||gvcmiz3vze3n.com^", "||hardydisplayedprawn.com^", "||hartaim.com^", "||highnesssexuallyferment.com^", "||highwayprinting.com^", "||houdodoo.net^", "||howtubray.com^", "||hqtlvmcrpb.com^", "||ideahealkeeper.com^", "||incapabledroppingachievement.com^", "||inconsistencyspaceelusive.com^", "||inexhaustibleendlesslyregular.com^", "||installsbarefootedringer.com^", "||inviteadvancenuisance.com^", "||iutkryvnixptlg.com^", "||jnxkfldio.com^", "||jomtingi.net^", "||joyfullysacrificeralph.com^", "||jyebqhel.com^", "||klohovfra.com^", "||lbgchljyhjmev.com^", "||ledmophemp.com^", "||lenkmio.com^", "||leopardaddictedenthusiastic.com^", "||littlecdn.com^", "||load44ont.online^", "||luxlnk.com^", "||maimeehu.com^", "||mangelobsolden.cam^", "||mapcrayonmiss.com^", "||mayhemabjure.com^", "||milasktic.com^", "||moviesflix4k.info^", "||mpnjaifkchgw.com^", "||ncediscou.fun^", "||ncorports.top^", "||neighbetweenintrude.com^", "||nellads.com^", "||ngudjtrdcfwwn.com^", "||noiselesscatching.com^", "||nwliko.com^", "||obstructlawn.com^", "||omitbailey.com^", "||oncfnary.com^", "||openmindedisabella.com^", "||oursexist.com^", "||pacifoos.net^", "||pawheatyous.com^", "||penetrateinstalmentfacial.com^", "||phmcgeqjticzbd.com^", "||phoakrun.net^", "||pluralbreakpractice7.live^", "||podsolnu9hi10.com^", "||quiveringminusterminal.com^", "||rdrceting.com^", "||realmpallduns.com^", "||reasonzoodeport.com^", "||receptionstudying.com^", "||revenuenetwork.com^", "||rilelogicbuy.com^", "||riwhedipsa.pro^", "||rompuwit.net^", "||rosqb6vb1cqp.com^", "||rovalionsa.fun^", "||rtserversp.fun^", "||sdmwklnd.com^", "||seminarpoorlyconceive.com^", "||sequestrassent.xyz^", "||servantpantomimematch.com^", "||sheenaup.net^", "||sheerwhirlpool.com^", "||sierraclumsy.com^", "||skxgvqcgefyy.com^", "||snezynrzsz.com^", "||soundingexpulsioninspector.com^", "||steroidtypesconviction.com^", "||sweatrepercussionpatio.com^", "||sweepawejasper.com^", "||szprhglyodqj.com^", "||tathitch.net^", "||tdsjsext3.life^", "||tesvitewbrl.com^", "||tfpayjwjphuk.com^", "||timeruniversalreligious.com^", "||toybahyn.com^", "||truernewlywait.com^", "||tureabstra.fun^", "||twfilnym.com^", "||umannwig.com^", "||umwyfqgsg.com^", "||urineyieldedwasted.com^", "||utilitiespridesweat.com^", "||utilizesailvehicle.com^", "||utteredhandicappedsomebody.com^", "||uyhlpmehm.com^", "||verblife-5.co^", "||viral481.com^", "||volumegently.com^", "||weaurty.club^", "||whoavaud.net^", "||whudiphezy.pro^", "||wirelessbabysitterphonebooth.com^", "||xluizaewqswnfr.com^", "||yltcgyud.com^", "||ym-a.cc^", "||ypuxlzxa.com^", "||yxkobelxlljv.com^", "||zeewepie.net^", "||ztexhfznxvpr.com^", "||zugnogne.com^", "||vivaclix.com^$third-party", "||d1fs2ef81chg3.cloudfront.net^", "||d1rsh847opos9y.cloudfront.net^", "||d2j042cj1421wi.cloudfront.net^", "||d2uy8iq3fi50kh.cloudfront.net^", "||d36zfztxfflmqo.cloudfront.net^", "||d37abonb6ucrhx.cloudfront.net^", "||dita6jhhqwoiz.cloudfront.net^", "||basingstokeobserver.co.uk/wp-content/uploads/2018/09/wk40-petra-leaderboard.jpg", "||newsnow.co.uk/pharos.js", "||streamtape.cc/adult2.js", "/^https?:\\/\\/.*.(club|bid|xyz|site|pro|info)\\/.*/$third-party,domain=9xupload.xyz|bdupload.asia|desiupload.co|flashx.tv|powvideo.net|powvldeo.me|videobin.co", "$image,script,subdocument,third-party,xmlhttprequest,domain=streamp1ay.cc|streamplay.to", "@@||spcdn.cc^$image,script,xmlhttprequest,domain=streamp1ay.cc|streamplay.to", "||centent.streamp1ay.", "||adultasianporn.com/puty3s/", "||girlsofdesire.org/ginna/cheers/$script", "/^https?:\\/\\/.*\\/.*sw[0-9._].*/$domain=adult-channels.com|analdin.com|biguz.net|bogrodius.com|daftsex.com|extremetube.com|fantasti.cc|fux.com|heavy-r.com|incesto69.com|indianbfvideos.com|keezmovies.com|mofosex.com|mypornhere.com|mypornstarbook.net|niceporn.xxx|porn555.com|porndaa.com|pornerbros.com|pornj.com|pornototale.com|porntube.com|spankwire.com|thisav.com|titkino.net|tubepornclassic.com|tubev.sex|txxx.com|vidmo.org|vpornvideos.com|xozilla.com|youporn.lc|youpornhub.it|yourdailypornstars.com", "@@||amazon-adsystem.com/aax2/apstag.js$domain=accuweather.com|blastingnews.com|exomashomepage.com|familyhandyman.com|foxbusiness.com|foxnews.com|go.cnn.com|history.com|keloland.com|radio.com|rd.com|thehealthy.com|webmd.com|wkrn.com|wlns.com|wvnstv.com", "@@||ezoic.net/detroitchicago/dayton.js$script,third-party", "@@||imasdk.googleapis.com/js/sdkloader/ima3.js$domain=abc.com|api.screen9.com|audiomack.com|blastingnews.com|bloomberg.com|cbc.ca|cbsnews.com|cbssports.com|cdnmedia.tv|chicagotribune.com|clipsliver.com|cnet.com|comicbook.com|complex.com|cwtv.com|dailybreeze.com|distro.tv|forbes.com|fox35orlando.com|freep.com|gamejolt.com|goodhousekeeping.com|goodmorningamerica.com|healthmeans.com|iheart.com|independent.co.uk|indystar.com|insideedition.com|kizi.com|metacritic.com|metrolyrics.com|mobg.io|news.sky.com|nflgamepass.com|nytimes.com|nytimes3xbfgragh.onion|play.ludigames.com|player.abacast.net|player.earthtv.com|player.performgroup.com|powr.com|rumble.com|snopes.com|thestreet.com|theverge.com|tvguide.com|ultimedia.com|usatoday.com|video.foxbusiness.com|video.foxnews.com|vidyomani.com|womenshealthmag.com|wsj.com|yiv.com|zeebiz.com", "@@||tpdads.com/configs/bigleaguepolitics.js$script,domain=bigleaguepolitics.com", "@@||tpdads.com/tag.min.js$script,domain=bigleaguepolitics.com", "###ad_sky_lhs", "###ad_sky_rhs", "###ads-pagetop", "###ads_728x90_top", "###block-bean-banner-adlink-3", "###dianomiNewsBlock", "##.GeminiNativeAd", "##.ad-container-wrapper", "##.ad_sky_lhs", "##.ad_sky_rhs", "##.ads-label-inverse", "##.ads.rectangle160", "##.ads.rectangle300", "##.ads.skyscraper160", "##.advert-panel", "##.advertisement-area", "##.at-header-ad", "##.google-ads-bottom", "##.pre-article-ad", "##.sticky-bottom-ad", "##.widget_quads_ads_widget", "##a[href^=\"https://affiliate.geekbuying.com/gkbaffiliate.php?\"]", "##a[href^=\"https://ismlks.com/\"]", "##div[class^=\"index__adWrapper\"]", "##[href*=\".trackmstr.com\"]", "##[href*=\"//trackmstr.com\"]", "gotoeat.maff.go.jp,selectparkhomes.com#@#.footer_ad", "magnet.so###AD", "rumble.com##.a-break", "1sale.com,7billionworld.com,9jaflaver.com,abajournal.com,achieveronline.co.za,altavista.com,arcadeprehacks.com,asbarez.com,bbqonline.co.za,birdforum.net,bluechipjournal.co.za,boodigo.com,browardpalmbeach.com,canstarblue.co.nz,chordfrenzy.com,citypages.com,climatechangenews.com,coinad.com,cuzoogle.com,cyclingweekly.co.uk,dallasobserver.com,disconnect.me,domainnamenews.com,eco-business.com,energyforecastonline.co.za,energylivenews.com,eventcinemas.co.nz,exploreonline.co.za,fashionnetwork.com,flashx.tv,focustaiwan.tw,foxbusiness.com,freetvall.com,friendster.com,fstoppers.com,ftadviser.com,furaffinity.net,gentoo.org,geo.tv,ghananation.com,gmanetwork.com,gogoanime.tv,goodthingsguy.com,govtrack.us,gramfeed.com,gyazo.com,harvestsa.co.za,hispanicbusiness.com,houstonpress.com,html5test.com,hurricanevanessa.com,i-dressup.com,ichan.net,idiva.com,iheart.com,ilovetypography.com,indiatimes.com,infozambia.com,jooble.org,laptopmag.com,laweekly.com,leadershipinsport.co.za,leadershiponline.co.za,leadersinwellness.co.za,lovemyanime.net,manga-download.org,maps.google.com,marinetraffic.com,mb.com.ph,mehrnews.com,meta-calculator.com,miaminewtimes.com,mini-ielts.com,miningprospectus.co.za,mmajunkie.com,mugshots.com,myfitnesspal.com,mypaper.sg,nativeplanet.com,nbc.na,nbcnews.com,news.nom.co,nsfwyoutube.com,opportunityonline.co.za,osn.com,panorama.am,pastie.org,phoenixnewtimes.com,playboy.com,pokernews.com,previously.tv,radionomy.com,radiotoday.com.au,reason.com,roadaheadonline.co.za,russia-insider.com,ryanseacrest.com,satdl.com,savevideo.me,sddt.com,servicepublication.co.za,sgcarmart.com,shipyearonline.co.za,shopbot.ca,stars-portraits.com,stcatharinesstandard.ca,straitstimes.com,strawpoll.me,tass.ru,tcm.com,tech2.com,tehrantimes.com,thecatholicuniverse.com,thedailysheeple.com,thejakartapost.com,thelakewoodscoop.com,themalaysianinsider.com,thenews.com.pk,thepeterboroughexaminer.com,theprojectmanager.co.za,thestar.com.my,thevoicebw.com,tjpnews.com,today.com,turner.com,twogag.com,ultimate-guitar.com,viamichelin.co.uk,viamichelin.com,viamichelin.ie,vidstreaming.io,villagevoice.com,wallpaper.com,wayfm.com,wdet.org,westword.com,womanandhome.com,wtvz.net,youthedesigner.com,yuku.com##.ads", "animalcrossingworld.com##.at-sidebar-1", "oilprice.com##.banner--articleSidebar", "fxstreet.com##.fxs_leaderboard", "newsnow.co.uk##.js-banner-strip", "98fm.com,afcbournemouthnews.com,audioreview.com,autotrader.co.za,barrheadnews.com,bigtop40.com,birminghammail.co.uk,birminghampost.co.uk,bobfm.co.uk,bordertelegraph.com,bracknellnews.co.uk,burnleyfcnews.com,carrickherald.com,caughtoffside.com,centralfifetimes.com,chelseanews.com,chroniclelive.co.uk,clydebankpost.co.uk,coventrytelegraph.net,crystalpalacenews.com,cultofandroid.com,cumnockchronicle.com,dailypost.co.uk,dcsuk.info,directory.im,directory247.co.uk,dplay.com,dumbartonreporter.co.uk,dunfermlinepress.com,durhamtimes.co.uk,eastlothiancourier.com,econsultancy.com,evertonnews.com,findanyfilm.com,football-league.co.uk,games.co.uk,gamesindustry.biz,gazettelive.co.uk,getreading.co.uk,getsurrey.co.uk,golf365.com,goonernews.com,greenocktelegraph.co.uk,hammersheadlines.com,helensburghadvertiser.co.uk,her.ie,herfamily.ie,huddersfieldtownnews.com,impartialreporter.com,indy100.com,irishexaminer.com,irvinetimes.com,jamieoliver.com,joe.co.uk,joe.ie,largsandmillportnews.com,leicestercitynews.org,liverpoolecho.co.uk,localberkshire.co.uk,look.co.uk,manchestereveningnews.co.uk,mancitynews.com,manunews.com,metoffice.gov.uk,mumsnet.com,musicradio.com,mygoldmusic.co.uk,newburyandthatchamchronicle.co.uk,newcastleunitednews.org,newscientist.com,newstalk.com,newstatesman.com,northernfarmer.co.uk,osadvertiser.co.uk,peeblesshirenews.com,planetrock.com,propertynews.com,racecar-engineering.com,radiox.co.uk,readamericanfootball.com,readarsenal.com,readastonvilla.com,readbasketball.com,readbetting.com,readbournemouth.com,readboxing.com,readbrighton.com,readbundesliga.com,readburnley.com,readcars.co,readceltic.com,readchampionship.com,readchelsea.com,readcricket.com,readcrystalpalace.com,readeverton.com,readeverything.co,readfashion.co,readfilm.co,readfood.co,readfootball.co,readgaming.co,readgolf.com,readhorseracing.com,readhuddersfield.com,readhull.com,readingchronicle.co.uk,readinternationalfootball.com,readlaliga.com,readleicester.com,readliverpoolfc.com,readmancity.com,readmanutd.com,readmiddlesbrough.com,readmma.com,readmotorsport.com,readmusic.co,readnewcastle.com,readnorwich.com,readnottinghamforest.com,readolympics.com,readpl.com,readrangers.com,readrugbyunion.com,readseriea.com,readshowbiz.co,readsouthampton.com,readsport.co,readstoke.com,readsunderland.com,readswansea.com,readtech.co,readtennis.co,readtottenham.com,readtv.co,readussoccer.com,readwatford.com,readwestbrom.com,readwestham.com,readwsl.com,realradioxs.co.uk,redhillandreigatelife.co.uk,rochdaleonline.co.uk,rte.ie,runcornandwidnesweeklynews.co.uk,saintsnews.com,scotsman.com,seagullsnews.com,sloughobserver.co.uk,smartertravel.com,smoothradio.com,southwestfarmer.co.uk,spin1038.com,spinsouthwest.com,sportsjoe.ie,sportsmole.co.uk,spursnews.com,stokecitynews.com,strathallantimes.co.uk,swanseacitynews.com,tcmuk.tv,the-gazette.co.uk,the-tls.co.uk,theadvertiserseries.co.uk,thejournal.co.uk,thelancasterandmorecambecitizen.co.uk,thetimes.co.uk,thevillager.co.uk,thisisfutbol.com,todayfm.com,toffeeweb.com,troontimes.com,uktv.co.uk,videocelts.com,walesonline.co.uk,walkon.com,warringtonguardian.co.uk,watfordfcnews.com,westbromnews.com,wiltshirebusinessonline.co.uk,windsorobserver.co.uk##.mpu", "techcentral.ie,versus.com##.topBanner", "biznews.com,businessdailyafrica.com,financialexpress.com,irishtimes.com,komonews.com,seattletimes.com,spokesman.com##a[href*=\"/sponsored/\"]", "isaidubb.net,orutamil.com##a[href*=\"/ucdownloader.php?\"]", "isaidubb.net,orutamil.com##a[href*=\"/ucmini.php?\"]", "versus.com##div[class^=\"LegendSingle__show\"]", "amazon.com##span[class*=\"template=VIDEO_SINGLE_PRODUCT\"]", "anyporn.com##.inplb", "xhamster.com,xhamster.one,xhamster2.com##.wiz-spb", "xhamster.com,xhamster.one,xhamster2.com##[class^=\"xplayer-banner\"]", "alrincon.com,thenipslip.com,wetpussygames.com##canvas"],
    "removed": [".adsense.", ".com/js/ad.$~script", "/adsession.", "/advertising-$domain=~abramarketing.com|~advertising-direct.com|~advertising-excellence.com|~advertising-factory.de|~advertising.amazon.com|~deals-italy.com|~microsoft.com|~outbrain.com|~yellowimages.com", "/doubleclick.js", "/javascripts/ads.", "/js/ads-$~script", "/overture.$script,stylesheet,domain=~overture.doremus.org|~overture.london", "/scripts/ad.$~script", "/scripts/ads.$~script", "||3fp43qvh.trade^", "||59ef0480b3fd.com^", "||5f6a83f8b9.com^", "||7102794ef7.com^", "||7e9743d843c.com^", "||85451fe651e0.com^", "||867db0d6bf2.com^", "||9aa883b192cd.com^", "||a378c6547e8.com^", "||ad28b2a5fe.com^", "||ccbfee1a0ae.com^", "||ervinguewty.com^", "||f11440076c16.com^", "||fxox4wvv.win^", "||hezasoiduicbha.com^", "||hkoxznukwpdhxu.com^", "||ifbhceoxx.com^", "||lvldcxnq.com^", "||numcxvlfguc.com^", "||oeppesfmzlbpa.com^", "||sepyqhipq.com^", "||vhbyakilp.com^", "||xirlmiyihvpi.com^", "||xrkfqpbubaq.com^", "||d2b560qq58menv.cloudfront.net^", "||d2bgg7rjywcwsy.cloudfront.net^", "||pub.aujourdhui.com^$third-party", "||click.absoluteagency.com^$third-party", "||content.liveuniverse.com^$third-party", "||iftn.ie/images/data/banners/", "/^https?:\\/\\/.*.(club|bid|xyz|site|pro|info)\\/.*/$third-party,domain=9xupload.xyz|bdupload.asia|desiupload.co|flashx.tv|powvideo.net|powvldeo.me|streamplay.biz|streamplay.to|videobin.co", "@@||spcdn.cc^$image,script,xmlhttprequest,domain=streamplay.to", "|http://$image,script,subdocument,third-party,xmlhttprequest,domain=streamplay.to", "|https://$image,script,subdocument,third-party,xmlhttprequest,domain=streamplay.to", "||girlsofdesire.org/php/gofd_bl/", "/^https?:\\/\\/.*\\/.*sw[0-9._].*/$script,domain=adult-channels.com|analdin.com|biguz.net|daftsex.com|extremetube.com|fantasti.cc|fux.com|heavy-r.com|incesto69.com|indianbfvideos.com|keezmovies.com|mofosex.com|mypornhere.com|mypornstarbook.net|niceporn.xxx|porn555.com|porndaa.com|pornerbros.com|pornj.com|pornototale.com|porntube.com|spankwire.com|thisav.com|tubepornclassic.com|tubev.sex|txxx.com|vidmo.org|vpornvideos.com|xozilla.com|youporn.lc|youpornhub.it|yourdailypornstars.com", "@@||amazon-adsystem.com/aax2/apstag.js$domain=accuweather.com|blastingnews.com|exomashomepage.com|foxbusiness.com|foxnews.com|go.cnn.com|history.com|keloland.com|radio.com|webmd.com|wkrn.com|wlns.com|wvnstv.com", "@@||imasdk.googleapis.com/js/sdkloader/ima3.js$domain=abc.com|api.screen9.com|audiomack.com|blastingnews.com|bloomberg.com|cbc.ca|cbsnews.com|cbssports.com|cdnmedia.tv|chicagotribune.com|clipsliver.com|cnet.com|comicbook.com|complex.com|cwtv.com|dailybreeze.com|distro.tv|forbes.com|fox35orlando.com|freep.com|gamejolt.com|goodhousekeeping.com|goodmorningamerica.com|healthmeans.com|iheart.com|independent.co.uk|indystar.com|insideedition.com|kizi.com|metacritic.com|metrolyrics.com|mobg.io|news.sky.com|nflgamepass.com|nytimes.com|nytimes3xbfgragh.onion|play.ludigames.com|player.abacast.net|player.performgroup.com|powr.com|rumble.com|snopes.com|thestreet.com|theverge.com|tvguide.com|ultimedia.com|usatoday.com|video.foxbusiness.com|video.foxnews.com|vidyomani.com|womenshealthmag.com|wsj.com|yiv.com|zeebiz.com", "selectparkhomes.com#@#.footer_ad", "reminderfox.mozdev.org###promotion3", "1sale.com,7billionworld.com,9jaflaver.com,abajournal.com,achieveronline.co.za,altavista.com,arcadeprehacks.com,asbarez.com,bbqonline.co.za,birdforum.net,bluechipjournal.co.za,boodigo.com,browardpalmbeach.com,canstarblue.co.nz,chordfrenzy.com,citypages.com,climatechangenews.com,coinad.com,cuzoogle.com,cyclingweekly.co.uk,dallasobserver.com,disconnect.me,domainnamenews.com,eco-business.com,energyforecastonline.co.za,energylivenews.com,eventcinemas.co.nz,exploreonline.co.za,fashionnetwork.com,flashx.tv,focustaiwan.tw,foxbusiness.com,freetvall.com,friendster.com,fstoppers.com,ftadviser.com,furaffinity.net,gentoo.org,geo.tv,ghananation.com,gmanetwork.com,gogoanime.tv,goodthingsguy.com,govtrack.us,gramfeed.com,gyazo.com,harvestsa.co.za,hispanicbusiness.com,houstonpress.com,html5test.com,hurricanevanessa.com,i-dressup.com,ichan.net,idiva.com,iheart.com,ilovetypography.com,indiatimes.com,infozambia.com,jooble.org,laptopmag.com,laweekly.com,leadershipinsport.co.za,leadershiponline.co.za,leadersinwellness.co.za,lovemyanime.net,manga-download.org,maps.google.com,marinetraffic.com,mb.com.ph,mehrnews.com,meta-calculator.com,miaminewtimes.com,mini-ielts.com,miningprospectus.co.za,mmajunkie.com,mugshots.com,myfitnesspal.com,mypaper.sg,nativeplanet.com,nbc.na,nbcnews.com,news.nom.co,nsfwyoutube.com,opportunityonline.co.za,osn.com,panorama.am,pastie.org,phoenixnewtimes.com,playboy.com,pokernews.com,previously.tv,radionomy.com,radiotoday.com.au,reason.com,roadaheadonline.co.za,russia-insider.com,ryanseacrest.com,satdl.com,savevideo.me,sddt.com,servicepublication.co.za,sgcarmart.com,shipyearonline.co.za,shopbot.ca,stars-portraits.com,stcatharinesstandard.ca,straitstimes.com,strawpoll.me,tass.ru,tcm.com,tech2.com,tehrantimes.com,thecatholicuniverse.com,thedailysheeple.com,thejakartapost.com,thelakewoodscoop.com,themalaysianinsider.com,thenews.com.pk,thepeterboroughexaminer.com,theprojectmanager.co.za,thestar.com.my,thevoicebw.com,tjpnews.com,today.com,turner.com,twogag.com,ubuntumagazine.co.za,ultimate-guitar.com,viamichelin.co.uk,viamichelin.com,viamichelin.ie,vidstreaming.io,villagevoice.com,wallpaper.com,wayfm.com,wdet.org,westword.com,womanandhome.com,wtvz.net,youthedesigner.com,yuku.com##.ads", "98fm.com,afcbournemouthnews.com,audioreview.com,autotrader.co.za,barrheadnews.com,bigtop40.com,birminghammail.co.uk,birminghampost.co.uk,bobfm.co.uk,bordertelegraph.com,bracknellnews.co.uk,burnleyfcnews.com,carrickherald.com,caughtoffside.com,centralfifetimes.com,chelseanews.com,chroniclelive.co.uk,clydebankpost.co.uk,coventrytelegraph.net,crystalpalacenews.com,cultofandroid.com,cumnockchronicle.com,dailypost.co.uk,dcsuk.info,directory.im,directory247.co.uk,dplay.com,dumbartonreporter.co.uk,dunfermlinepress.com,durhamtimes.co.uk,eastlothiancourier.com,econsultancy.com,evertonnews.com,findanyfilm.com,football-league.co.uk,games.co.uk,gamesindustry.biz,gazettelive.co.uk,getreading.co.uk,getsurrey.co.uk,golf365.com,goonernews.com,greenocktelegraph.co.uk,hammersheadlines.com,helensburghadvertiser.co.uk,her.ie,herfamily.ie,huddersfieldtownnews.com,impartialreporter.com,indy100.com,irishexaminer.com,irvinetimes.com,jamieoliver.com,joe.co.uk,joe.ie,largsandmillportnews.com,leicestercitynews.org,liverpoolecho.co.uk,localberkshire.co.uk,look.co.uk,manchestereveningnews.co.uk,mancitynews.com,manunews.com,metoffice.gov.uk,mumsnet.com,musicradio.com,mygoldmusic.co.uk,newburyandthatchamchronicle.co.uk,newcastleunitednews.org,newscientist.com,newstalk.com,northernfarmer.co.uk,osadvertiser.co.uk,peeblesshirenews.com,planetrock.com,propertynews.com,racecar-engineering.com,radiox.co.uk,readamericanfootball.com,readarsenal.com,readastonvilla.com,readbasketball.com,readbetting.com,readbournemouth.com,readboxing.com,readbrighton.com,readbundesliga.com,readburnley.com,readcars.co,readceltic.com,readchampionship.com,readchelsea.com,readcricket.com,readcrystalpalace.com,readeverton.com,readeverything.co,readfashion.co,readfilm.co,readfood.co,readfootball.co,readgaming.co,readgolf.com,readhorseracing.com,readhuddersfield.com,readhull.com,readingchronicle.co.uk,readinternationalfootball.com,readlaliga.com,readleicester.com,readliverpoolfc.com,readmancity.com,readmanutd.com,readmiddlesbrough.com,readmma.com,readmotorsport.com,readmusic.co,readnewcastle.com,readnorwich.com,readnottinghamforest.com,readolympics.com,readpl.com,readrangers.com,readrugbyunion.com,readseriea.com,readshowbiz.co,readsouthampton.com,readsport.co,readstoke.com,readsunderland.com,readswansea.com,readtech.co,readtennis.co,readtottenham.com,readtv.co,readussoccer.com,readwatford.com,readwestbrom.com,readwestham.com,readwsl.com,realradioxs.co.uk,redhillandreigatelife.co.uk,rochdaleonline.co.uk,rte.ie,runcornandwidnesweeklynews.co.uk,saintsnews.com,scotsman.com,seagullsnews.com,sloughobserver.co.uk,smartertravel.com,smoothradio.com,southwestfarmer.co.uk,spin1038.com,spinsouthwest.com,sportsjoe.ie,sportsmole.co.uk,spursnews.com,stokecitynews.com,strathallantimes.co.uk,swanseacitynews.com,tcmuk.tv,the-gazette.co.uk,the-tls.co.uk,theadvertiserseries.co.uk,thejournal.co.uk,thelancasterandmorecambecitizen.co.uk,thetimes.co.uk,thevillager.co.uk,thisisfutbol.com,todayfm.com,toffeeweb.com,troontimes.com,uktv.co.uk,videocelts.com,walesonline.co.uk,walkon.com,warringtonguardian.co.uk,watfordfcnews.com,westbromnews.com,wiltshirebusinessonline.co.uk,windsorobserver.co.uk##.mpu", "politico.com##.story-enhancement", "techcentral.ie##.topBanner", "biznews.com,businessdailyafrica.com,financialexpress.com,irishtimes.com,komonews.com,nan.ng,seattletimes.com,spokesman.com##a[href*=\"/sponsored/\"]", "xhamster.com,xhamster.one##[class^=\"xplayer-banner\"]", "alrincon.com,thenipslip.com##canvas"]
}