{
    "added": ["-takeover-ad-", "/overture.$script,stylesheet,domain=~overture.doremus.org|~overture.london|~overture.plus", "_migrated/ads/", ".prebid&", "_128x600.", "||4ac484684040.com^", "||4cr447ewncl4.com^", "||55d6000d6d.com^", "||59a8e0d6fa2.com^", "||acceptablecolor.com^", "||aeeefzfuk.com^", "||affiliclk.org^", "||armiesgiddinesscanes.com^", "||aspirinstaircase.com^", "||avenuehuminterpretation.com^", "||avuvldbc.com^", "||baileycommaserum.com^", "||baptismwitnesseddisobedience.com^", "||bdyjxghwfbyups.com^", "||bemobtrcks.com^", "||bemusic.xyz^", "||bgrndi.com^", "||blockscoolest.com^", "||braintb.com^", "||brdmin.com^", "||busguyspec.com^", "||ccc1063d848b.com^", "||commissionkings.ag^", "||cp2srvng.xyz^", "||dislanelibrar.top^", "||dissimilarambient.com^", "||dissimilartongueoatmeal.com^", "||driverwinggranulated.com^", "||e5c4d8d221.com^", "||ebqfuphibj.com^", "||ejirytuw.xyz^", "||emotificc.top^", "||enthusiasmturnipflare.com^", "||evergreensignificance.com^", "||f4674af89e.com^", "||f56e3ea35a4.com^", "||faciliatestudied.com^", "||fakinggivewacko.com^", "||flagros2sii8fdbrh09.com^", "||fqbucxkfcya.com^", "||glfrjgeco.com^", "||gnatgrocery.com^", "||gvcmiz3vze3n.com^", "||highwayprinting.com^", "||howtubray.com^", "||ideahealkeeper.com^", "||installsbarefootedringer.com^", "||iutkryvnixptlg.com^", "||joyfullysacrificeralph.com^", "||jyebqhel.com^", "||klohovfra.com^", "||ledmophemp.com^", "||lenkmio.com^", "||leopardaddictedenthusiastic.com^", "||littlecdn.com^", "||luxlnk.com^", "||maimeehu.com^", "||mayhemabjure.com^", "||milasktic.com^", "||moviesflix4k.info^", "||ncediscou.fun^", "||ncorports.top^", "||ngudjtrdcfwwn.com^", "||noiselesscatching.com^", "||nwliko.com^", "||obstructlawn.com^", "||openmindedisabella.com^", "||oursexist.com^", "||pacifoos.net^", "||phmcgeqjticzbd.com^", "||pluralbreakpractice7.live^", "||podsolnu9hi10.com^", "||rdrceting.com^", "||realmpallduns.com^", "||reasonzoodeport.com^", "||revenuenetwork.com^", "||rilelogicbuy.com^", "||riwhedipsa.pro^", "||rosqb6vb1cqp.com^", "||rovalionsa.fun^", "||rtserversp.fun^", "||sdmwklnd.com^", "||seminarpoorlyconceive.com^", "||sequestrassent.xyz^", "||servantpantomimematch.com^", "||sheenaup.net^", "||sierraclumsy.com^", "||skxgvqcgefyy.com^", "||snezynrzsz.com^", "||steroidtypesconviction.com^", "||sweatrepercussionpatio.com^", "||sweepawejasper.com^", "||szprhglyodqj.com^", "||tdsjsext3.life^", "||tfpayjwjphuk.com^", "||timeruniversalreligious.com^", "||toybahyn.com^", "||tureabstra.fun^", "||twfilnym.com^", "||umannwig.com^", "||umwyfqgsg.com^", "||uyhlpmehm.com^", "||verblife-5.co^", "||viral481.com^", "||volumegently.com^", "||weaurty.club^", "||whoavaud.net^", "||whudiphezy.pro^", "||xluizaewqswnfr.com^", "||yltcgyud.com^", "||ym-a.cc^", "||ypuxlzxa.com^", "||yxkobelxlljv.com^", "||zeewepie.net^", "||ztexhfznxvpr.com^", "||zugnogne.com^", "||vivaclix.com^$third-party", "||d1fs2ef81chg3.cloudfront.net^", "||d2uy8iq3fi50kh.cloudfront.net^", "||d36zfztxfflmqo.cloudfront.net^", "||d37abonb6ucrhx.cloudfront.net^", "||dita6jhhqwoiz.cloudfront.net^", "||basingstokeobserver.co.uk/wp-content/uploads/2018/09/wk40-petra-leaderboard.jpg", "/^https?:\\/\\/.*.(club|bid|xyz|site|pro|info)\\/.*/$third-party,domain=9xupload.xyz|bdupload.asia|desiupload.co|flashx.tv|powvideo.net|powvldeo.me|videobin.co", "$image,script,subdocument,third-party,xmlhttprequest,domain=streamp1ay.cc|streamplay.to", "@@||spcdn.cc^$image,script,xmlhttprequest,domain=streamp1ay.cc|streamplay.to", "||centent.streamp1ay.", "||girlsofdesire.org/ginna/cheers/$script", "@@||amazon-adsystem.com/aax2/apstag.js$domain=accuweather.com|blastingnews.com|exomashomepage.com|familyhandyman.com|foxbusiness.com|foxnews.com|go.cnn.com|history.com|keloland.com|radio.com|rd.com|thehealthy.com|webmd.com|wkrn.com|wlns.com|wvnstv.com", "@@||tpdads.com/configs/bigleaguepolitics.js$script,domain=bigleaguepolitics.com", "@@||tpdads.com/tag.min.js$script,domain=bigleaguepolitics.com", "###ad_sky_lhs", "###ad_sky_rhs", "###ads-pagetop", "###ads_728x90_top", "###block-bean-banner-adlink-3", "###dianomiNewsBlock", "##.GeminiNativeAd", "##.ad-container-wrapper", "##.ad_sky_lhs", "##.ad_sky_rhs", "##.ads-label-inverse", "##.ads.rectangle160", "##.ads.rectangle300", "##.ads.skyscraper160", "##.advertisement-area", "##.google-ads-bottom", "##.pre-article-ad", "##.sticky-bottom-ad", "##.widget_quads_ads_widget", "##a[href^=\"https://affiliate.geekbuying.com/gkbaffiliate.php?\"]", "##a[href^=\"https://ismlks.com/\"]", "##div[class^=\"index__adWrapper\"]", "gotoeat.maff.go.jp,selectparkhomes.com#@#.footer_ad", "magnet.so###AD", "1sale.com,7billionworld.com,9jaflaver.com,abajournal.com,achieveronline.co.za,altavista.com,arcadeprehacks.com,asbarez.com,bbqonline.co.za,birdforum.net,bluechipjournal.co.za,boodigo.com,browardpalmbeach.com,canstarblue.co.nz,chordfrenzy.com,citypages.com,climatechangenews.com,coinad.com,cuzoogle.com,cyclingweekly.co.uk,dallasobserver.com,disconnect.me,domainnamenews.com,eco-business.com,energyforecastonline.co.za,energylivenews.com,eventcinemas.co.nz,exploreonline.co.za,fashionnetwork.com,flashx.tv,focustaiwan.tw,foxbusiness.com,freetvall.com,friendster.com,fstoppers.com,ftadviser.com,furaffinity.net,gentoo.org,geo.tv,ghananation.com,gmanetwork.com,gogoanime.tv,goodthingsguy.com,govtrack.us,gramfeed.com,gyazo.com,harvestsa.co.za,hispanicbusiness.com,houstonpress.com,html5test.com,hurricanevanessa.com,i-dressup.com,ichan.net,idiva.com,iheart.com,ilovetypography.com,indiatimes.com,infozambia.com,jooble.org,laptopmag.com,laweekly.com,leadershipinsport.co.za,leadershiponline.co.za,leadersinwellness.co.za,lovemyanime.net,manga-download.org,maps.google.com,marinetraffic.com,mb.com.ph,mehrnews.com,meta-calculator.com,miaminewtimes.com,mini-ielts.com,miningprospectus.co.za,mmajunkie.com,mugshots.com,myfitnesspal.com,mypaper.sg,nativeplanet.com,nbc.na,nbcnews.com,news.nom.co,nsfwyoutube.com,opportunityonline.co.za,osn.com,panorama.am,pastie.org,phoenixnewtimes.com,playboy.com,pokernews.com,previously.tv,radionomy.com,radiotoday.com.au,reason.com,roadaheadonline.co.za,russia-insider.com,ryanseacrest.com,satdl.com,savevideo.me,sddt.com,servicepublication.co.za,sgcarmart.com,shipyearonline.co.za,shopbot.ca,stars-portraits.com,stcatharinesstandard.ca,straitstimes.com,strawpoll.me,tass.ru,tcm.com,tech2.com,tehrantimes.com,thecatholicuniverse.com,thedailysheeple.com,thejakartapost.com,thelakewoodscoop.com,themalaysianinsider.com,thenews.com.pk,thepeterboroughexaminer.com,theprojectmanager.co.za,thestar.com.my,thevoicebw.com,tjpnews.com,today.com,turner.com,twogag.com,ultimate-guitar.com,viamichelin.co.uk,viamichelin.com,viamichelin.ie,vidstreaming.io,villagevoice.com,wallpaper.com,wayfm.com,wdet.org,westword.com,womanandhome.com,wtvz.net,youthedesigner.com,yuku.com##.ads", "oilprice.com##.banner--articleSidebar", "techcentral.ie,versus.com##.topBanner", "biznews.com,businessdailyafrica.com,financialexpress.com,irishtimes.com,komonews.com,seattletimes.com,spokesman.com##a[href*=\"/sponsored/\"]", "isaidubb.net,orutamil.com##a[href*=\"/ucdownloader.php?\"]", "isaidubb.net,orutamil.com##a[href*=\"/ucmini.php?\"]", "versus.com##div[class^=\"LegendSingle__show\"]", "amazon.com##span[class*=\"template=VIDEO_SINGLE_PRODUCT\"]", "xhamster.com,xhamster.one,xhamster2.com##.wiz-spb", "xhamster.com,xhamster.one,xhamster2.com##[class^=\"xplayer-banner\"]", "alrincon.com,thenipslip.com,wetpussygames.com##canvas"],
    "removed": ["/overture.$script,stylesheet,domain=~overture.doremus.org|~overture.london", "||5d1e656859.com^", "||6d9b3be751.com^", "||pub.aujourdhui.com^$third-party", "||click.absoluteagency.com^$third-party", "||content.liveuniverse.com^$third-party", "||iftn.ie/images/data/banners/", "/^https?:\\/\\/.*.(club|bid|xyz|site|pro|info)\\/.*/$third-party,domain=9xupload.xyz|bdupload.asia|desiupload.co|flashx.tv|powvideo.net|powvldeo.me|streamplay.biz|streamplay.to|videobin.co", "@@||spcdn.cc^$image,script,xmlhttprequest,domain=streamplay.to", "|http://$image,script,subdocument,third-party,xmlhttprequest,domain=streamplay.to", "|https://$image,script,subdocument,third-party,xmlhttprequest,domain=streamplay.to", "||girlsofdesire.org/php/gofd_bl/", "@@||amazon-adsystem.com/aax2/apstag.js$domain=accuweather.com|blastingnews.com|exomashomepage.com|foxbusiness.com|foxnews.com|go.cnn.com|history.com|keloland.com|radio.com|webmd.com|wkrn.com|wlns.com|wvnstv.com", "selectparkhomes.com#@#.footer_ad", "reminderfox.mozdev.org###promotion3", "1sale.com,7billionworld.com,9jaflaver.com,abajournal.com,achieveronline.co.za,altavista.com,arcadeprehacks.com,asbarez.com,bbqonline.co.za,birdforum.net,bluechipjournal.co.za,boodigo.com,browardpalmbeach.com,canstarblue.co.nz,chordfrenzy.com,citypages.com,climatechangenews.com,coinad.com,cuzoogle.com,cyclingweekly.co.uk,dallasobserver.com,disconnect.me,domainnamenews.com,eco-business.com,energyforecastonline.co.za,energylivenews.com,eventcinemas.co.nz,exploreonline.co.za,fashionnetwork.com,flashx.tv,focustaiwan.tw,foxbusiness.com,freetvall.com,friendster.com,fstoppers.com,ftadviser.com,furaffinity.net,gentoo.org,geo.tv,ghananation.com,gmanetwork.com,gogoanime.tv,goodthingsguy.com,govtrack.us,gramfeed.com,gyazo.com,harvestsa.co.za,hispanicbusiness.com,houstonpress.com,html5test.com,hurricanevanessa.com,i-dressup.com,ichan.net,idiva.com,iheart.com,ilovetypography.com,indiatimes.com,infozambia.com,jooble.org,laptopmag.com,laweekly.com,leadershipinsport.co.za,leadershiponline.co.za,leadersinwellness.co.za,lovemyanime.net,manga-download.org,maps.google.com,marinetraffic.com,mb.com.ph,mehrnews.com,meta-calculator.com,miaminewtimes.com,mini-ielts.com,miningprospectus.co.za,mmajunkie.com,mugshots.com,myfitnesspal.com,mypaper.sg,nativeplanet.com,nbc.na,nbcnews.com,news.nom.co,nsfwyoutube.com,opportunityonline.co.za,osn.com,panorama.am,pastie.org,phoenixnewtimes.com,playboy.com,pokernews.com,previously.tv,radionomy.com,radiotoday.com.au,reason.com,roadaheadonline.co.za,russia-insider.com,ryanseacrest.com,satdl.com,savevideo.me,sddt.com,servicepublication.co.za,sgcarmart.com,shipyearonline.co.za,shopbot.ca,stars-portraits.com,stcatharinesstandard.ca,straitstimes.com,strawpoll.me,tass.ru,tcm.com,tech2.com,tehrantimes.com,thecatholicuniverse.com,thedailysheeple.com,thejakartapost.com,thelakewoodscoop.com,themalaysianinsider.com,thenews.com.pk,thepeterboroughexaminer.com,theprojectmanager.co.za,thestar.com.my,thevoicebw.com,tjpnews.com,today.com,turner.com,twogag.com,ubuntumagazine.co.za,ultimate-guitar.com,viamichelin.co.uk,viamichelin.com,viamichelin.ie,vidstreaming.io,villagevoice.com,wallpaper.com,wayfm.com,wdet.org,westword.com,womanandhome.com,wtvz.net,youthedesigner.com,yuku.com##.ads", "politico.com##.story-enhancement", "techcentral.ie##.topBanner", "biznews.com,businessdailyafrica.com,financialexpress.com,irishtimes.com,komonews.com,nan.ng,seattletimes.com,spokesman.com##a[href*=\"/sponsored/\"]", "xhamster.com,xhamster.one##[class^=\"xplayer-banner\"]", "alrincon.com,thenipslip.com##canvas"]
}