{
    "added": ["/overture.$script,stylesheet,domain=~overture.doremus.org|~overture.london|~overture.plus", "_migrated/ads/", ".prebid&", "||4cr447ewncl4.com^", "||55d6000d6d.com^", "||59a8e0d6fa2.com^", "||acceptablecolor.com^", "||affiliclk.org^", "||avuvldbc.com^", "||baileycommaserum.com^", "||bemobtrcks.com^", "||bgrndi.com^", "||brdmin.com^", "||busguyspec.com^", "||dissimilartongueoatmeal.com^", "||driverwinggranulated.com^", "||e5c4d8d221.com^", "||ebqfuphibj.com^", "||ejirytuw.xyz^", "||emotificc.top^", "||enthusiasmturnipflare.com^", "||f4674af89e.com^", "||f56e3ea35a4.com^", "||flagros2sii8fdbrh09.com^", "||fqbucxkfcya.com^", "||glfrjgeco.com^", "||joyfullysacrificeralph.com^", "||ledmophemp.com^", "||leopardaddictedenthusiastic.com^", "||milasktic.com^", "||ngudjtrdcfwwn.com^", "||noiselesscatching.com^", "||obstructlawn.com^", "||openmindedisabella.com^", "||pluralbreakpractice7.live^", "||rdrceting.com^", "||riwhedipsa.pro^", "||rovalionsa.fun^", "||sdmwklnd.com^", "||sequestrassent.xyz^", "||tdsjsext3.life^", "||toybahyn.com^", "||tureabstra.fun^", "||viral481.com^", "||whudiphezy.pro^", "||ym-a.cc^", "||ztexhfznxvpr.com^", "||vivaclix.com^$third-party", "||d37abonb6ucrhx.cloudfront.net^", "||dita6jhhqwoiz.cloudfront.net^", "||girlsofdesire.org/ginna/cheers/$script", "@@||amazon-adsystem.com/aax2/apstag.js$domain=accuweather.com|blastingnews.com|exomashomepage.com|familyhandyman.com|foxbusiness.com|foxnews.com|go.cnn.com|history.com|keloland.com|radio.com|rd.com|thehealthy.com|webmd.com|wkrn.com|wlns.com|wvnstv.com", "@@||tpdads.com/configs/bigleaguepolitics.js$script,domain=bigleaguepolitics.com", "@@||tpdads.com/tag.min.js$script,domain=bigleaguepolitics.com", "###ads-pagetop", "##.GeminiNativeAd", "##.ad-container-wrapper", "##.ads-label-inverse", "##.ads.rectangle160", "##.ads.rectangle300", "##.ads.skyscraper160", "##.advertisement-area", "##.google-ads-bottom", "##.pre-article-ad", "##.sticky-bottom-ad", "##a[href^=\"https://affiliate.geekbuying.com/gkbaffiliate.php?\"]", "##a[href^=\"https://ismlks.com/\"]", "gotoeat.maff.go.jp,selectparkhomes.com#@#.footer_ad", "magnet.so###AD", "techcentral.ie,versus.com##.topBanner", "versus.com##div[class^=\"LegendSingle__show\"]", "amazon.com##span[class*=\"template=VIDEO_SINGLE_PRODUCT\"]", "xhamster.com,xhamster.one,xhamster2.com##.wiz-spb", "xhamster.com,xhamster.one,xhamster2.com##[class^=\"xplayer-banner\"]", "alrincon.com,thenipslip.com,wetpussygames.com##canvas"],
    "removed": ["/overture.$script,stylesheet,domain=~overture.doremus.org|~overture.london", "||girlsofdesire.org/php/gofd_bl/", "@@||amazon-adsystem.com/aax2/apstag.js$domain=accuweather.com|blastingnews.com|exomashomepage.com|foxbusiness.com|foxnews.com|go.cnn.com|history.com|keloland.com|radio.com|webmd.com|wkrn.com|wlns.com|wvnstv.com", "selectparkhomes.com#@#.footer_ad", "techcentral.ie##.topBanner", "xhamster.com,xhamster.one##[class^=\"xplayer-banner\"]", "alrincon.com,thenipslip.com##canvas"]
}