{
    "added": ["||videostats.kakao.com^", "||collector.xhamster*.*^", "||copyhomework.com^", "||coursecopy.com^", "||quiztoolbox.com^", "||quizlookup.com^", "||studyeffect.com^", "||testbooksolutions.com^"],
    "removed": ["||scappoosebirds.com^$3p", "||bugsnag.com^$3p", "||sentry.io^$3p,domain=grofers.com"]
}