{
    "added": ["*$3p,script,frame,denyallow=vjs.zencdn.net|voe-network.net|cdnjs.cloudflare.com|hcaptcha.com|recaptcha.net|googleapis.com|sharethis.com|fastly.net,domain=voe.sx", "*$3p,script,denyallow=wp.com|hcaptcha.com,domain=apkmaza.net", "*$script,3p,denyallow=addtoany.com,domain=hdmovieshubz.*", "||onsafelink.com^$badfilter", "||onsafelink.com^$script,3p", "||shorttey.org/sw.js$script,1p", "*$script,3p,denyallow=cloudflare.com|google.com|gstatic.com|recaptcha.net,domain=afly.pro", "*$script,3p,denyallow=google.com|gstatic.com|recaptcha.net,domain=lite-link.com", "@@||8tm.net/stylesheets/$css,1p", "@@||lefturl.com^$ghide", "@@||cdnjs.cloudflare.com/ajax/libs/fuckadblock^*/fuckadblock.min.js$script,domain=joinfaucet.com", "@@||toplevelfaucet.website^$ghide", "@@||toplevelfaucet.website/ltc/libs/advertisement.js^$1p,script", "||ejirytuw.xyz^", "||ytymetuw.xyz^", "@@||multicoinads.com^$ghide", "*$xhr,redirect-rule=nooptext,domain=muynegociosyeconomia.es", "*$frame,denyallow=google.com,domain=ashort1a.xyz", "*$script,3p,denyallow=cloudflare.com|chatbro.com|google.com|gstatic.com|recaptcha.net,domain=ashort1a.xyz", "||ashort1a.xyz/sw.js$script,1p", "*$frame,denyallow=google.com,domain=earncoin.site", "*$script,3p,denyallow=cloudflare.com|google.com|gstatic.com|recaptcha.net,domain=earncoin.site", "*$script,3p,denyallow=cloudflare.com|google.com|gstatic.com|recaptcha.net,domain=2shrt.com", "desktophut.com##+js(acis, document.getElementById, .style)", "blademaster666.com,fanproj.net,hot2k.com,luchoedu.org,lupaste.com,pornovenezolano.com.ve,romnation.net,solarmovies.co,venezporn.com##+js(aopr, TID)", "dropgalaxy.*###operadata + br + [href][target=\"_blank\"]", "freenote.biz##+js(nosiif, visibility, 1000)", "pornomoll.*##+js(nostif, innerText, 2000)", "pornomoll.*##+js(aeld, , _blank)", "voe.sx##+js(acis, String.fromCharCode, btoa)", "apkmaza.net##+js(aopw, ai_front)", "avimobilemovies.net,hackiee.mobi##+js(nowebrtc)", "avimobilemovies.net,hackiee.mobi##+js(nowoif)", "avimobilemovies.net##+js(set-constant, Object.defineProperty, noopFunc)", "avimobilemovies.net##^script:has-text(Object.defineProperty)", "avimobilemovies.net##^script:has-text(JSON.parse)", "partyhomedecor.com,teknomuda.com##+js(acis, addEventListener, google_ad_client)", "partyhomedecor.com,teknomuda.com##+js(nano-sib, timer, 1500)", "partyhomedecor.com,teknomuda.com##.box-main > p", "shorttey.org##+js(set, canRunAds, true)", "shorttey.org##.short", "shorttey.org###link-view > center > [href]", "fedaro.me##.box-main > .row", "afly.pro##+js(set, blurred, false)", "videohelp.com##div[style=\"text-align:center;\"] > div[style^=\"width:100%;max-width:970px;height:\"][style$=\"px;margin-left: auto ; margin-right: auto ;\"]", "8tm.net##+js(nosiif, visibility, 1000)", "8tm.net##+js(acis, addEventListener, google_ad_client)", "absolutesmmpanel.com,myhiddentech.com,thetechywizard.com##+js(nano-sib, timer, 1500)", "absolutesmmpanel.com,myhiddentech.com,thetechywizard.com##+js(set, blurred, false)", "absolutesmmpanel.com,myhiddentech.com,thetechywizard.com###wpsafe-snp:style(display: block !important;)", "absolutesmmpanel.com,myhiddentech.com,thetechywizard.com##.wmg-vb-container > div, p > span, h3, h2, h4, .custom-links", "tawiia.com##+js(aopr, app_vars.force_disable_adblock)", "tawiia.com##+js(set, blurred, false)", "tawiia.com##.banner", "myhackingworld.com##+js(nostif, mdp)", "lefturl.com##+js(acis, String.fromCharCode, btoa)", "lefturl.com##.ads", "vipr.im##+js(acis, document.addEventListener, initBCPopunder)", "droplink.co##+js(aopr, app_vars.force_disable_adblock)", "droplink.co##+js(set, blurred, false)", "yoshare.net##+js(nano-sib, timer, 1500)", "yoshare.net##[id^=\"yoshare\\.\"]", "yoshare.net##.close_ub-sticky-addesk", "toplevelfaucet.website##+js(aopr, adBlockNotDetected)", "toplevelfaucet.website##+js(aopr, disableButtonTimer)", "toplevelfaucet.website##[class^=bmadblock]", "toplevelfaucet.website##[href^=\"//mellowads.com\"]", "toplevelfaucet.website##iframe[src*=\"mellowads.com\"]", "afasiaarchzine.com##+js(nosiif, visibility, 1000)", "afasiaarchzine.com##.afasia_sidebar_ad_group", "remiz.co.kr##+js(acis, addEventListener, google_ad_client)", "hidefninja.com##+js(aopr, adBlockDetected)", "cyberleninka.ru##+js(norafif, getElementById)", "egao.in##+js(nano-sib, , 1500)", "egao.in##+js(ra, target, #SafelinkGenerate)", "recipestutorials.com##+js(aopr, app_vars.force_disable_adblock)", "recipestutorials.com##+js(set, blurred, false)", "recipestutorials.com##.banner", "hubdrive.xyz##+js(nowoif)", "hubdrive.xyz##+js(acis, Math.imul)", "exbulletin.com##+js(aopr, ai_front)", "hindisub.com##+js(nofab)", "15min.lt##+js(nostif, insertBefore)", "multicoinads.com##.ads", "br0wsers.com##+js(acis, document.getElementsByClassName, offsetParent)", "br0wsers.com###show_ag:style(display:block !important)", "ashort1a.xyz##+js(acis, document.createElement, adblock)", "ashort1a.xyz##+js(aopr, adBlockDetected)", "ashort1a.xyz##+js(aopr, app_vars.force_disable_adblock)", "ashort1a.xyz##+js(aopr, open)", "ashort1a.xyz##+js(aopw, _pop)", "ashort1a.xyz##+js(nowebrtc)", "ashort1a.xyz##+js(set, blurred, false)", "ashort1a.xyz##.banner", "earncoin.site##+js(acis, Math, btoa)", "earncoin.site##+js(aopr, app_vars.force_disable_adblock)", "earncoin.site##+js(aopw, _pop)", "earncoin.site##+js(set, blurred, false)", "earncoin.site##.banner", "earncoin.site##.content", "2shrt.com##+js(aopr, app_vars.force_disable_adblock)", "2shrt.com##+js(aopw, _pop)", "2shrt.com##+js(set, blurred, false)", "2shrt.com###ad"],
    "removed": ["||ptairtug.net^", "||tathitch.net^", "@@||paste.asia^$ghide", "||timeruniversalreligious.com^", "||gqtffirr.com^", "||mgsqbazssiq.com^", "||agrarianeruption.com^", "||mothhatekick.com^", "||hrsstrokecocoon.com^", "*$3p,script,frame,denyallow=google.com|gstatic.com|recaptcha.net|hcaptcha.com,domain=bolssc.com", "||pawheatyous.com^", "*$3p,script,frame,denyallow=vjs.zencdn.net|voe-network.net|cdnjs.cloudflare.com|hcaptcha.com|recaptcha.net|googleapis.com,domain=voe.sx", "*$3p,script,domain=apkmaza.net", "*$script,3p,denyallow=fastly.net|fastlylb.net|jquery.com|hwcdn.net|hcaptcha.com|recaptcha.net|cloudflare.com|cloudflare.net|google.com|googleapis.com|gstatic.com,domain=wi.to", "*$script,3p,denyallow=addtoany.com,domain=hdmovieshubz.club", "||bcfabscdt.com^", "||bruvwmrxudd.com^", "||lutcdiimmeze.com^", "||l8ea1nesmb0e.com^", "||ttgmjfgldgv9ed10.com^", "||noonraptnite.com^", "||agogdebitape.com^", "||xiqgqftva.com^", "||dlfclcey.com^", "||jutyledu.pro^", "||shojovuptu.pro^", "||pushebrod.com^", "||sankaudacityrefine.com^", "||phooreew.net^", "||identifyluckyexactly.com^", "||actressact.com^", "||leftenvoy.com^", "||getpdaiddaily.com^", "||rompuwit.net^", "||denetsuk.com^", "||jomtingi.net^", "||cavewaxmalt.com^", "||truernewlywait.com^", "||mangelobsolden.cam^", "||aidbaronice.casa^", "||mpnjaifkchgw.com^", "||nellads.com^", "blademaster666.com,desktophut.com,fanproj.net,hot2k.com,luchoedu.org,lupaste.com,pornovenezolano.com.ve,romnation.net,solarmovies.co,venezporn.com##+js(aopr, TID)", "pornomoll.net##+js(nostif, innerText, 2000)", "pornomoll.net##+js(aeld, , _blank)", "exee.io##+js(aeld, , _0x)", "bolssc.com##+js(acis, Math, XMLHttpRequest)", "bolssc.com##+js(aopr, app_vars.force_disable_adblock)", "wadigi.xyz##+js(nosiif, visibility, 1000)", "avimobilemovies.net,hackiee.mobi##+js(aopr, btoa)"]
}