{
    "added": ["||a8a8altrk.com^$3p", "||banners.payserve.com^$3p", "||data8a8altrk.com^$3p", "||fast-redirecting.com^$3p", "||honorablehall.com^$3p", "||kameleoon.com^$3p", "||locked4.com^$3p", "||ox1.shopcool.com.tw^$3p", "||targeting.api.drift.com^$3p", "||tracker.cdnbye.com^$3p", "||traffic-redirecting.com^$3p", "||trk.bee-data.com^$3p", "||unless.com^$3p", "||vcommission.com^$3p", "||videostats.kakao.com^$3p", "||vwo.com^$3p", "||web-redirecting.com^$3p"],
    "removed": ["||ad.httpool.com^$3p", "||adsmarket.com^$3p", "||e-bannerx.com^$3p", "||payserve.com^$3p", "||rankchamp.de^$3p"]
}