{
    "added": ["@@||chaturbate.com/*embed$frame,domain=cammelhub.com", "@@||imasdk.googleapis.com/js/sdkloader/ima3.js$domain=netzwelt.de", "@@||akamaihd.net/ip/js/ipdvdc/ipdvdc.min.js$script,domain=tvnow.*", "@@||googletagmanager.com/gtm.js$script,domain=tvnow.*", "||bde4.cc^$csp=script-src 'self' * 'unsafe-inline',badfilter", "@@||plugins.matomo.org/*/images/*$image,1p", "uktvplay.uktv.co.uk##.video-overlay", "uktvplay.uktv.co.uk##.vjs-text-track-display", "uktvplay.uktv.co.uk##.vjs-ad-control-bar.vjs-control-bar"],
    "removed": ["@@||cdn.tsyndicate.com/sdk/*/n.js$script,domain=hpjav.tv", "@@||chaturbate.com/*embed$frame", "@@||bilder-a.akamaihd.net/ip/js/ipdvdc/ipdvdc.min.js$script,domain=tvnow.de", "@@||googletagmanager.com/gtm.js$script,domain=tvnow.de", "@@||brsrvr.com^$xhr,domain=dollargeneral.com"]
}