{
    "added": ["@@||plugins.matomo.org/*/images/*$image,1p", "uktvplay.uktv.co.uk##.video-overlay", "uktvplay.uktv.co.uk##.vjs-text-track-display", "uktvplay.uktv.co.uk##.vjs-ad-control-bar.vjs-control-bar"],
    "removed": []
}