{
    "added": ["/\\.(club|com|info|online)\\/[a-zA-Z0-9\\+\\/]{64,}/$image,ping,third-party,domain=ay.gy|filesupload.org|filmeonline.biz|gamecopyworld.click|onmovies.to|opensubtitles.org|picocurl.com|replaymod.com|vodlocker.to|watchvideo.us", "||airairgu.com^", "||arautsod.com^", "||areelektrosstor.com^", "||arshelmeton.com^", "||aumaupoy.net^", "||azaipsee.com^", "||betemolgar.com^", "||bludwan.com^", "||boacheeb.com^", "||byfoongusor.com^", "||daugloon.net^", "||denetsuk.com^", "||doaipomer.com^", "||forarchenchan.com^", "||forthfinge.fun^", "||jomtingi.net^", "||lukpush.com^", "||mothima.com^", "||niubixxx.com^", "||offalakazaman.com^", "||offmachopor.com^", "||onraltstor.com^", "||opclauncheran.com^", "||rompuwit.net^", "||rouinfernapean.com^", "||tozoruaon.com^", "||tz301.xyz^", "$csp=worker-src 'none',domain=123moviesgo.nl|300mbfilms.co|akvideo.stream|alltube.pl|alltube.tv|animeteatr.ru|annuaire-bleu.net|arnaques-internet.info|atk-exotics.com|atkebony.com|bamekoohrang.ir|bigspeeds.com|bmovies123.me|centrum-dramy.pl|chemikino.ru|clipwatching.com|coinfaucet.eu|cracklists.com|crictime.com|crictime.is|crimedocumentary.com|deltabit.co|descargas2020.com|domnuleprimar.ro|dragonballzpolo.blogspot.com|eduardolegatti.blogspot.com|emuleed2k.com|extratorrent.si|fileone.tv|filmovix.com|filmovix.net|filmovix.org|firstone.tv|firstonetv.eu|firstonetv.live|flashx.net|flashx.pw|flashx.tv|fmoviesgo.me|full-mp3.com|funtik.tv|genashowalter.com|gomovie123.me|hdvid.fun|hdvid.tv|hentai-online.pl|hospital.plus|ianimes.co|ianimes.org|ianimes.top|indiaproxydl.org|javbros.com|lewd.ninja|luckybitco.in|mobology.ir|movie4k.is|nahnoji.cz|neurozinzin.com|novator.az|novoscrb.ru|ukpass.co|openload.cc|ovid.tv|ovid.xyz|pebx.pl|peliculas24.me|pelisplus.online|pezeshk.us|potomy.ru|powvideo.net|protect-link.biz|salon.com|seriesenlinea.net|severita-service.ru|shush.se|sickrage.ca|skytorrents.me|sorteosrd.com|studio100.it|szukajka.tv|tapemovie.com|tarntercum.ru|theappguruz.com|thepiratebay.vip|onion.pet|onion.ly|hdvid.online|thepiratebay.cr|thepiratebay.org|thepiratebay.se.net|thevideo.me|tomadivx.tv|torrentrapid.com|tubetitties.com|unblocked2.vip|unblocked.app|unblocked.gdn|unblocked.is|unblocked.lc|unblocked.vet|uptobox.com|uptostream.com|vidoza.co|vidoza.net|vidstodo.me|vidto.se|vidtodo.com|vidtoro.com|vidop.icu|vidup.io|void.cat|wallpoper.com|wearesaudis.net|yazilir.com", "$websocket,domain=123moviesgo.nl|123movieshub.asia|123movieshub.cx|123telugu.com|300mbfilms.co|7tors.com|adfreetv.ch|akvideo.stream|alltube.pl|annuaire-bleu.net|arnaques-internet.info|bamekoohrang.ir|bigspeeds.com|biter.tv|bmovie123.me|bmoviego.me|bmovies123.me|btstors.com|bypassed.in|byter.tv|catrumahminimalis.me|ceesty.com|centrum-dramy.pl|chemikino.ru|cinemafacil.com|clipwatching.com|clkme.me|clkmein.com|cllkme.com|cmovieshd.nl|coinhub.win|coinminingonline.com|corneey.com|cracklists.com|crimedocumentary.com|datpiff.com|ddmix.net|dekoder.ws|deltabit.co|descargas2020.com|destyy.com|djs.sk|downlink.top|dp-stream.com|dragonballzpolo.blogspot.com|eduardolegatti.blogspot.com|extratorrent.si|fbmovies.org|festyy.com|filmai.ws|filmstreamvf.com|filmstreamvk.me|firstone.tv|firstonetv.eu|firstonetv.live|flashx.net|flashx.pw|fmoviesgo.me|full-mp3.com|game-of-thrones-hd-streaming.com|gestyy.com|gomovie123.me|gomovies123.me|hdyayinmac1.com|hentai-online.pl|hospital.plus|hq-porns.com|hqq.tv|hqq.watch|ianimes.co|ianimes.org|ianimes.top|idope.tv|ifp.re|immunicity.st|ispunlock.top|ispunlock.xyz|ithepiratebay.com|japscan.cc|japscan.co|japscan.com|japscan.se|japscan.to|je-ddl.com|jeddl.info|jkanime.net|kapuso.be|kinogo.cc|kinogo.club|kinohabr.net|kinokrad.co|kinoprofi.org|kinotochka.club|kinotochka.net|lewd.ninja|logovo.net|love-drama.pl|luckybitco.in|macupload.net|mladipodnikatelia.sk|mobology.ir|monero-miner.com|movie4k.is|movies123.ac|myvidaanime.com|nahnoji.cz|netiap.com|neurozinzin.com|nod-key.su|onion.ly|onion.pet|onvid.pro|onvid.pw|onvid.site|onvid.space|openload.cc|openload.fun|ovid.icu|ovid.live|ovid.pro|ovid.pw|ovid.site|ovid.space|ovid.world|papstream.cc|papstream.co|papstream.com|papstream.info|papstream.net|papstream.xyz|pblv-plusbellelavie.fr|pebx.pl|peliculas24.me|petit-fichier.fr|pfiramz.biz|pframe.eu|pinoyrewind.info|piratebayblocked.com|plink.re|potomy.ru|prfr.re|prifr.eu|primewire.ag|primewire.li|protect-iframe.com|prox3.info|reactor.cc|rednubes.de|salon.com|seventorrents.cc|severita-service.ru|sh.st|shorte.st|shrink-service.it|sickrage.ca|skiip.me|skipp.io|skyback.ru|skytorrents.co|skytorrents.me|sleeptimer.org|sorteosrd.com|stream247.me|streambeam.io|streamplay.me|swatchseries.to|szukajka.tv|tainies.online|tarntercum.ru|thepiratebay.cr|thepiratebay.vip|thevideo.ch|thevideo.io|thevideo.us|tpbay.xyz|tpbprox.com|tubetitties.com|tugaanimado.net|ukpass.co|unblockall.org|unblocked.app|unblocked.bid|unblocked.gdn|unblocked.is|unblocked.lc|unblocked.ms|unblocked.st|unblocked.vet|unblocked.wtf|unblocked2.vip|unblocker.cc|unblockproject.icu|unblockproject.info|unblockthe.net|vev.io|vev.red|vidbom.com|videowood.tv|vidfile.net|vidhd.host|vidhd.online|vidhd.pro|vidhd.site|vidhd.space|vidhd.world|vido.fun|vidop.icu|vidoza.co|vidshare.tv|vidstodo.me|vidto.me|vidto.se|vidup.io|vidup.tv|vidwatch3.me|viid.me|void.cat|wallpoper.com|watch-free.co|watchfreemovies.tv|watchvideo.us|wiid.me|wwtors.com|xmovies8.nl|xvideosharing.com|ya3ale.com|yazilir.com|zenexplayer.com|zona.plus", "$script,third-party,domain=1377x.to|1anim.com|1fichier.com|1me.club|247tpb.club|2ddl.vg|2shrink.com|4anime.to|4k-stream.net|7-up.net|9divx.org|9xbuddy.app|9xbuddy.com|9xbuddy.org|9xlinks.net|9xupload.me|9xupload.xyz|activetect.net|adf.ly|adhy.pe|adkami.com|adshort.co|adshort.im|adshort.me|adshr.ink|adshrinks.com|adultvideoz.net|agence-webside.fr|ah.pe|ahlamtv.com|allmyvideos.net|allvid.ch|allvid.co|ally.sh|american-dad-streaming.com|anavids.com|android-zone.org|anime-gate.com|anime-hunter.com|anime-loads.org|anime-vf.fr|animecomplet.net|animedigitalnetwork.fr|animekaizoku.com|animemangaddl.com|animes-mangas-ddl.net|anitube.cz|anitubebr.com|annuaire-telechargement.com|annuaire-telechargement.net|apkmirrorfull.com|arabramadan.com|arabseed.co|arabseed.com|arabseed.tv|atabencot.net|atomcurve.com|atominik.com|auto-login-xxx.com|avametrie.fr|awanpc.me|ay.gy|ayefiles.com|babblecase.com|babystreaming.com|bayboat.link|bdcraft.net|bdupload.asia|bdupload.info|bea247.in|better-call-saul-streaming.com|bidzen.co|bigvoy.com|biter.tv|bitigee.com|bluenik.com|blueunblocked.club|bonstreams.net|brightvar.bid|briskgram.net|buzzmonclick.com|bypassed.in|bypassed.zone|byter.tv|cam4.com|cam4.fr|cartoonwire.to|casualient.com|cestpasbien.pro|channelstream.club|chrt.pw|cinebo.net|cineiz.co|cineiz.io|cineiz.org|cinemavf.net|cinemay.com|cinemay.ws|clearload.bid|clicknupload.co|clicknupload.link|clicksfly.com|cloudvideo.tv|cloudy.ec|cmovies.la|cocostreaming.com|coginator.com|cogismith.com|coinmarketcap.com|convertinmp4.com|convertisseur-youtube-mp3.net|cpabien.co|cpabien.link|cpabien.ws|cpasbien.ph|cpasbien.reviews|cpasbien.tf|cpasbien.vg|cpasbien.wf|cpasbien0.com|cpasbien0.net|cpasbien9.net|cpasbiens-netflix.com|cpasbiens-streaming.com|cpasbiens.net|cpasbiens.to|cpasmal.info|cpmlink.net|cracksurl.com|crichd.com|crichd.info|crichd.to|crichd.xyz|d0stream.com|dailysport.pw|dailyuploads.net|datoporn.co|datpiff.com|dausel.co|dbs-streaming.com|ddl-island.co|ddl-island.org|ddl-island.su|ddl.to|ddlfr.org|ddlfr.pw|ddownload.com|desiupload.in|despair-paradise.com|direct-torrents.com|discordbots.org|dl-protect.top|dl-protect1.com|dlapk4all.com|down-paradise.com|downlink.top|downloadhub.cc|downloadhub.lol|downloadhub.trade|downloadhub.wiki|dpfilmz.com|dpstreaming.to|dramasjc.com|dz4link.com|dz4link1.com|dz4link2.xyz|easyload.io|ebookdz.com|ed-protect.org|elil.cc|elitegol.live|elitegol.me|embedezcast.com|embedscr.com|embedscr.to|emule-island.co|emule-island.org|emule-island.ru|emuleed2k.com|enstreaming.info|enstreaming.org|enstreaming.tv|enstreaming.ws|eplstream.xyz|era.ac|espn-live.stream|ettv.to|ettvdl.com|europixhd.com|europixhd.net|exe.io|extramovies.casa|extratorrent.cd|extratorrent.si|extreme-d0wn.com|extreme-d0wn.net|extreme-down.club|extreme-down.in|extreme-down.ninja|extreme-down.one|extreme-down.pro|extreme-down.video|extreme-down.xyz|extreme-download.cc|extreme-download.co|extreme-download.ninja|extreme-download.xyz|ezie.cc|fapdig.com|fc.lc|fcine.tv|feurl.com|file-up.org|file-upload.com|file-upload.net|filerio.in|filescdn.com|filescdn.net|film-streamingp.com|film-streamingvk.com|filmcomplet.biz|filmcomplet.la|filmcomplet.tv|filmcomplet.vip|filmenfr.com|filmesonlinegratis.com|filmpornofrancais.fr|films-france.info|films-france.net|films-france.org|filmstoon.cam|filmstoon.pro|filmstoon.pw|filmstoon.xyz|filmstreaming.buzz|filmstreaming1.la|filmstreaming1.top|filmstreaming1vf.co|filmstreamingvk.co|filmstreamvf.com|filmstreamvk.me|filmstreamz.net|filmsvostfr.cc|filmsvostfr.io|filmsvostfr.ws|filmsvostfr.xyz|filmtelecharger.net|filmz.info|filmz.ws|filmzenstream.com|filmzenstream.to|flashx.net|flashx.pw|flowyourvideo.com|flystream.fr|fmovies.taxi|fmovies.to|fmovies.wtf|force-download.com|force-download.es|force-download.fr|force-download.net|foumovies.net|fr-streaming.com|free-telechargement.co|free-telechargement.org|free-telechargements.com|free-telecharger.com|free-telecharger.org|freedream.org|french-stream.eu|french-stream.work|frenchstreaming.fr|frstreaming.biz|fs-stream.com|fullanimefr.com|fullmoviz.org|fullsharez.com|fullstream.su|fux0r.fun|fux0r.fyi|fux0r.icu|fux0r.ooo|fux0r.top|g5u.pw|gamecopyworld.click|gamecopyworld.eu|gcloud.live|gdriveplayer.me|gdriveplayer.us|geneafrance.com|getlink.pro|getsl.me|getsurl.com|gktorrent.biz|gktorrent.bz|gktorrent.co|gktorrent.io|gktorrent.net|gktorrent.pw|gktorrent.tv|gledajonline.net|gloyah.net|gnula.nu|gogoanimes.tv|gomostream.com|gomovies.guru|govid.me|gslink.co|gsurl.in|gsurl.me|guitare-luthier.fr|gum-gum-stream.fr|gum-gum-stream.tv|gum-gum-streaming.co|gum-gum-streaming.com|gum-gum-streaming.tv|gurl.ly|h-l.icu|haloani.ru|hd-stream.fr|hdeuropix.com|hdeuropix.io|hdpopcorns.me|hds-stream.com|hds-stream.pro|hds-streaming.com|hds-streaming.net|hds-streaming.org|hds-streamingvf.com|hds-streamingvf.net|hdss.to|hdsto.me|hdvid.fun|hdvid.online|hdvid.tv|hentai-paradise.fr|hinata-online-community.fr|hindipix.in|holavid.com|hydrax.net|ianimes.co|ianimes.org|ianimes.top|ifp.re|ikwilthepiratebaytpb.rocks|illimitestreaming.net|immunicity.st|indiabea.com|indishare.me|insta-stories.com|invictus.ws|ispunlock.top|ispunlock.xyz|itdmusic.com|itdmusic.in|ithepiratebay.com|j.gs|janjua.tv|japscan.cc|japscan.co|japscan.com|japscan.se|japscan.to|jawcloud.co|je-ddl.com|jeddl.info|jetanimes.co|jetload.net|jeuxflash.com|k-streaming.cc|k-streaming.ch|k-streaming.com|k-vid.co|k-vid.net|kaitect.com|kializer.com|kibuilder.com|kickassanime.rs|kimechanic.com|kingdomsharing.xyz|kinogo.cc|kinotochka.club|kshows.to|kuma-film.com|kvid.org|lamule.eu|lapremse.fr|larati.net|le-streaming.com|lecpasbien.com|lemondedekevin.fr|lemonlemag.fr|lepetitlecteur.fr|libertyvf.co|libertyvf.com|libertyvf.net|libertyvf.tv|liens-telechargement.com|likeur.org|likn.xyz|ling.online|link.tl|linkcaptcha.net|lirescan.me|lirescan.net|litepaste.com|loadsubs.net|ls-streaming.com|ma-famille-dabord-streaming.com|macupload.net|mamega.com|manga-vf.fr|mangas-anime.com|mangas-vostfr.pro|matures.porn|mavanimes.co|mavplay.com|mcloud.to|mediumarticles.com|mega-telechargements.com|memoireetvie.com|microify.com|mirrorace.com|mmoity.com|moshahda.net|moshahda.online|movcloud.net|movie-series.net|movie2konline.net|movies123.ac|moviescounter.io|mp3-red.org|mp3clan.com|mp3clan.it|mp3clan.to|mp3clan.us|mp3clan.ws|mp3converter.net|mp3guild.com|mp3guild.net|mp3red.cc|mp3red.me|mstream.best|mstream.fun|mstream.icu|mstream.press|mstream.rocks|mstream.space|mstream.website|mstream.xyz|mvs4u.tv|mystream.io|mystream.to|myvidaanime.com|natationpourtous.com|neko-san.fr|notube.net|nowvideo.club|official-film-illimite.net|official-film-illimite.to|official-film-illimite.ws|offmp3.app|offmp3.com|oload.party|onceddl.org|oneload.site|oneload.xyz|onion.ly|onion.pet|onlystream.tv|onvid.pro|onvid.pw|onvid.site|onvid.space|onvid.website|oomoviz.com|openload.cc|openload.fun|openloadmovies.ac|openvideo.net|otakufr.com|otakufr.net|ouo.io|ouo.press|ourl.io|ovid.host|ovid.icu|ovid.live|ovid.online|ovid.pro|ovid.pw|ovid.site|ovid.space|ovid.tv|ovid.world|ovid.xyz|oxtorrent.cc|oxtorrent.co|oxtorrent.com|oxtorrent.me|oxtorrent.pw|p3g.tv|pandamovies.pw|papstream.cc|papstream.co|papstream.com|papstream.info|papstream.net|papstream.xyz|papy-streaming.org|papystreaming-film.com|papystreaming.com|papystreaming.net|peliculas24.me|pelispedia.co|pelispedia.site|pelispedia.stream|pelispedia.tv|pelispedia24.tv|pelisplus.online|pelisrex.com|pfiramz.biz|picmoza.com|picocurl.com|picons.eu|pintient.com|piratebayblocked.com|piratebayproxies.cc|piratebea.top|pirateprox.tel|planet-series.co|planet-series.world|planet-streaming.com|planet-streaming.net|planet-streaming1.com|planetevideos.xyz|plink.re|pornbraze.com|premiumserver.club|prettyfast.to|prfr.re|prifr.eu|primewire.ag|primewire.li|projectfreetv.ag|protect-iframe.com|protect-link.biz|protect-mylinks.com|protect-stream.com|prox3.info|proxtpb.art|proxy247.art|pstream.net|q.gs|quainator.com|quamiller.com|quedustreaming.com|queuecosm.bid|rapidvid.to|ratopi.com|ream.co|regarder-american-horror-story-streaming.com|regarder-arrow-streaming-gratuit.com|regarder-attaque-des-titans-streaming.com|regarder-black-mirror-streaming.com|regarder-breaking-bad-streaming.com|regarder-friends-streaming.com|regarder-game-of-thrones-streaming.com|regarder-grays-anatomy-streaming.com|regarder-his-dark-materials-streaming.com|regarder-la-casa-de-papel-streaming.com|regarder-le-bureau-des-legendes-streaming.com|regarder-les-100-streaming.com|regarder-malcolm-streaming.com|regarder-mr-robot-streaming.com|regarder-my-hero-academia-streaming.com|regarder-orange-is-the-new-black-streaming.com|regarder-peaky-blinders-streaming.xyz|regarder-prison-break-streaming.com|regarder-rick-et-morty-streaming-gratuit.com|regarder-see-streaming.com|regarder-south-park-streaming.com|regarder-the-mandalorian-streaming.com|regarder-the-walking-dead-streaming.com|regarder-the-witcher-streaming-gratuit.com|regarder-vikings-streaming.com|regarder-watchmen-streaming.com|regarder-westworld-streaming.com|rent2016.fr|replaymod.com|restorecosm.bid|revivelink.com|riffhold.com|robindesdroits.me|rockfile.co|rueduplanet.fr|sandup.co|sapixmedia.com|scan-vf.co|scan-vf.com|seasonvar.ru|security-links.com|sendspace.com|serialeonline.to|serie-en-streaming.co|serie-streaming-vf.tv|serie-streaming.watch|serie-streaminghd.com|serie-streaminghd.org|series-cravings.li|series.movie|seriestreamings.com|seriestreamings.org|sexu.com|shink.me|shon.xyz|short.pe|sillonsdeculture.fr|simizer.com|simpson-en-streaming.com|site-de-streaming.com|skamaker.com|skamason.com|skstream.biz|skstream.co|skstream.ws|skytorrents.lol|smoner.com|snowfiles.com|softmaroc.org|solarporn.net|sonyoutube.com|souqsky.net|south-park-streaming.biz|sportzonline.to|srt.am|stream-island.co|stream-island.org|stream-serie.cc|stream-vf.com|stream-zone.net|stream4free.live|stream4free.top|streamay.co|streamay.com|streambox.club|streamcdn.to|streamcomplet.vet|streamcomplet.vip|streamelite.net|streaminfr.com|streaming-films-hd.com|streaming-films.tv|streaming-planet.com|streaming-series.cx|streaming-vostfr.cc|streaming-vostfr.com|streaming-vostfr.net|streaming.re|streaminghd-serie.com|streamingk.com|streaminz.com|streamiz-films.com|streamiz-filmze.fr|streamiz-hd.xyz|streamiz-vk.fr|streamlive.to|streamtape.com|streamty.com|streamup.xyz|streamwire.net|streamzt.com|subfb.us|superitu.com|supervideo.tv|swatchseries.to|swiftviz.net|sznpaste.net|szs.pw|t9.pe|tamilyogi.cc|tazmovies.com|telechargementz.co|telechargementz.me|telechargementz.net|telecharger-ebook-gratuit.org|telerium.tv|tellerium.com|the-big-bang-theory-streaming.net|thehdvid.club|thehdvid.icu|thehdvid.online|thehdvid.pro|thehdvid.site|thehdvid.space|thehdvid.website|thehdvid.xyz|thepiratebay-proxylist.se|thepiratebay.vip|thevid.tv|thevideo.ch|thevideo.io|thevideo.me|thevideo.us|thevideobee.to|thevidhd.club|thevidhd.online|thevidhd.xyz|thouth.net|threadsphere.bid|tii.ai|time2watch.io|time2watch.top|tinyium.com|tirexo.com|tmearn.com|tntendirect.com|toncinema.online|top.gg|topeuropix.com|topeuropix.net|torlock.com|torlock.icu|torlock2.com|torrent09.uno|torrent9-torrent.com|torrent9.ac|torrent9.ai|torrent9.biz|torrent9.bz|torrent9.cat|torrent9.cc|torrent9.cz|torrent9.ec|torrent9.io|torrent9.is|torrent9.lol|torrent9.me|torrent9.nz|torrent9.ph|torrent9.pl|torrent9.so|torrent9.support|torrent9.sx|torrent9.to|tpbay.xyz|ugmovies.org|uii.io|uppom.live|uqload.com|vidbem.com|vidbm.com|vidcloud9.com|videobin.co|videospider.in|vidhd.net|vidhdr.com|vidia.tv|vidlo.us|vidlox.me|vidnode.net|vidshar.tv|vidspeed.net|voir-films-series.net|voir-films.cc|voir-stream.com|voirfilms.biz|voirfilms.club|voirfilms.com|voirfilms.film|voirfilms.link|voirfilms.mx|voirfilms.one|voirfilms.org|voirfilms.tv|voirfilms.ws|voirfilmshd.net|voirfilmshds.com|vostfree.com|vostfrserie.biz|vostfrserie.net|vudeo.net|waaw.tv|waaw1.tv|warez-serbia.com|watchnnow.com|watchseries.movie|wawacity.co|wawacity.ec|wawacity.ninja|wawacity.vip|wstream.to|wstreaming.net|xfilesharing.com|yalla-shoot.com|yts.mx|yts.ws|zone-annuaire.com|zone-annuaire.website|zone-films.stream|zone-telechargement.cool|zone-telechargement.dev|zone-telechargement.stream|zone-telechargement.ws|zone-telechargement1.life|zone-telechargements.com|zt-protect.com|zt-protect.net|zt-za.com|zustream.net", "$script,~third-party,domain=amairgil.cz|magdistribution.fr|mrsexe.com|sexandtrash.com|strip-webcam.com|superchataigne2017.fr|torrent9.top|torrent9.tv|torrent9.uno|torrent9.ws|torrentfunk.com|torrents9.cc|torrents9.org|torrents9.tv|touzai-sekai.fr|tpbprox.com|tpbproxydl.link|tpbtpb.xyz|trollvid.net|tusfiles.com|tusfiles.net|tvlogy.to|twineer.com|ukpass.co|ulinx.org|ultrastream.pro|unblockall.org|unblocked.app|unblocked.bid|unblocked.gdn|unblocked.is|unblocked.lc|unblocked.ms|unblocked.st|unblocked.wtf|unblocked2.fun|unblocked2.vip|unblockproject.icu|unblockproject.info|unblockthe.net|underclassblog.com|univers-animeiz.net|universanimeize.com|up-load.io|up07.me|up08.net|up09.com|upload4earn.org|uploadrar.com|uploads.to|uppit.com|urle.co|uskip.me|ver-peliculas.co|ver-peliculas.io|ver-pelis.me|vev.io|vev.red|viahold.com|vializer.com|vidbom.com|vidhd.host|vidhd.online|vidhd.pro|vidhd.site|vidhd.space|vidhd.world|vidlox.tv|vidon.club|vidon.xyz|vidop.icu|vidshort.net|vidsource.me|vidsrc.me|vidstodo.me|vidstream.kim|vidstream.top|vidto.me|vidto.se|vidtodo.com|vidtoro.com|vidup.io|vidup.tv|vipleague.cc|vipleague.me|vipleague.se|viva-stream.info|viva-stream.net|viwright.com|vkstreamingfilm.biz|vodlocker.to|voiranime.com|voirseries.co|vup.to|walking-dead-en-streaming.fr|walking-dead-streaming.fr|wallagain.cc|watchseriesmovie.net|webtv.ws|wlnk.ec|xterca.net|xvideosharing.com|xvidstage.com|yabuilder.com|yamechanic.com|yellowbay.one|yifyddl.com|yifymovies.tv|yoalizer.com|yobuilder.com|yoineer.com|yoitect.com|yourmod.cloud|youwatch-series.com|youwatchfilm.net|youzik.com|zipansion.com|zo.ee|zone-protect.com|zone-streaming.fr|zone-telechargement.to|zone-telechargement2.net|zone-telechargements.ws|zonestream.org|zony.tv|zteamfansub.net|zustream.com", "$subdocument,third-party,domain=123telugu.com|1ink.cc|1me.club|247tpb.club|2shrink.com|7-up.net|adhit.me|adhy.pe|adpop.me|adshort.co|adshort.im|adshort.me|adshr.ink|adshrinks.com|agence-webside.fr|ah.pe|akvideo.stream|akwam.net|al.ly|allmyvideos.net|alltube.tv|ally.sh|animemangaddl.com|animes-mangas-ddl.net|annuaire-telechargement.com|annuaire-telechargement.net|avametrie.fr|bayboat.link|bc.vc|bdupload.asia|bdupload.info|bea247.in|bit-url.com|blueunblocked.club|bypassed.in|bypassed.zone|ceesty.com|cestpasbien.pro|chrt.pw|clicknupload.co|clicksfly.com|clictune.com|clik.pw|clipwatching.com|clkme.me|clkmein.com|cllkme.com|cloudvideo.tv|convert2mp3.net|corneey.com|cpabien.co|cpabien.link|cpabien.ws|cpasbien.ph|cpasbien.reviews|cpasbien.tf|cpasbien.vg|cpasbien.wf|cpasbien0.com|cpasbien0.net|cpasbien9.net|cpasbiens-netflix.com|cpasbiens-streaming.com|cpasbiens.net|cpasbiens.to|cpasbienss.net|cpmlink.net|cut-link-earn.com|daclips.com|dailyuploads.net|dausel.co|destyy.com|dz4link.com|e-wok.tv|elil.cc|era.ac|extreme-d0wn.com|extreme-d0wn.net|extreme-down.club|extreme-down.in|extreme-down.ninja|extreme-down.one|extreme-down.pro|extreme-down.video|extreme-down.xyz|extreme-download.cc|extreme-download.co|extreme-download.ninja|extreme-download.xyz|ezie.cc|fas.li|festyy.com|file-up.org|filescdn.com|filescdn.net|filmtelecharger.net|flowyourvideo.com|free-telechargements.com|free-telecharger.com|free-telecharger.org|fux0r.fun|fux0r.fyi|fux0r.icu|fux0r.ooo|fux0r.top|g5u.pw|gestyy.com|getsurl.com|gktorrent.biz|gktorrent.bz|gktorrent.co|gktorrent.io|gktorrent.net|gktorrent.pw|gktorrent.tv|gocoo.co|gslink.co|gsurl.in|gsurl.me|guitare-luthier.fr|hdvid.fun|hdvid.online|hdvid.tv|ikwilthepiratebaytpb.rocks|immunicity.st|indiabea.com|ispunlock.top|ispunlock.xyz|ithepiratebay.com|japscan.cc|japscan.co|japscan.com|japscan.se|japscan.to|jawcloud.co|k-streaming.cc|k-streaming.ch|k-streaming.com|kvid.org|lapremse.fr|le-streaming.com|lecpasbien.com|lemondedekevin.fr|lemonlemag.fr|lepetitlecteur.fr|likn.xyz|ling.online|link.tl|linkbucks.com|lirescan.me|lirescan.net|loadvid.online|mcloud.to|mega-telechargements.com|mixdrop.co|mixdrop.to|mon-horoscope-du-jour.com|movcloud.net|mstream.best|mstream.fun|mstream.icu|mstream.press|mstream.rocks|mstream.space|mstream.website|mstream.xyz|multiup.eu|multiup.org|mylink1.biz|mystream.io|mystream.to|netiap.com|nowvideo.club|onion.ly|onion.pet|onvid.pro|onvid.pw|onvid.site|onvid.space|onvid.website|ouo.io|ouo.press|ovid.host|ovid.icu|ovid.live|ovid.online|ovid.pro|ovid.pw|ovid.site|ovid.space|ovid.tv|ovid.world|ovid.xyz|oxtorrent.cc|oxtorrent.co|oxtorrent.com|oxtorrent.me|oxtorrent.pw|piratebayblocked.com|piratebayproxies.cc|piratebea.top|pirateprox.tel|premiumserver.club|prox3.info|proxtpb.art|proxy247.art|pss.pw|rent2016.fr|revivelink.com|rueduplanet.fr|sa.ae|sandup.co|sexu.com|sh.st|shink.me|shon.xyz|short.pe|short2win.com|short2win.online|shorte.st|shrink-service.it|site-de-streaming.com|skiip.me|skipp.io|skytorrents.lol|so.gd|solarporn.net|souqsky.net|stream4free.live|stream4free.top|szs.pw|szukajka.tv|t9.pe|telerium.tv|tellerium.com|thehdvid.club|thehdvid.icu|thehdvid.online|thehdvid.pro|thehdvid.site|thehdvid.space|thehdvid.website|thehdvid.xyz|thepiratebay-proxylist.se|thepiratebay.vip|thevid.net|thevid.tv|thevideo.ch|thevideo.io|thevideo.me|thevideo.us|thevidhd.club|thevidhd.online|thevidhd.xyz|tmearn.com|torlock.com|torlock.icu|torlock2.com|torrent09.uno|torrent9-torrent.com|torrent9.ac|torrent9.ai|torrent9.biz|torrent9.bz|torrent9.cat|torrent9.cc|torrent9.cz|torrent9.ec|torrent9.io|torrent9.is|torrent9.lol|torrent9.me|torrent9.nz|torrent9.ph|torrent9.pl|torrent9.so|torrent9.support|torrent9.sx|torrent9.to|torrent9.top|uppom.live|uqload.com|vidcloud9.com|videobin.co|vidnode.net|vidshar.tv|vidshare.tv|vudeo.net|watchvideo.us|wawacity.co|wawacity.ec|wawacity.ninja|wawacity.vip|xfilesharing.com|zone-annuaire.com|zone-telechargement.stream|zt-za.com", "$subdocument,~third-party,domain=adsrt.me|amairgil.cz|completvf.com|magdistribution.fr|povvideo.net|povwideo.cc|povwideo.net|powvideo.net|short-url.link|sillonsdeculture.fr|streamp1ay.cc|streamplay.to|superchataigne2017.fr|torrent9.tv|torrent9.uno|torrent9.ws|torrentfunk.com|torrents9.cc|torrents9.org|torrents9.tv|tpbprox.com|tpbproxydl.link|tpbtpb.xyz|tusfiles.com|tusfiles.net|uii.io|ukpass.co|ulinx.org|unblockall.org|unblocked.app|unblocked.bid|unblocked.gdn|unblocked.is|unblocked.lc|unblocked.ms|unblocked.st|unblocked.wtf|unblocked2.fun|unblocked2.vip|unblockproject.icu|unblockproject.info|unblockthe.net|unblocktheship.org|upload4earn.org|uploadbyte.com|uploads.to|uppit.com|url4btc.co|urle.co|urlgone.com|uskip.me|vcstream.to|ver-peliculas.io|ver-pelis.me|vev.io|vev.red|vidbem.com|vidbm.com|vidcloud.co|vidhd.host|vidhd.online|vidhd.pro|vidhd.site|vidhd.space|vidhd.world|vidlox.me|vidlox.tv|vidon.club|vidon.xyz|vidop.icu|vidsrc.me|vidstodo.me|vidto.me|vidto.se|vidtodo.com|vidtoro.com|vidup.io|vidup.tv|viid.me|vup.to|wiid.me|ya3ale.com|yellowbay.one|zone-telechargement.to|zone-telechargement2.net|zone-telechargements.com|zone-telechargements.ws", "$third-party,xmlhttprequest,domain=1377x.to|1fichier.com|1me.club|247tpb.club|2shrink.com|4anime.to|4k-stream.net|7-up.net|9xbuddy.app|9xbuddy.com|9xbuddy.org|9xupload.me|9xupload.xyz|adhy.pe|adshort.co|adshort.im|adshort.me|adshr.ink|adshrinks.com|agence-webside.fr|ah.pe|ahlamtv.com|allvid.ch|allvid.co|anavids.com|animecomplet.net|animemangaddl.com|animes-mangas-ddl.net|annuaire-telechargement.com|annuaire-telechargement.net|arabramadan.com|arabseed.co|arabseed.com|arabseed.tv|avametrie.fr|bayboat.link|bdupload.asia|bdupload.info|bea247.in|biter.tv|blueunblocked.club|bypassed.in|bypassed.zone|byter.tv|cartoonwire.to|cestpasbien.pro|chrt.pw|cineiz.co|cineiz.io|cineiz.org|cinemay.ws|clicknupload.co|clicknupload.org|clicksfly.com|clik.pw|cloudvideo.tv|convertisseur-youtube-mp3.net|cpabien.co|cpabien.link|cpabien.ws|cpasbien.ph|cpasbien.reviews|cpasbien.tf|cpasbien.vg|cpasbien.wf|cpasbien0.com|cpasbien0.net|cpasbien9.net|cpasbiens-netflix.com|cpasbiens-streaming.com|cpasbiens.net|cpasbiens.to|cpasbienss.net|daftsex.com|dailyuploads.net|datpiff.com|ddl-island.co|ddl-island.org|ddl-island.su|ddlfr.org|ddlfr.pw|direct-torrents.com|dl-protect.top|dl-protect1.com|downloadhub.cc|downloadhub.lol|downloadhub.trade|downloadhub.wiki|dropapk.to|dz4link.com|dz4link1.com|dz4link2.xyz|ebookdz.com|ed-protect.org|embedezcast.com|emule-island.co|emule-island.org|emule-island.ru|era.ac|ettv.to|ettvdl.com|europixhd.com|europixhd.net|exe.io|extreme-d0wn.com|extreme-d0wn.net|extreme-down.club|extreme-down.in|extreme-down.ninja|extreme-down.one|extreme-down.pro|extreme-down.video|extreme-down.xyz|extreme-download.cc|extreme-download.co|extreme-download.ninja|extreme-download.xyz|ezie.cc|fc.lc|file-up.org|file-upload.com|filerio.in|filescdn.com|filescdn.net|filmesonlinegratis.com|filmstoon.cam|filmstoon.pro|filmstoon.pw|filmstoon.xyz|filmstreaming.buzz|filmstreaming1.la|filmstreaming1.top|filmstreaming1vf.co|filmstreamvf.com|filmstreamvk.me|filmstreamz.net|filmtelecharger.net|filmz.info|filmz.ws|filmzenstream.com|filmzenstream.to|flashx.net|flashx.pw|flowyourvideo.com|fmovies.taxi|fmovies.to|fmovies.wtf|force-download.com|force-download.es|force-download.fr|force-download.net|foumovies.net|free-telechargement.co|free-telechargement.org|free-telechargements.com|free-telecharger.com|free-telecharger.org|french-stream.eu|french-stream.work|fullanimefr.com|fux0r.fun|fux0r.fyi|fux0r.icu|fux0r.ooo|fux0r.top|g5u.pw|gcloud.live|getlink.pro|getsl.me|getsurl.com|gktorrent.biz|gktorrent.bz|gktorrent.co|gktorrent.io|gktorrent.net|gktorrent.pw|gktorrent.tv|gledajonline.net|gogoanimes.tv|govid.me|gslink.co|gsurl.in|gsurl.me|guitare-luthier.fr|gum-gum-stream.fr|gum-gum-stream.tv|gum-gum-streaming.co|gum-gum-streaming.com|gum-gum-streaming.tv|hd-stream.fr|hdeuropix.io|hds-streaming.org|hdss.to|hdsto.me|hdvid.fun|hdvid.online|hdvid.tv|hentai-paradise.fr|hindipix.in|holavid.com|ianimes.co|ianimes.org|ianimes.top|ifp.re|ikwilthepiratebaytpb.rocks|immunicity.st|indiabea.com|indishare.me|insta-stories.com|ispunlock.top|ispunlock.xyz|ithepiratebay.com|japscan.cc|japscan.co|japscan.com|japscan.se|japscan.to|jawcloud.co|jetanimes.co|jeuxflash.com|jheberg.net|k-streaming.cc|k-streaming.ch|k-streaming.com|k-vid.co|k-vid.net|kshows.to|kvid.org|lapremse.fr|le-streaming.com|lecpasbien.com|lemondedekevin.fr|lemonlemag.fr|lepetitlecteur.fr|libertyvf.co|libertyvf.com|libertyvf.net|libertyvf.tv|liens-telechargement.com|ling.online|lirescan.me|lirescan.net|ls-streaming.com|macupload.net|mavanimes.co|mediumarticles.com|mega-telechargements.com|mirrorace.com|movcloud.net|movies123.xyz|moviescounter.io|mp3-red.org|mp3red.cc|mp3red.me|mstream.best|mstream.fun|mstream.icu|mstream.press|mstream.rocks|mstream.space|mstream.website|mstream.xyz|mvs4u.tv|mystream.io|mystream.to|nowvideo.club|official-film-illimite.net|official-film-illimite.to|official-film-illimite.ws|offmp3.app|offmp3.com|onion.ly|onion.pet|onvid.pro|onvid.pw|onvid.site|onvid.space|onvid.website|openload.cc|openload.fun|otakufr.com|ouo.io|ouo.press|ovid.host|ovid.icu|ovid.live|ovid.online|ovid.pro|ovid.pw|ovid.site|ovid.space|ovid.tv|ovid.world|ovid.xyz|oxtorrent.cc|oxtorrent.co|oxtorrent.com|oxtorrent.me|oxtorrent.pw|papstream.cc|papstream.co|papstream.com|papstream.info|papstream.net|papstream.xyz|pelispedia.site|pelisplus.online|pfiramz.biz|piratebayblocked.com|piratebayproxies.cc|piratebea.top|pirateprox.tel|planet-streaming.com|planet-streaming.net|planet-streaming1.com|plink.re|premiumserver.club|prfr.re|prifr.eu|protect-iframe.com|protect-link.biz|protect-mylinks.com|protect-stream.com|prox3.info|proxtpb.art|proxy247.art|rent2016.fr|revivelink.com|rueduplanet.fr|sandup.co|security-links.com|sendspace.com|series.movie|short.pe|sibnet.ru|site-de-streaming.com|skytorrents.lol|smoner.com|snowfiles.com|sonyoutube.com|souqsky.net|stream-island.co|stream-island.org|stream4free.live|stream4free.top|streamay.co|streamelite.net|streaminfr.com|streaming-planet.com|streaming-vostfr.cc|streaming-vostfr.com|streaming-vostfr.net|streamingok.com|streamup.xyz|szs.pw|t9.pe|tazmovies.com|telerium.tv|thehdvid.club|thehdvid.icu|thehdvid.online|thehdvid.pro|thehdvid.site|thehdvid.space|thehdvid.website|thehdvid.xyz|thepiratebay-proxylist.se|thepiratebay.vip|thevideo.ch|thevideo.io|thevideo.me|thevideo.us|thevideobee.to|thevidhd.club|thevidhd.online|thevidhd.xyz|tirexo.com|tntendirect.com|toncinema.online|topeuropix.com|topeuropix.net|torlock.com|torlock.icu|torlock2.com|torrent09.uno|torrent9-torrent.com|torrent9.ac|torrent9.ai|torrent9.biz|torrent9.bz|torrent9.cat|torrent9.cc|torrent9.cz|torrent9.ec|torrent9.io|torrent9.is|torrent9.lol|torrent9.me|torrent9.nz|torrent9.ph|torrent9.pl|torrent9.so|torrent9.support|torrent9.sx|torrent9.to|torrent9.top|uppom.live|vidbem.com|vidbm.com|vidcloud9.com|videobin.co|vidlo.us|vidnode.net|vidshar.tv|vidshare.tv|voir-films.cc|voirfilms.biz|voirfilms.club|voirfilms.com|voirfilms.film|voirfilms.link|voirfilms.mx|voirfilms.one|voirfilms.org|voirfilms.tv|voirfilms.ws|voirfilmshd.net|vostfrserie.biz|vudeo.net|watchseries.movie|wawacity.co|wawacity.ec|wawacity.ninja|wawacity.vip|xfilesharing.com|yts.mx|yts.ws|zone-annuaire.com|zone-annuaire.website|zone-telechargement.cool|zone-telechargement.stream|zone-telechargement.ws|zt-protect.com|zt-protect.net|zt-za.com", "$xmlhttprequest,domain=adfreetv.ch|alltube.pl|alltube.tv|amairgil.cz|annoncedesexe.com|ayefiles.com|centrum-dramy.pl|collegehumor.com|ddmix.net|dekoder.ws|jeux-hentai.com|magdistribution.fr|nowvideo.club|sillonsdeculture.fr|sorteosrd.com|streambeam.io|superchataigne2017.fr|szukajka.tv|tainies.online|torrent9.tv|torrent9.uno|torrent9.ws|torrentfunk.com|torrents9.cc|torrents9.org|torrents9.tv|tpbprox.com|tpbproxydl.link|tpbtpb.xyz|tusfiles.com|tusfiles.net|uii.io|ukpass.co|ulinx.org|unblockall.org|unblocked.app|unblocked.bid|unblocked.gdn|unblocked.is|unblocked.lc|unblocked.ms|unblocked.st|unblocked.wtf|unblocked2.fun|unblocked2.vip|unblockproject.icu|unblockproject.info|unblockthe.net|universanimeize.com|up-load.io|up07.me|up08.net|up09.com|upload4earn.org|uploadbyte.com|uploads.to|uppit.com|uqload.com|urle.co|vev.io|vev.red|vidfile.net|vidhd.host|vidhd.online|vidhd.pro|vidhd.site|vidhd.space|vidhd.world|vidlox.me|vidlox.tv|vidon.club|vidon.xyz|vidop.icu|vidsrc.me|vidstodo.me|vidto.me|vidto.se|vidtodo.com|vidtoro.com|vidup.io|vidup.tv|viva-stream.info|viva-stream.net|voiranime.com|voirseries.co|vup.to|watchseriesmovie.net|wlnk.ec|yalla-shoot.com|yellowbay.one|youzik.com|zone-films.stream|zone-protect.com|zone-telechargement.to|zone-telechargement2.net|zone-telechargements.com|zone-telechargements.ws|zony.tv", "$stylesheet,third-party,domain=1fichier.com|247tpb.club|7-up.net|9xupload.me|9xupload.xyz|adshr.ink|adshrinks.com|ahlamtv.com|animecomplet.net|annuaire-telechargement.com|annuaire-telechargement.net|bayboat.link|bea247.in|blueunblocked.club|bypassed.in|bypassed.zone|chrt.pw|clicknupload.co|clik.pw|cloudvideo.tv|cloudy.ec|daclips.com|dailyuploads.net|dl-protect.top|dl-protect1.com|ed-protect.org|extreme-d0wn.com|extreme-d0wn.net|extreme-down.club|extreme-down.in|extreme-down.ninja|extreme-down.one|extreme-down.pro|extreme-down.video|extreme-down.xyz|extreme-download.cc|extreme-download.co|extreme-download.ninja|extreme-download.xyz|fcine.tv|file-up.org|file-upload.com|filescdn.com|filescdn.net|filmstreamvf.com|filmstreamvk.me|filmstreamz.net|filmtelecharger.net|fux0r.fun|fux0r.fyi|fux0r.icu|fux0r.ooo|fux0r.top|g5u.pw|getsl.me|getsurl.com|gnula.nu|gogoanimes.tv|gslink.co|gsurl.in|gsurl.me|hds-streaming.org|hdss.to|ifp.re|ikwilthepiratebaytpb.rocks|immunicity.st|indiabea.com|indishare.me|insta-stories.com|ispunlock.top|ispunlock.xyz|ithepiratebay.com|japscan.cc|japscan.co|japscan.com|japscan.se|japscan.to|jawcloud.co|jetanimes.co|k-vid.co|k-vid.net|kissanime.ru|kshows.to|libertyvf.co|libertyvf.com|libertyvf.net|libertyvf.tv|liens-telechargement.com|ling.online|linkcaptcha.net|ls-streaming.com|mavanimes.co|mediumarticles.com|mega-telechargements.com|mp3-red.org|mp3red.cc|mp3red.me|nowvideo.club|onion.ly|onion.pet|openload.cc|openload.fun|papstream.co|papstream.com|papstream.net|papstream.xyz|pfiramz.biz|piratebayblocked.com|piratebayproxies.cc|piratebea.top|pirateprox.tel|planet-streaming.com|planet-streaming.net|planet-streaming1.com|plink.re|prfr.re|prifr.eu|protect-iframe.com|protect-link.biz|protect-mylinks.com|protect-stream.com|prox3.info|proxtpb.art|proxy247.art|revivelink.com|sandup.co|security-links.com|sendit.cloud|short.pe|site-de-streaming.com|sonyoutube.com|streaming-planet.com|streaming-vostfr.net|streamzt.com|szs.pw|thepiratebay-proxylist.se|thepiratebay.vip|thevideobee.to|tntendirect.com|tpbprox.com|tpbproxydl.link|tpbtpb.xyz|uii.io|ukpass.co|unblockall.org|unblocked.app|unblocked.bid|unblocked.gdn|unblocked.is|unblocked.lc|unblocked.ms|unblocked.st|unblocked.wtf|unblocked2.vip|unblockproject.icu|unblockproject.info|unblockthe.net|up-load.io|uploadrar.com|uqload.com|vidbem.com|vidbm.com|vidcloud9.com|videobin.co|vidlox.me|vidlox.tv|vidnode.net|vidshar.tv|vidshare.tv|vidsrc.me|vidstodo.me|vidto.me|vidto.se|vidtodo.com|vidtoro.com|viva-stream.info|viva-stream.net|voiranime.com|vostfrserie.biz|vup.to|watchseriesmovie.net|wawacity.co|wawacity.ec|wawacity.ninja|wawacity.vip|yalla-shoot.com|yellowbay.one|youzik.com|zone-annuaire.com|zone-protect.com|zone-telechargement.stream|zone-telechargement.to|zone-telechargement.ws|zone-telechargement2.net|zone-telechargements.com|zone-telechargements.ws|zt-za.com", "/sw.js$domain=1337x.st|1337x.to|2shrink.com|4k-stream.net|9anime.to|9xbuddy.app|9xbuddy.com|9xbuddy.org|adshr.ink|adshrinks.com|adsrt.me|almstba.tv|animemangaddl.com|animes-mangas-ddl.net|annuaire-telechargement.com|annuaire-telechargement.net|arabseed.co|arabseed.com|arabseed.me|arabseed.tv|bagas31.info|bdupload.asia|blogginggyanbox.com|cartoonhd.co|chrt.pw|clicknupload.org|clicksfly.com|clk.sh|cloudvideo.tv|cut1.cf|daftsex.com|dailyuploads.net|ddl-island.co|ddl-island.org|desiupload.in|dl-protect.top|downloadhub.cc|downloadhub.lol|downloadhub.trade|downloadhub.wiki|downloadpirate.com|dropapk.to|eio.io|emotionvideo-tv.com|emule-island.co|emule-island.org|enfermeriahoy.com|file-up.org|filerio.in|filmeonline.biz|filmz.ws|french-stream.eu|french-stream.work|g5u.pw|getlink.pro|getsl.me|gifsis.com|gktorrent.biz|gktorrent.io|gktorrent.pw|gomovies.film|gomovies.guru|gomovies.pl|gomovies.sc|gomovieshub.io|gostream.nu|gostreams.net|govtsmartjob.com|gslink.co|gsurl.in|gsurl.me|hawak.tv|hd-stream.fr|hdvid.fun|hdvid.online|hdvid.tv|indishare.org|intoupload.net|islyce.com|islyce.gq|japscan.cc|japscan.co|japscan.com|japscan.se|japscan.to|keeplinks.co|licensekey.net|ling.online|mealip.com|megaurl.in|mevio.me|moviescrush.co|multiup.eu|multiup.org|mypornhere.com|newskart.xyz|offmp3.app|offmp3.com|okanime.com|oko.sh|onvid.pro|onvid.pw|onvid.site|onvid.space|onvid.website|openloadmovies.ac|openloadmovies.net|openloadmovies.review|ovid.host|ovid.icu|ovid.live|ovid.online|ovid.pro|ovid.pw|ovid.site|ovid.space|ovid.tv|ovid.world|ovid.xyz|pastepub.com|patchsoftwares.com|pelispedia24.tv|pslfive.com|putlocker.ninja|rotana.video|sadeempc.com|sendspace.com|serie-en-streaming.co|short.pe|solarporn.net|sonyoutube.com|sss.xxx|stream-island.co|stream-island.org|stream-serie.cc|stream2watch.org|streamay.co|streaming-vostfr.cc|streaming-vostfr.com|swatchseries.to|szs.pw|thehdvid.club|thehdvid.icu|thehdvid.online|thehdvid.pro|thehdvid.site|thehdvid.space|thehdvid.website|thehdvid.xyz|thevideo.ch|thevideo.io|thevideo.me|thevideo.us|thevidhd.club|thevidhd.online|thevidhd.xyz|tntendirect.com|uii.io|ulinx.org|universanimeize.com|up-load.io|upload.ac|upload4earn.org|uploadbyte.com|uploadproper.com|uploadproper.net|urlty.in|vev.io|vev.red|vidhd.host|vidhd.online|vidhd.pro|vidhd.site|vidhd.space|vidhd.world|vidlox.me|vidlox.tv|vidon.club|vidon.xyz|vidop.icu|vidup.io|vidup.tv|vodlocker.to|voir-films.com|vosbooks.tv|w4proxy.pw|world4ufree.best|world4ufree.com.co|world4ufree.fun|wstreaming.net|x1337x.eu|x1337x.se|x1337x.ws|yesmoviesapp.info|zippyshare.com|zone-annuaire.com|zone-telechargement.stream|zone-telechargement.ws|zt-za.com", "||dailymotion.com^$domain=cartoon3rbi.net|manga-fr.com|mavanimes.co|mysharelink.fr|protect-link.biz|robindesdroits.me|stream4free.live", "||commentcamarche.net/api/block/*/renderview?", "||journaldesfemmes.fr/api/block/*/renderview?", "||journaldunet.com/api/block/*/renderview?", "||linternaute.com/api/block/*/renderview?", "||d2uy8iq3fi50kh.cloudfront.net^", "@@||ajax.googleapis.com/ajax/libs/$script,domain=4anime.to|9anime.to|9xbuddy.com|9xbuddy.org|9xlinks.net|activetect.net|adf.ly|adshr.ink|adshrinks.com|american-dad-streaming.com|android-zone.org|anime-loads.org|animekaizoku.com|anitube.cz|atabencot.net|atomcurve.com|atominik.com|auto-login-xxx.com|awanpc.me|ay.gy|babblecase.com|bdcraft.net|biter.tv|bitigee.com|bluenik.com|brightvar.bid|briskgram.net|bypassed.in|byter.tv|cartoonwire.to|casualient.com|cinebo.net|clearload.bid|cocostreaming.co|coginator.com|cogismith.com|cpasbien.ph|cpasbien.reviews|cracksurl.com|crichd.com|crichd.to|crichd.xyz|dailysport.pw|dailyuploads.net|ddl-island.org|direct-torrents.com|dl-protect1.com|downloadhub.lol|ed-protect.org|emule-island.org|eplstream.xyz|espn-live.stream|europixhd.com|europixhd.net|ezie.cc|fcine.tv|file-up.org|filmpornofrancais.fr|filmstreaming.buzz|filmstreamz.net|flowyourvideo.com|foumovies.net|fr-streaming.com|fs-stream.com|fullanimefr.com|g5u.pw|gamecopyworld.eu|gdriveplayer.me|gdriveplayer.us|getlink.pro|getsl.me|getsurl.com|gledajonline.net|gloyah.net|gnula.nu|gomostream.com|gsurl.in|gsurl.me|gum-gum-streaming.com|gum-gum-streaming.tv|haloani.ru|hdeuropix.io|hdss.to|heures.be|hindipix.in|hours.be|illimitestreaming.net|immunicity.st|ithepiratebay.com|j.gs|japscan.co|jetanime.to|jeuxflash.com|kaitect.com|kializer.com|kibuilder.com|kickassanime.rs|kimechanic.com|kinogo.cc|kinotochka.club|kvid.org|lapremse.fr|larati.net|liens-telechargement.com|manga-vf.fr|mavanimes.co|mcloud.to|microify.com|mmoity.com|moviescounter.io|mp3converter.net|nowvideo.club|official-film-illimite.to|offmp3.app|offmp3.com|onion.ly|onion.pet|openingstijdengids.nl|openingsurengids.be|ouo.io|ouo.press|oxtorrent.cc|picocurl.com|picons.eu|pintient.com|piratebayblocked.com|prettyfast.to|protect-stream.com|prox3.info|q.gs|quainator.com|quamiller.com|queuecosm.bid|replaymod.com|restorecosm.bid|revivelink.com|riffhold.com|sapixmedia.com|security-links.com|shink.me|shon.xyz|simizer.com|simpson-en-streaming.com|skamaker.com|skamason.com|softmaroc.org|stream-island.org|stream-vf.com|streamelite.net|streaming-vostfr.cc|streamlive.to|streamzt.com|swiftviz.net|telerium.tv|the-big-bang-theory-streaming.net|thepiratebay.vip|thouth.net|threadsphere.bid|tinyium.com|topeuropix.com|topeuropix.net|torrent9.is|torrent9.so|torrentdownload.info|tpbprox.com|twineer.com|uclaut.net|ukpass.co|unblockall.org|unblocked2.fun|unblocked2.vip|unblocker.gdn|unblockthe.net|underclassblog.com|universanimeize.com|uppit.com|uppom.live|viahold.com|vializer.com|vidsource.me|vidsrc.me|vidstodo.me|vidto.me|vidto.se|vidtoro.com|viva-stream.net|viwright.com|voir-films.cc|voirfilms.club|voirfilms.film|voirfilmshd.net|voirfilmshds.com|vostfrserie.net|waaw.tv|waaw1.tv|wawacity.vip|xfilesharing.com|xterca.net|yabuilder.com|yamechanic.com|yoalizer.com|yobuilder.com|yoineer.com|yoitect.com|zipansion.com|zo.ee", "@@||bootstrapcdn.com^$script,stylesheet,domain=7-up.net|american-dad-streaming.com|anitube.cz|clicknupload.co|clicknupload.org|cpasbien.ph|cpasbien.reviews|dailysport.pw|direct-torrents.com|eplstream.xyz|ettvdl.com|europixhd.com|europixhd.net|ezie.cc|filerio.in|fullanimefr.com|gledajonline.net|hdeuropix.io|hds-streaming.org|hdss.to|hindipix.in|indishare.org|insta-stories.com|ithepiratebay.com|jetanime.to|lapremse.fr|lirescan.me|manga-vf.fr|mavanimes.co|mp3converter.net|official-film-illimite.to|onion.ly|onion.pet|piratebayblocked.com|protect-stream.com|prox3.info|simpson-en-streaming.com|snowfiles.com|sonyoutube.com|the-big-bang-theory-streaming.net|thepiratebay.vip|topeuropix.com|topeuropix.net|torrent9.so|tpbprox.com|ukpass.co|unblockproject.icu|unblockproject.info|unblockthe.net|uploadbyte.com|uploadrar.com|uppom.live|vidia.tv|vidlox.me|vidlox.tv|xfilesharing.com", "@@||cloudflare.com/ajax/libs/$script,stylesheet,domain=11anim.com|7-up.net|activetect.net|adf.ly|adshr.ink|adshrinks.com|android-zone.org|anime-loads.org|arabseed.com|atabencot.net|atomcurve.com|atominik.com|auto-login-xxx.com|awanpc.me|ay.gy|babblecase.com|babesxworld.com|bdcraft.net|biter.tv|bitigee.com|bluenik.com|brightvar.bid|briskgram.net|bypassed.in|bypassed.zone|byter.tv|casualient.com|cinebo.net|clearload.bid|coginator.com|cogismith.com|convertinmp4.com|cpmlink.net|cracksurl.com|espn-live.stream|ezie.cc|fcine.tv|file-up.org|file-upload.com|file-upload.net|filmenfr.com|fux0r.fun|fux0r.fyi|fux0r.icu|fux0r.ooo|fux0r.top|gamecopyworld.eu|gdriveplayer.me|gdriveplayer.us|hdss.to|hindipix.in|illimitestreaming.net|immunicity.st|insta-stories.com|ispunlock.top|ispunlock.xyz|ithepiratebay.com|j.gs|japscan.co|japscan.se|jetanime.to|jetload.net|kaitect.com|kializer.com|kibuilder.com|kimechanic.com|kooralive.info|larati.net|lirescan.me|manga-vf.fr|mavanimes.co|mcloud.to|microify.com|mmoity.com|mstream.best|mstream.fun|mstream.icu|mstream.press|mstream.rocks|mstream.space|mstream.website|mstream.xyz|mystream.to|official-film-illimite.to|onion.ly|onion.pet|onlystream.tv|ouo.io|ouo.press|oxtorrent.cc|picocurl.com|picons.eu|pintient.com|piratebayblocked.com|premiumserver.club|prettyfast.to|protect-stream.com|prox3.info|q.gs|quainator.com|quamiller.com|queuecosm.bid|replaymod.com|restorecosm.bid|riffhold.com|sandup.co|sapixmedia.com|simizer.com|skamaker.com|skamason.com|skytorrents.lol|sonyoutube.com|streamelite.net|streamzt.com|subfb.us|swiftviz.net|telerium.tv|tellerium.com|thepiratebay.vip|thevideobee.to|thouth.net|threadsphere.bid|tinyium.com|torrent9.is|tpbprox.com|twineer.com|ukpass.co|unblockall.org|unblocked.is|unblocked.lc|unblocked2.fun|unblocked2.vip|unblockproject.icu|unblockproject.info|unblockthe.net|underclassblog.com|universanimeize.com|uqload.com|viahold.com|vializer.com|vidia.tv|vidlox.me|vidlox.tv|vidsource.me|vidsrc.me|viva-stream.net|viwright.com|voir-films-series.net|voir-films.cc|voirfilms.club|voirfilms.film|voirfilmshd.net|waaw.tv|waaw1.tv|xterca.net|yabuilder.com|yamechanic.com|yoalizer.com|yobuilder.com|yoineer.com|yoitect.com|youwatch-series.com|zipansion.com|zo.ee|zone-telechargements.com", "@@||code.jquery.com^$script,domain=adkami.com|animecomplet.net|babesxworld.com|bypassed.in|bypassed.zone|cocogals.com|extratorrent.si|flowyourvideo.com|fullsharez.com|fux0r.fun|fux0r.fyi|fux0r.icu|fux0r.ooo|fux0r.top|geneafrance.com|getsurl.com|immunicity.st|indishare.org|insta-stories.com|ispunlock.top|ispunlock.xyz|japscan.co|japscan.se|jetload.net|lirescan.me|ls-streaming.com|mp4upload.com|protect-mylinks.com|protect-stream.com|ratopi.com|sandup.co|sonyoutube.com|streamcomplet.vet|subfb.us|sznpaste.net|tntendirect.com|torlock.com|unblockall.org|unblocked.is|unblocked.lc|unblocked2.vip|unblockproject.info|waaw.tv", "@@||connect.facebook.net^*/sdk.js$script,domain=file-upload.com|force-download.com|force-download.es|force-download.net|getlink.pro|le-streaming.com", "##a[href*=\".hgbasics.com/\"]", "vfcomplet.vip###custom-media-player", "aliasdmc.fr,allfilms.net,allstreamz.com,annuaire-streaming.com,blogs.allocine.fr,centerblog.net,ddl-island.co,ddl-island.org,elbilad.net,emule-island.co,emule-island.org,filmgratuit.net,filmz.ws,illimitestreaming.net,iphonesoft.fr,jeu.info,jeux-2-filles.com,mac2sell.net,nrj.be,nrj.fr,nuked-klan.org,olivierdauvers.fr,orange.fr,papstream.cc,planet-casio.com,redirection-web.net,science-et-vie.com,service-public.fr,sortir47.fr,stream-island.co,stream-island.org,streaming-vostfr.net,streamingdivx.cc,streamingdivx.club,terre.tv,toutpratique.com,turf-fr.com,val-de-marne.gouv.fr,virtuoflash.com,voirfilms.club,voirfilms.film,wareziens.net,xboards.org###pub", "vfcomplet.vip##.Ad", "1001ebooks.com,1337x.st,1337x.to,9divx.org,agence-webside.fr,amairgil.cz,arciam.fr,cpasbien.to,cpasbien0.net,cpasbien9.net,cpasbiens-netflix.com,cpasbiens-streaming.com,cpasbiens.net,ddl-island.co,ddl-island.org,dpstreaming.to,easyplayer.cc,emule-island.co,emule-island.org,enstream.co,eyonle.com,film01stream.com,filmcomplet.vip,filmgratuit.net,films-telecharger.eu,filmstoon.cam,filmstreaming.buzz,filmstreaming1.la,filmz.ws,filmzenstream.cloud,filmzenstream.xyz,free-telecharger.org,frtorrent.fr,fullsharez.com,guitare-luthier.fr,hdss.to,illimitestreaming.net,je-ddl.com,lemondedekevin.fr,lemonlemag.fr,magdistribution.fr,mangas-anime.com,nemours-medieval.fr,oxtorrent.cc,oxtorrent.co,papstream.cc,planetevideos.xyz,protect-stream.com,ratopi.com,rent2016.fr,rueduplanet.fr,serie-streaming.watch,sillonsdeculture.fr,stream-island.co,stream-island.org,streamcomplet.vet,streamcomplet.vip,streaming-films-hd.com,streamingdivx.cc,streamingdivx.club,streamonsport.club,streamonsport.net,superchataigne2017.fr,topsddns.net,torrent9.to,torrentfranc.com,vfcomplet.vip,voir-films-series.com,voirfilmshds.com,wawacity.vip,x1337x.eu,x1337x.se,x1337x.ws,zone-telechargement.dev##a[href*=\".php\"]", "wawacity.vip##a[href^=\"/download?\"]", "dl-protect1.com,filerio.in,ifp.re,libertyvf.co,libertyvf.tv,liens-telechargement.com,pfiramz.biz,pframe.eu,plink.re,prfr.re,prifr.eu,protect-iframe.com,torrents.io,wawacity.vip##a[onclick]", "streaming-vostfr.net##pp"],
    "removed": ["/\\.(club|com|info|online)\\/[a-zA-Z0-9\\+\\/]{64,}/$image,ping,third-party,domain=ay.gy|filesupload.org|filmeonline.biz|gamecopyworld.click|onmovies.to|opensubtitles.org|picocurl.com|replaymod.com|streamp1ay.me|streamplay.to|vodlocker.to|watchvideo.us", "$csp=worker-src 'none',domain=123moviesgo.nl|123movieshub.asia|123movieshub.cx|300mbfilms.co|7tors.com|adfreetv.ch|ahoypirate.in|ahoypiratebaai.eu|airproxyproxy.pw|airproxytpb.red|akvideo.stream|alltube.pl|alltube.tv|animeteatr.ru|annuaire-bleu.net|arnaques-internet.info|atk-exotics.com|atkebony.com|babyjav.com|bamekoohrang.ir|bayception.pw|baypirateproxy.pw|bigspeeds.com|bitcoincashfaucet.co|biter.tv|bmovie123.me|bmoviego.me|bmovies123.me|btstors.com|bustrain.net|bypassed.in|byter.tv|centrum-dramy.pl|chemikino.ru|cinemafacil.com|clipwatching.com|cmovieshd.nl|coinfaucet.eu|coinhub.win|cracklists.com|crictime.com|crictime.is|crimedocumentary.com|ddmix.net|dekoder.ws|deltabit.co|descargas2020.com|domnuleprimar.ro|dragonballzpolo.blogspot.com|eduardolegatti.blogspot.com|emuleed2k.com|estream.to|estream.xyz|extratorrent.si|fbmovies.org|fileone.tv|filmai.ws|filmonet.com|filmovix.com|filmovix.net|filmovix.org|filmstreamvf.com|filmstreamvk.me|filmyhd.cz|firstone.tv|firstonetv.eu|firstonetv.live|flashx.net|flashx.pw|flashx.tv|fmoviesgo.me|full-mp3.com|funtik.tv|genashowalter.com|gomovie123.me|gomovies123.me|happyjav.com|hdvid.fun|hdvid.tv|vidon.club|vidon.xyz|hentai-online.pl|hospital.plus|hq-porns.com|ianimes.co|ianimes.org|ianimes.top|idope.tv|ikwildepiratebay.xyz|indiaproxydl.org|intactoffers.club|javbros.com|javdl.co|javsuper.com|kapuso.be|kinostuff.com|lewd.ninja|litecoinfaucet.co|love-drama.pl|luckybitco.in|magnetbay.eu|mobology.ir|movie4k.is|myfeed4u.net|myvidaanime.com|nahnoji.cz|neurozinzin.com|nod-key.su|noobnoob.rocks|novator.az|novoscrb.ru|oipeirates.online|onlinevideoconverter.com|onvid.website|onvid.pro|onvid.pw|onvid.site|onvid.space|ukpass.co|openload.cc|openload.fun|ovid.host|ovid.icu|ovid.live|ovid.online|ovid.pro|ovid.pw|ovid.site|ovid.space|ovid.tv|ovid.world|ovid.xyz|pebx.pl|peliculas24.me|pelisplus.online|pezeshk.us|pietpiraat.org|pinoyrewind.info|piratbaypirate.link|pirate.bet|piratebay.click|piratebay.tel|piratebay.town|piratebays.be|potomy.ru|povwideo.cc|povwideo.net|powvideo.cc|powvideo.net|protect-link.biz|proxyindia.net|reactor.cc|rednubes.de|reservedoffers.club|salon.com|seriesenlinea.net|seventorrents.cc|severita-service.ru|shush.se|sickrage.ca|skyback.ru|skytorrents.co|skytorrents.me|sorteosrd.com|stream247.me|studio100.it|superbay.link|szukajka.tv|tapemovie.com|tarntercum.ru|theappguruz.com|thehdvid.club|ukpass.co|unblockthe.net|thepiratebay.vip|piratebayblocked.com|onion.pet|onion.ly|ithepiratebay.com|cruzing.xyz|prox3.info|tpbprox.com|thehdvid.icu|thehdvid.online|hdvid.online|thehdvid.pro|thehdvid.site|thehdvid.space|thehdvid.website|thehdvid.xyz|thepirate.xyz|thepiratebay.blue|thepiratebay.cr|thepiratebay.kiwi|thepiratebay.org|thepiratebay.red|thepiratebay.se.net|thevideo.ch|thevideo.io|thevideo.me|thevideo.us|thevidhd.club|thevidhd.online|thevidhd.xyz|thisjav.com|tomadivx.tv|torrentrapid.com|tpb.one|tpb.tw|tpbay.xyz|tubetitties.com|tugaanimado.net|unblockall.org|unblocked2.vip|unblocked.app|unblocked.gdn|unblocked.is|unblocked.lc|unblocked.ms|unblocked.vet|unblocked.wtf|unblockproject.info|unblockproject.icu|uptobox.com|uptostream.com|vidfile.net|vidhd.host|vidhd.online|vidhd.pro|vidhd.site|vidhd.space|vidhd.world|vidoza.co|vidoza.net|heapfiles.com|vidstodo.me|vidto.me|vidto.se|vidtodo.com|vidtodo.me|vidtodo.pro|vidtoro.com|vidop.icu|vidup.io|void.cat|wallpoper.com|watch-free.co|watchfreemovies.tv|wearesaudis.net|wwtors.com|xmovies8.nl|ya3ale.com|yazilir.com|yourjav.com|zenexplayer.com", "$websocket,domain=123moviesgo.nl|123movieshub.asia|123movieshub.cx|123telugu.com|300mbfilms.co|7tors.com|adfreetv.ch|akvideo.stream|alltube.pl|annuaire-bleu.net|arnaques-internet.info|bamekoohrang.ir|bigspeeds.com|biter.tv|bmovie123.me|bmoviego.me|bmovies123.me|btstors.com|bypassed.in|byter.tv|catrumahminimalis.me|ceesty.com|centrum-dramy.pl|chemikino.ru|cinemafacil.com|clipwatching.com|clkme.me|clkmein.com|cllkme.com|cmovieshd.nl|coinhub.win|coinminingonline.com|corneey.com|cracklists.com|crimedocumentary.com|cruzing.xyz|datpiff.com|ddmix.net|dekoder.ws|deltabit.co|descargas2020.com|destyy.com|djs.sk|downlink.top|dp-stream.com|dragonballzpolo.blogspot.com|eduardolegatti.blogspot.com|extratorrent.si|fbmovies.org|festyy.com|filmai.ws|filmstreamvf.com|filmstreamvk.me|firstone.tv|firstonetv.eu|firstonetv.live|flashx.net|flashx.pw|fmoviesgo.me|full-mp3.com|game-of-thrones-hd-streaming.com|gestyy.com|gomovie123.me|gomovies123.me|hdyayinmac1.com|hentai-online.pl|hospital.plus|hq-porns.com|hqq.tv|hqq.watch|ianimes.co|ianimes.org|ianimes.top|idope.tv|ifp.re|immunicity.st|ispunlock.top|ispunlock.xyz|ithepiratebay.com|japscan.cc|japscan.co|japscan.com|japscan.se|japscan.to|je-ddl.com|jeddl.info|jkanime.net|kapuso.be|kinogo.cc|kinogo.club|kinohabr.net|kinokrad.co|kinoprofi.org|kinotochka.club|kinotochka.net|lewd.ninja|logovo.net|love-drama.pl|luckybitco.in|macupload.net|mladipodnikatelia.sk|mobology.ir|monero-miner.com|movie4k.is|movies123.ac|myvidaanime.com|nahnoji.cz|netiap.com|neurozinzin.com|nod-key.su|onion.ly|onion.pet|onvid.pro|onvid.pw|onvid.site|onvid.space|openload.cc|openload.fun|ovid.icu|ovid.live|ovid.pro|ovid.pw|ovid.site|ovid.space|ovid.world|papstream.cc|papstream.co|papstream.com|papstream.info|papstream.net|papstream.xyz|pblv-plusbellelavie.fr|pebx.pl|peliculas24.me|petit-fichier.fr|pfiramz.biz|pframe.eu|pinoyrewind.info|piratebayblocked.com|plink.re|potomy.ru|prfr.re|prifr.eu|primewire.ag|primewire.li|protect-iframe.com|prox3.info|reactor.cc|rednubes.de|salon.com|seventorrents.cc|severita-service.ru|sh.st|shorte.st|shrink-service.it|sickrage.ca|skiip.me|skipp.io|skyback.ru|skytorrents.co|skytorrents.me|sleeptimer.org|sorteosrd.com|stream247.me|streambeam.io|streamplay.me|swatchseries.to|szukajka.tv|tainies.online|tarntercum.ru|thepiratebay.cr|thepiratebay.vip|thevideo.ch|thevideo.io|thevideo.us|tpbay.xyz|tpbprox.com|tubetitties.com|tugaanimado.net|ukpass.co|unblockall.org|unblocked.app|unblocked.bid|unblocked.gdn|unblocked.is|unblocked.lc|unblocked.ms|unblocked.st|unblocked.vet|unblocked.wtf|unblocked2.vip|unblocker.cc|unblockproject.icu|unblockproject.info|unblockthe.net|vev.io|vev.red|vidbom.com|videowood.tv|vidfile.net|vidhd.host|vidhd.online|vidhd.pro|vidhd.site|vidhd.space|vidhd.world|vido.fun|vidop.icu|vidoza.co|vidshare.tv|vidstodo.me|vidto.me|vidto.se|vidup.io|vidup.tv|vidwatch3.me|viid.me|void.cat|wallpoper.com|watch-free.co|watchfreemovies.tv|watchvideo.us|wiid.me|wwtors.com|xmovies8.nl|xvideosharing.com|ya3ale.com|yazilir.com|zenexplayer.com|zona.plus", "$script,third-party,domain=1377x.to|1anim.com|1fichier.com|1me.club|247tpb.club|2ddl.vg|2shrink.com|4anime.to|4k-pl.site|4k-stream.net|7-up.net|9divx.org|9xbuddy.app|9xbuddy.com|9xbuddy.org|9xlinks.net|9xupload.me|9xupload.xyz|activetect.net|adf.ly|adhy.pe|adkami.com|adshort.co|adshort.im|adshort.me|adshr.ink|adshrinks.com|adultvideoz.net|agence-webside.fr|ah.pe|ahlamtv.com|allmyvideos.net|allvid.ch|allvid.co|ally.sh|american-dad-streaming.com|anavids.com|android-zone.org|anime-gate.com|anime-hunter.com|anime-loads.org|anime-vf.fr|animecomplet.net|animedigitalnetwork.fr|animekaizoku.com|animemangaddl.com|animes-mangas-ddl.net|anitube.cz|anitubebr.com|annuaire-telechargement.com|annuaire-telechargement.net|apkmirrorfull.com|arabramadan.com|arabseed.co|arabseed.com|arabseed.tv|atabencot.net|atomcurve.com|atominik.com|auto-login-xxx.com|avametrie.fr|awanpc.me|ay.gy|ayefiles.com|babblecase.com|babystreaming.com|bayboat.link|bdcraft.net|bdupload.asia|bdupload.info|bea247.in|better-call-saul-streaming.com|bidzen.co|bigvoy.com|biter.tv|bitigee.com|bluenik.com|blueunblocked.club|bonstreams.net|brightvar.bid|briskgram.net|buzzmonclick.com|bypassed.in|bypassed.zone|byter.tv|cam4.com|cam4.fr|cartoonwire.to|casualient.com|cestpasbien.pro|channelstream.club|chrt.pw|cinebo.net|cineiz.co|cineiz.io|cineiz.org|cinemavf.net|cinemay.com|cinemay.ws|clearload.bid|clicknupload.co|clicknupload.link|clicksfly.com|cloudvideo.tv|cloudy.ec|cmovies.la|cocostreaming.com|coginator.com|cogismith.com|coinmarketcap.com|convertinmp4.com|convertisseur-youtube-mp3.net|cpabien.co|cpabien.link|cpabien.ws|cpasbien.ph|cpasbien.reviews|cpasbien.tf|cpasbien.vg|cpasbien.wf|cpasbien0.com|cpasbien0.net|cpasbien9.net|cpasbiens-netflix.com|cpasbiens-streaming.com|cpasbiens.net|cpasbiens.to|cpasmal.info|cpmlink.net|cracksurl.com|crichd.com|crichd.info|crichd.to|crichd.xyz|cruzing.xyz|d0stream.com|dailysport.pw|dailyuploads.net|datoporn.co|datpiff.com|dausel.co|dbs-streaming.com|ddl-island.co|ddl-island.org|ddl-island.su|ddl.to|ddlfr.org|ddlfr.pw|ddownload.com|desiupload.in|despair-paradise.com|direct-torrents.com|discordbots.org|dl-protect.top|dl-protect1.com|dlapk4all.com|down-paradise.com|downlink.top|downloadhub.cc|downloadhub.lol|downloadhub.trade|downloadhub.wiki|dpfilmz.com|dpstreaming.to|dramasjc.com|dz4link.com|dz4link1.com|dz4link2.xyz|easyload.io|ebookdz.com|ed-protect.org|elil.cc|elitegol.live|elitegol.me|embedezcast.com|embedscr.com|embedscr.to|emule-island.co|emule-island.org|emule-island.ru|emuleed2k.com|enstreaming.info|enstreaming.org|enstreaming.tv|enstreaming.ws|eplstream.xyz|era.ac|espn-live.stream|ettv.to|ettvdl.com|europixhd.com|europixhd.net|exe.io|extramovies.casa|extratorrent.cd|extratorrent.si|extreme-d0wn.com|extreme-d0wn.net|extreme-down.club|extreme-down.in|extreme-down.ninja|extreme-down.one|extreme-down.pro|extreme-down.video|extreme-down.xyz|extreme-download.cc|extreme-download.co|extreme-download.ninja|extreme-download.xyz|ezie.cc|fapdig.com|fc.lc|fcine.tv|feurl.com|file-up.org|file-upload.com|file-upload.net|filerio.in|filescdn.com|filescdn.net|film-streamingp.com|film-streamingvk.com|filmcomplet.biz|filmcomplet.la|filmcomplet.tv|filmcomplet.vip|filmenfr.com|filmesonlinegratis.com|filmpornofrancais.fr|films-france.info|films-france.net|films-france.org|filmstoon.cam|filmstoon.pro|filmstoon.pw|filmstoon.xyz|filmstreaming.buzz|filmstreaming1.la|filmstreaming1.top|filmstreaming1vf.co|filmstreamingvk.co|filmstreamvf.com|filmstreamvk.me|filmstreamz.net|filmsvostfr.cc|filmsvostfr.io|filmsvostfr.ws|filmsvostfr.xyz|filmtelecharger.net|filmz.info|filmz.ws|filmzenstream.com|filmzenstream.to|flashx.net|flashx.pw|flowyourvideo.com|flystream.fr|fmovies.taxi|fmovies.to|fmovies.wtf|force-download.com|force-download.es|force-download.fr|force-download.net|foumovies.net|fr-streaming.com|free-telechargement.co|free-telechargement.org|free-telechargements.com|free-telecharger.com|free-telecharger.org|freedream.org|french-stream.eu|french-stream.work|frenchstreaming.fr|frstreaming.biz|fs-stream.com|fullanimefr.com|fullmoviz.org|fullsharez.com|fullstream.su|fux0r.fun|fux0r.fyi|fux0r.icu|fux0r.ooo|fux0r.top|fux0r.xyz|g5u.pw|gamecopyworld.click|gamecopyworld.eu|gcloud.live|gdriveplayer.me|gdriveplayer.us|geneafrance.com|getlink.pro|getsl.me|getsurl.com|gktorrent.biz|gktorrent.bz|gktorrent.co|gktorrent.io|gktorrent.net|gktorrent.pw|gktorrent.tv|gledajonline.net|gloyah.net|gnula.nu|gogoanimes.tv|gomostream.com|gomovies.guru|govid.me|gslink.co|gsurl.in|gsurl.me|guitare-luthier.fr|gum-gum-stream.fr|gum-gum-stream.tv|gum-gum-streaming.co|gum-gum-streaming.com|gum-gum-streaming.tv|gurl.ly|h-l.icu|haloani.ru|hd-stream.fr|hdeuropix.com|hdeuropix.io|hdpopcorns.me|hds-stream.com|hds-stream.pro|hds-streaming.com|hds-streaming.net|hds-streaming.org|hds-streamingvf.com|hds-streamingvf.net|hdss.to|hdsto.me|hdvid.fun|hdvid.online|hdvid.tv|hentai-paradise.fr|hinata-online-community.fr|hindipix.in|holavid.com|hydrax.net|ianimes.co|ianimes.org|ianimes.top|ifp.re|ikwilthepiratebaytpb.rocks|illimitestreaming.net|immunicity.st|indiabea.com|indishare.me|insta-stories.com|invictus.ws|ispunlock.top|ispunlock.xyz|itdmusic.com|itdmusic.in|ithepiratebay.com|j.gs|janjua.tv|japscan.cc|japscan.co|japscan.com|japscan.se|japscan.to|jawcloud.co|je-ddl.com|jeddl.info|jetanimes.co|jetload.net|jeuxflash.com|k-streaming.cc|k-streaming.ch|k-streaming.com|k-vid.co|k-vid.net|kaitect.com|kializer.com|kibuilder.com|kickassanime.rs|kimechanic.com|kingdomsharing.xyz|kinogo.cc|kinotochka.club|kshows.to|kuma-film.com|kvid.org|lamule.eu|lapremse.fr|larati.net|le-streaming.com|lecpasbien.com|lemondedekevin.fr|lemonlemag.fr|lepetitlecteur.fr|libertyvf.co|libertyvf.com|libertyvf.net|libertyvf.tv|liens-telechargement.com|likeur.org|likn.xyz|ling.online|link.tl|linkcaptcha.net|lirescan.me|lirescan.net|litepaste.com|loadsubs.net|ls-streaming.com|ma-famille-dabord-streaming.com|macupload.net|mamega.com|manga-vf.fr|mangas-anime.com|mangas-vostfr.pro|matures.porn|mavanimes.co|mavplay.com|mcloud.to|mediumarticles.com|mega-telechargements.com|memoireetvie.com|microify.com|mirrorace.com|mmoity.com|moshahda.net|moshahda.online|movcloud.net|movie-series.net|movie2konline.net|movies123.ac|moviescounter.io|mp3-red.org|mp3clan.com|mp3clan.it|mp3clan.to|mp3clan.us|mp3clan.ws|mp3converter.net|mp3guild.com|mp3guild.net|mp3red.cc|mp3red.me|mstream.best|mstream.fun|mstream.icu|mstream.press|mstream.rocks|mstream.space|mstream.website|mstream.xyz|mvs4u.tv|mystream.io|mystream.to|myvidaanime.com|natationpourtous.com|neko-san.fr|notube.net|nowvideo.club|official-film-illimite.net|official-film-illimite.to|official-film-illimite.ws|offmp3.app|offmp3.com|oload.party|onceddl.org|oneload.site|oneload.xyz|onion.ly|onion.pet|onlystream.tv|onvid.pro|onvid.pw|onvid.site|onvid.space|onvid.website|oomoviz.com|openload.cc|openload.fun|openloadmovies.ac|openvideo.net|otakufr.com|otakufr.net|ouo.io|ouo.press|ourl.io|ovid.host|ovid.icu|ovid.live|ovid.online|ovid.pro|ovid.pw|ovid.site|ovid.space|ovid.tv|ovid.world|ovid.xyz|oxtorrent.cc|oxtorrent.co|oxtorrent.com|oxtorrent.me|oxtorrent.pw|p3g.tv|pandamovies.pw|papstream.cc|papstream.co|papstream.com|papstream.info|papstream.net|papstream.xyz|papy-streaming.org|papystreaming-film.com|papystreaming.com|papystreaming.net|peliculas24.me|pelispedia.co|pelispedia.site|pelispedia.stream|pelispedia.tv|pelispedia24.tv|pelisplus.online|pelisrex.com|pfiramz.biz|picmoza.com|picocurl.com|picons.eu|pintient.com|piratebayblocked.com|piratebayproxies.cc|piratebea.top|pirateprox.tel|planet-series.co|planet-series.world|planet-streaming.com|planet-streaming.net|planet-streaming1.com|planetevideos.xyz|plink.re|pornbraze.com|premiumserver.club|prettyfast.to|prfr.re|prifr.eu|primewire.ag|primewire.li|projectfreetv.ag|protect-iframe.com|protect-link.biz|protect-mylinks.com|protect-stream.com|prox3.info|proxtpb.art|proxy247.art|pstream.net|q.gs|quainator.com|quamiller.com|quedustreaming.com|queuecosm.bid|rapidvid.to|ratopi.com|ream.co|regarder-american-horror-story-streaming.com|regarder-arrow-streaming-gratuit.com|regarder-attaque-des-titans-streaming.com|regarder-black-mirror-streaming.com|regarder-breaking-bad-streaming.com|regarder-friends-streaming.com|regarder-game-of-thrones-streaming.com|regarder-grays-anatomy-streaming.com|regarder-his-dark-materials-streaming.com|regarder-la-casa-de-papel-streaming.com|regarder-le-bureau-des-legendes-streaming.com|regarder-les-100-streaming.com|regarder-malcolm-streaming.com|regarder-mr-robot-streaming.com|regarder-my-hero-academia-streaming.com|regarder-orange-is-the-new-black-streaming.com|regarder-peaky-blinders-streaming.xyz|regarder-prison-break-streaming.com|regarder-rick-et-morty-streaming-gratuit.com|regarder-see-streaming.com|regarder-south-park-streaming.com|regarder-the-mandalorian-streaming.com|regarder-the-walking-dead-streaming.com|regarder-the-witcher-streaming-gratuit.com|regarder-vikings-streaming.com|regarder-watchmen-streaming.com|regarder-westworld-streaming.com|rent2016.fr|replaymod.com|restorecosm.bid|revivelink.com|riffhold.com|robindesdroits.me|rockfile.co|rueduplanet.fr|sandup.co|sapixmedia.com|scan-vf.co|scan-vf.com|seasonvar.ru|security-links.com|sendspace.com|serialeonline.to|serie-en-streaming.co|serie-streaming-vf.tv|serie-streaming.watch|serie-streaminghd.com|serie-streaminghd.org|series-cravings.li|series.movie|seriestreamings.com|seriestreamings.org|sexu.com|shink.me|shon.xyz|short.pe|sillonsdeculture.fr|simizer.com|simpson-en-streaming.com|site-de-streaming.com|skamaker.com|skamason.com|skstream.biz|skstream.co|skstream.ws|skytorrents.lol|smoner.com|snowfiles.com|softmaroc.org|solarporn.net|sonyoutube.com|souqsky.net|south-park-streaming.biz|sportzonline.to|srt.am|stream-island.co|stream-island.org|stream-serie.cc|stream-vf.com|stream-zone.net|stream4free.live|stream4free.top|streamay.co|streamay.com|streambox.club|streamcdn.to|streamcomplet.vet|streamcomplet.vip|streamelite.net|streaminfr.com|streaming-films-hd.com|streaming-films.tv|streaming-planet.com|streaming-series.cx|streaming-vostfr.com|streaming.re|streaminghd-serie.com|streamingk.com|streaminz.com|streamiz-films.com|streamiz-filmze.fr|streamiz-hd.xyz|streamiz-vk.fr|streamlive.to|streamtape.com|streamty.com|streamup.xyz|streamwire.net|streamzt.com|subfb.us|superitu.com|supervideo.tv|swatchseries.to|swiftviz.net|sznpaste.net|szs.pw|t9.pe|tamilyogi.cc|tazmovies.com|telechargementz.co|telechargementz.me|telechargementz.net|telecharger-ebook-gratuit.org|telerium.tv|tellerium.com|the-big-bang-theory-streaming.net|thehdvid.club|thehdvid.icu|thehdvid.online|thehdvid.pro|thehdvid.site|thehdvid.space|thehdvid.website|thehdvid.xyz|thepiratebay-proxylist.se|thepiratebay.vip|thevid.tv|thevideo.ch|thevideo.io|thevideo.me|thevideo.us|thevideobee.to|thevidhd.club|thevidhd.online|thevidhd.xyz|thouth.net|threadsphere.bid|tii.ai|time2watch.io|time2watch.top|tinyium.com|tirexo.com|tmearn.com|tntendirect.com|toncinema.online|top.gg|topeuropix.com|topeuropix.net|torlock.com|torlock.icu|torlock2.com|torrent09.uno|torrent9-torrent.com|torrent9.ac|torrent9.ai|torrent9.biz|torrent9.bz|torrent9.cat|torrent9.cc|torrent9.cz|torrent9.ec|torrent9.io|torrent9.is|torrent9.lol|torrent9.me|torrent9.nz|torrent9.ph|torrent9.pl|torrent9.so|torrent9.support|torrent9.sx|torrent9.to|tpbay.xyz|ugmovies.org|uii.io|uppom.live|uqload.com|vidbem.com|vidbm.com|vidcloud9.com|videobin.co|videospider.in|vidhd.net|vidhdr.com|vidia.tv|vidlo.us|vidlox.me|vidnode.net|vidshar.tv|vidspeed.net|voir-films-series.net|voir-films.cc|voir-stream.com|voirfilms.biz|voirfilms.club|voirfilms.com|voirfilms.film|voirfilms.link|voirfilms.mx|voirfilms.one|voirfilms.org|voirfilms.tv|voirfilms.ws|voirfilmshd.net|voirfilmshds.com|vostfree.com|vostfrserie.biz|vostfrserie.net|vudeo.net|waaw.tv|waaw1.tv|warez-serbia.com|watchnnow.com|watchseries.movie|wstream.to|wstreaming.net|xfilesharing.com|yalla-shoot.com|yts.mx|yts.ws|zone-annuaire.com|zone-annuaire.website|zone-films.stream|zone-telechargement.cool|zone-telechargement.dev|zone-telechargement.stream|zone-telechargement.ws|zone-telechargement1.life|zone-telechargements.com|zt-protect.com|zt-protect.net|zt-za.com|zustream.net", "$script,~third-party,domain=amairgil.cz|magdistribution.fr|mrsexe.com|sexandtrash.com|strip-webcam.com|superchataigne2017.fr|torrent9.top|torrent9.tv|torrent9.uno|torrent9.ws|torrentfunk.com|torrents9.cc|torrents9.org|torrents9.tv|touzai-sekai.fr|tpbprox.com|tpbproxydl.link|tpbtpb.xyz|trollvid.net|tusfiles.com|tusfiles.net|tvlogy.to|twineer.com|ukpass.co|ulinx.org|ultrastream.pro|unblockall.org|unblocked.app|unblocked.bid|unblocked.gdn|unblocked.is|unblocked.lc|unblocked.ms|unblocked.st|unblocked.wtf|unblocked2.fun|unblocked2.vip|unblockproject.icu|unblockproject.info|unblockthe.net|underclassblog.com|univers-animeiz.net|universanimeize.com|up-load.io|up07.me|up08.net|up09.com|upload4earn.org|uploadrar.com|uploads.to|uppit.com|urle.co|uskip.me|ver-peliculas.co|ver-peliculas.io|ver-pelis.me|vev.io|vev.red|viahold.com|vializer.com|vidbom.com|vidhd.host|vidhd.online|vidhd.pro|vidhd.site|vidhd.space|vidhd.world|vidlox.tv|vidon.club|vidon.xyz|vidop.icu|vidshort.net|vidsource.me|vidsrc.me|vidstodo.me|vidstream.kim|vidstream.top|vidto.me|vidto.se|vidtodo.com|vidtoro.com|vidup.io|vidup.tv|vipleague.cc|vipleague.me|vipleague.se|viva-stream.info|viva-stream.net|viwright.com|vkstreamingfilm.biz|vodlocker.to|voiranime.com|voirseries.co|vup.to|walking-dead-en-streaming.fr|walking-dead-streaming.fr|wallagain.cc|watchseriesmovie.net|wawacity.co|wawacity.ec|wawacity.ninja|webtv.ws|wlnk.ec|xterca.net|xvideosharing.com|xvidstage.com|yabuilder.com|yamechanic.com|yellowbay.one|yifyddl.com|yifymovies.tv|yoalizer.com|yobuilder.com|yoineer.com|yoitect.com|yourmod.cloud|youwatch-series.com|youwatchfilm.net|youzik.com|zipansion.com|zo.ee|zone-protect.com|zone-streaming.fr|zone-telechargement.to|zone-telechargement2.net|zone-telechargements.ws|zonestream.org|zony.tv|zteamfansub.net|zustream.com", "$subdocument,third-party,domain=123telugu.com|1ink.cc|1me.club|247tpb.club|2shrink.com|7-up.net|adhit.me|adhy.pe|adpop.me|adshort.co|adshort.im|adshort.me|adshr.ink|adshrinks.com|agence-webside.fr|ah.pe|akvideo.stream|akwam.net|al.ly|allmyvideos.net|alltube.tv|ally.sh|animemangaddl.com|animes-mangas-ddl.net|annuaire-telechargement.com|annuaire-telechargement.net|avametrie.fr|bayboat.link|bc.vc|bdupload.asia|bdupload.info|bea247.in|bit-url.com|blueunblocked.club|bypassed.in|bypassed.zone|ceesty.com|cestpasbien.pro|chrt.pw|clicknupload.co|clicksfly.com|clictune.com|clik.pw|clipwatching.com|clkme.me|clkmein.com|cllkme.com|cloudvideo.tv|convert2mp3.net|corneey.com|cpabien.co|cpabien.link|cpabien.ws|cpasbien.ph|cpasbien.reviews|cpasbien.tf|cpasbien.vg|cpasbien.wf|cpasbien0.com|cpasbien0.net|cpasbien9.net|cpasbiens-netflix.com|cpasbiens-streaming.com|cpasbiens.net|cpasbiens.to|cpasbienss.net|cpmlink.net|cruzing.xyz|cut-link-earn.com|daclips.com|dailyuploads.net|dausel.co|destyy.com|dz4link.com|e-wok.tv|elil.cc|era.ac|extreme-d0wn.com|extreme-d0wn.net|extreme-down.club|extreme-down.in|extreme-down.ninja|extreme-down.one|extreme-down.pro|extreme-down.video|extreme-down.xyz|extreme-download.cc|extreme-download.co|extreme-download.ninja|extreme-download.xyz|ezie.cc|fas.li|festyy.com|file-up.org|filescdn.com|filescdn.net|filmtelecharger.net|flowyourvideo.com|free-telechargements.com|free-telecharger.com|free-telecharger.org|fux0r.fun|fux0r.fyi|fux0r.icu|fux0r.ooo|fux0r.top|fux0r.xyz|g5u.pw|gestyy.com|getsurl.com|gktorrent.biz|gktorrent.bz|gktorrent.co|gktorrent.io|gktorrent.net|gktorrent.pw|gktorrent.tv|gocoo.co|gslink.co|gsurl.in|gsurl.me|guitare-luthier.fr|hdvid.fun|hdvid.online|hdvid.tv|ikwilthepiratebaytpb.rocks|immunicity.st|indiabea.com|ispunlock.top|ispunlock.xyz|ithepiratebay.com|japscan.cc|japscan.co|japscan.com|japscan.se|japscan.to|jawcloud.co|k-streaming.cc|k-streaming.ch|k-streaming.com|kvid.org|lapremse.fr|le-streaming.com|lecpasbien.com|lemondedekevin.fr|lemonlemag.fr|lepetitlecteur.fr|likn.xyz|ling.online|link.tl|linkbucks.com|lirescan.me|lirescan.net|loadvid.online|mcloud.to|mega-telechargements.com|mixdrop.co|mixdrop.to|mon-horoscope-du-jour.com|movcloud.net|mstream.best|mstream.fun|mstream.icu|mstream.press|mstream.rocks|mstream.space|mstream.website|mstream.xyz|multiup.eu|multiup.org|mylink1.biz|mystream.io|mystream.to|netiap.com|nowvideo.club|onion.ly|onion.pet|onvid.pro|onvid.pw|onvid.site|onvid.space|onvid.website|ouo.io|ouo.press|ovid.host|ovid.icu|ovid.live|ovid.online|ovid.pro|ovid.pw|ovid.site|ovid.space|ovid.tv|ovid.world|ovid.xyz|oxtorrent.cc|oxtorrent.co|oxtorrent.com|oxtorrent.me|oxtorrent.pw|piratebayblocked.com|piratebayproxies.cc|piratebea.top|pirateprox.tel|premiumserver.club|prox3.info|proxtpb.art|proxy247.art|pss.pw|rent2016.fr|revivelink.com|rueduplanet.fr|sa.ae|sandup.co|sexu.com|sh.st|shink.me|shon.xyz|short.pe|short2win.com|short2win.online|shorte.st|shrink-service.it|site-de-streaming.com|skiip.me|skipp.io|skytorrents.lol|so.gd|solarporn.net|souqsky.net|stream4free.live|stream4free.top|szs.pw|szukajka.tv|t9.pe|telerium.tv|tellerium.com|thehdvid.club|thehdvid.icu|thehdvid.online|thehdvid.pro|thehdvid.site|thehdvid.space|thehdvid.website|thehdvid.xyz|thepiratebay-proxylist.se|thepiratebay.vip|thevid.net|thevid.tv|thevideo.ch|thevideo.io|thevideo.me|thevideo.us|thevidhd.club|thevidhd.online|thevidhd.xyz|tmearn.com|torlock.com|torlock.icu|torlock2.com|torrent09.uno|torrent9-torrent.com|torrent9.ac|torrent9.ai|torrent9.biz|torrent9.bz|torrent9.cat|torrent9.cc|torrent9.cz|torrent9.ec|torrent9.io|torrent9.is|torrent9.lol|torrent9.me|torrent9.nz|torrent9.ph|torrent9.pl|torrent9.so|torrent9.support|torrent9.sx|torrent9.to|torrent9.top|uppom.live|uqload.com|vidcloud9.com|videobin.co|vidnode.net|vidshar.tv|vidshare.tv|vudeo.net|watchvideo.us|xfilesharing.com|zone-annuaire.com|zone-telechargement.stream|zt-za.com", "$subdocument,~third-party,domain=adsrt.me|amairgil.cz|completvf.com|magdistribution.fr|povvideo.net|povwideo.cc|povwideo.net|powvideo.net|short-url.link|sillonsdeculture.fr|superchataigne2017.fr|torrent9.tv|torrent9.uno|torrent9.ws|torrentfunk.com|torrents9.cc|torrents9.org|torrents9.tv|tpbprox.com|tpbproxydl.link|tpbtpb.xyz|tusfiles.com|tusfiles.net|uii.io|ukpass.co|ulinx.org|unblockall.org|unblocked.app|unblocked.bid|unblocked.gdn|unblocked.is|unblocked.lc|unblocked.ms|unblocked.st|unblocked.wtf|unblocked2.fun|unblocked2.vip|unblockproject.icu|unblockproject.info|unblockthe.net|unblocktheship.org|upload4earn.org|uploadbyte.com|uploads.to|uppit.com|url4btc.co|urle.co|urlgone.com|uskip.me|vcstream.to|ver-peliculas.io|ver-pelis.me|vev.io|vev.red|vidbem.com|vidbm.com|vidcloud.co|vidhd.host|vidhd.online|vidhd.pro|vidhd.site|vidhd.space|vidhd.world|vidlox.me|vidlox.tv|vidon.club|vidon.xyz|vidop.icu|vidsrc.me|vidstodo.me|vidto.me|vidto.se|vidtodo.com|vidtoro.com|vidup.io|vidup.tv|viid.me|vup.to|wiid.me|ya3ale.com|yellowbay.one|zone-telechargement.to|zone-telechargement2.net|zone-telechargements.com|zone-telechargements.ws", "$third-party,xmlhttprequest,domain=1377x.to|1fichier.com|1me.club|247tpb.club|2shrink.com|4anime.to|4k-stream.net|7-up.net|9xbuddy.app|9xbuddy.com|9xbuddy.org|9xupload.me|9xupload.xyz|adhy.pe|adshort.co|adshort.im|adshort.me|adshr.ink|adshrinks.com|agence-webside.fr|ah.pe|ahlamtv.com|allvid.ch|allvid.co|anavids.com|animecomplet.net|animemangaddl.com|animes-mangas-ddl.net|annuaire-telechargement.com|annuaire-telechargement.net|arabramadan.com|arabseed.co|arabseed.com|arabseed.tv|avametrie.fr|bayboat.link|bdupload.asia|bdupload.info|bea247.in|biter.tv|blueunblocked.club|bypassed.in|bypassed.zone|byter.tv|cartoonwire.to|cestpasbien.pro|chrt.pw|cineiz.co|cineiz.io|cineiz.org|cinemay.ws|clicknupload.co|clicknupload.org|clicksfly.com|clik.pw|cloudvideo.tv|convertisseur-youtube-mp3.net|cpabien.co|cpabien.link|cpabien.ws|cpasbien.ph|cpasbien.reviews|cpasbien.tf|cpasbien.vg|cpasbien.wf|cpasbien0.com|cpasbien0.net|cpasbien9.net|cpasbiens-netflix.com|cpasbiens-streaming.com|cpasbiens.net|cpasbiens.to|cpasbienss.net|cruzing.xyz|daftsex.com|dailyuploads.net|datpiff.com|ddl-island.co|ddl-island.org|ddl-island.su|ddlfr.org|ddlfr.pw|direct-torrents.com|dl-protect.top|dl-protect1.com|downloadhub.cc|downloadhub.lol|downloadhub.trade|downloadhub.wiki|dropapk.to|dz4link.com|dz4link1.com|dz4link2.xyz|ebookdz.com|ed-protect.org|embedezcast.com|emule-island.co|emule-island.org|emule-island.ru|era.ac|ettv.to|ettvdl.com|europixhd.com|europixhd.net|exe.io|extreme-d0wn.com|extreme-d0wn.net|extreme-down.club|extreme-down.in|extreme-down.ninja|extreme-down.one|extreme-down.pro|extreme-down.video|extreme-down.xyz|extreme-download.cc|extreme-download.co|extreme-download.ninja|extreme-download.xyz|ezie.cc|fc.lc|file-up.org|file-upload.com|filerio.in|filescdn.com|filescdn.net|filmesonlinegratis.com|filmstoon.cam|filmstoon.pro|filmstoon.pw|filmstoon.xyz|filmstreaming.buzz|filmstreaming1.la|filmstreaming1.top|filmstreaming1vf.co|filmstreamvf.com|filmstreamvk.me|filmstreamz.net|filmtelecharger.net|filmz.info|filmz.ws|filmzenstream.com|filmzenstream.to|flashx.net|flashx.pw|flowyourvideo.com|fmovies.taxi|fmovies.to|fmovies.wtf|force-download.com|force-download.es|force-download.fr|force-download.net|foumovies.net|free-telechargement.co|free-telechargement.org|free-telechargements.com|free-telecharger.com|free-telecharger.org|french-stream.eu|french-stream.work|fullanimefr.com|fux0r.fun|fux0r.fyi|fux0r.icu|fux0r.ooo|fux0r.top|fux0r.xyz|g5u.pw|gcloud.live|getlink.pro|getsl.me|getsurl.com|gktorrent.biz|gktorrent.bz|gktorrent.co|gktorrent.io|gktorrent.net|gktorrent.pw|gktorrent.tv|gledajonline.net|gogoanimes.tv|govid.me|gslink.co|gsurl.in|gsurl.me|guitare-luthier.fr|gum-gum-stream.fr|gum-gum-stream.tv|gum-gum-streaming.co|gum-gum-streaming.com|gum-gum-streaming.tv|hd-stream.fr|hdeuropix.io|hds-streaming.org|hdss.to|hdsto.me|hdvid.fun|hdvid.online|hdvid.tv|hentai-paradise.fr|hindipix.in|holavid.com|ianimes.co|ianimes.org|ianimes.top|ifp.re|ikwilthepiratebaytpb.rocks|immunicity.st|indiabea.com|indishare.me|insta-stories.com|ispunlock.top|ispunlock.xyz|ithepiratebay.com|japscan.cc|japscan.co|japscan.com|japscan.se|japscan.to|jawcloud.co|jetanimes.co|jeuxflash.com|jheberg.net|k-streaming.cc|k-streaming.ch|k-streaming.com|k-vid.co|k-vid.net|kshows.to|kvid.org|lapremse.fr|le-streaming.com|lecpasbien.com|lemondedekevin.fr|lemonlemag.fr|lepetitlecteur.fr|libertyvf.co|libertyvf.com|libertyvf.net|libertyvf.tv|liens-telechargement.com|ling.online|lirescan.me|lirescan.net|ls-streaming.com|macupload.net|mavanimes.co|mediumarticles.com|mega-telechargements.com|mirrorace.com|movcloud.net|movies123.xyz|moviescounter.io|mp3-red.org|mp3red.cc|mp3red.me|mstream.best|mstream.fun|mstream.icu|mstream.press|mstream.rocks|mstream.space|mstream.website|mstream.xyz|mvs4u.tv|mystream.io|mystream.to|nowvideo.club|official-film-illimite.net|official-film-illimite.to|official-film-illimite.ws|offmp3.app|offmp3.com|onion.ly|onion.pet|onvid.pro|onvid.pw|onvid.site|onvid.space|onvid.website|openload.cc|openload.fun|otakufr.com|ouo.io|ouo.press|ovid.host|ovid.icu|ovid.live|ovid.online|ovid.pro|ovid.pw|ovid.site|ovid.space|ovid.tv|ovid.world|ovid.xyz|oxtorrent.cc|oxtorrent.co|oxtorrent.com|oxtorrent.me|oxtorrent.pw|papstream.cc|papstream.co|papstream.com|papstream.info|papstream.net|papstream.xyz|pelispedia.site|pelisplus.online|pfiramz.biz|piratebayblocked.com|piratebayproxies.cc|piratebea.top|pirateprox.tel|planet-streaming.com|planet-streaming.net|planet-streaming1.com|plink.re|premiumserver.club|prfr.re|prifr.eu|protect-iframe.com|protect-link.biz|protect-mylinks.com|protect-stream.com|prox3.info|proxtpb.art|proxy247.art|rent2016.fr|revivelink.com|rueduplanet.fr|sandup.co|security-links.com|sendspace.com|series.movie|short.pe|sibnet.ru|site-de-streaming.com|skytorrents.lol|smoner.com|snowfiles.com|sonyoutube.com|souqsky.net|stream-island.co|stream-island.org|stream4free.live|stream4free.top|streamay.co|streamelite.net|streaminfr.com|streaming-planet.com|streaming-vostfr.com|streamingok.com|streamup.xyz|szs.pw|t9.pe|tazmovies.com|telerium.tv|thehdvid.club|thehdvid.icu|thehdvid.online|thehdvid.pro|thehdvid.site|thehdvid.space|thehdvid.website|thehdvid.xyz|thepiratebay-proxylist.se|thepiratebay.vip|thevideo.ch|thevideo.io|thevideo.me|thevideo.us|thevideobee.to|thevidhd.club|thevidhd.online|thevidhd.xyz|tirexo.com|tntendirect.com|toncinema.online|topeuropix.com|topeuropix.net|torlock.com|torlock.icu|torlock2.com|torrent09.uno|torrent9-torrent.com|torrent9.ac|torrent9.ai|torrent9.biz|torrent9.bz|torrent9.cat|torrent9.cc|torrent9.cz|torrent9.ec|torrent9.io|torrent9.is|torrent9.lol|torrent9.me|torrent9.nz|torrent9.ph|torrent9.pl|torrent9.so|torrent9.support|torrent9.sx|torrent9.to|torrent9.top|uppom.live|vidbem.com|vidbm.com|vidcloud9.com|videobin.co|vidlo.us|vidnode.net|vidshar.tv|vidshare.tv|voir-films.cc|voirfilms.biz|voirfilms.club|voirfilms.com|voirfilms.film|voirfilms.link|voirfilms.mx|voirfilms.one|voirfilms.org|voirfilms.tv|voirfilms.ws|voirfilmshd.net|vostfrserie.biz|vudeo.net|watchseries.movie|xfilesharing.com|yts.mx|yts.ws|zone-annuaire.com|zone-annuaire.website|zone-telechargement.cool|zone-telechargement.stream|zone-telechargement.ws|zt-protect.com|zt-protect.net|zt-za.com", "$xmlhttprequest,domain=adfreetv.ch|alltube.pl|alltube.tv|amairgil.cz|annoncedesexe.com|ayefiles.com|centrum-dramy.pl|collegehumor.com|ddmix.net|dekoder.ws|jeux-hentai.com|magdistribution.fr|nowvideo.club|sillonsdeculture.fr|sorteosrd.com|streambeam.io|superchataigne2017.fr|szukajka.tv|tainies.online|torrent9.tv|torrent9.uno|torrent9.ws|torrentfunk.com|torrents9.cc|torrents9.org|torrents9.tv|tpbprox.com|tpbproxydl.link|tpbtpb.xyz|tusfiles.com|tusfiles.net|uii.io|ukpass.co|ulinx.org|unblockall.org|unblocked.app|unblocked.bid|unblocked.gdn|unblocked.is|unblocked.lc|unblocked.ms|unblocked.st|unblocked.wtf|unblocked2.fun|unblocked2.vip|unblockproject.icu|unblockproject.info|unblockthe.net|universanimeize.com|up-load.io|up07.me|up08.net|up09.com|upload4earn.org|uploadbyte.com|uploads.to|uppit.com|uqload.com|urle.co|vev.io|vev.red|vidfile.net|vidhd.host|vidhd.online|vidhd.pro|vidhd.site|vidhd.space|vidhd.world|vidlox.me|vidlox.tv|vidon.club|vidon.xyz|vidop.icu|vidsrc.me|vidstodo.me|vidto.me|vidto.se|vidtodo.com|vidtoro.com|vidup.io|vidup.tv|viva-stream.info|viva-stream.net|voiranime.com|voirseries.co|vup.to|watchseriesmovie.net|wawacity.co|wawacity.ec|wawacity.ninja|wlnk.ec|yalla-shoot.com|yellowbay.one|youzik.com|zone-films.stream|zone-protect.com|zone-telechargement.to|zone-telechargement2.net|zone-telechargements.com|zone-telechargements.ws|zony.tv", "$stylesheet,third-party,domain=1fichier.com|247tpb.club|7-up.net|9xupload.me|9xupload.xyz|adshr.ink|adshrinks.com|ahlamtv.com|animecomplet.net|annuaire-telechargement.com|annuaire-telechargement.net|bayboat.link|bea247.in|blueunblocked.club|bypassed.in|bypassed.zone|chrt.pw|clicknupload.co|clik.pw|cloudvideo.tv|cloudy.ec|cruzing.xyz|daclips.com|dailyuploads.net|dl-protect.top|dl-protect1.com|ed-protect.org|extreme-d0wn.com|extreme-d0wn.net|extreme-down.club|extreme-down.in|extreme-down.ninja|extreme-down.one|extreme-down.pro|extreme-down.video|extreme-down.xyz|extreme-download.cc|extreme-download.co|extreme-download.ninja|extreme-download.xyz|fcine.tv|file-up.org|file-upload.com|filescdn.com|filescdn.net|filmstreamvf.com|filmstreamvk.me|filmstreamz.net|filmtelecharger.net|fux0r.fun|fux0r.fyi|fux0r.icu|fux0r.ooo|fux0r.top|fux0r.xyz|g5u.pw|getsl.me|getsurl.com|gnula.nu|gogoanimes.tv|gslink.co|gsurl.in|gsurl.me|hds-streaming.org|hdss.to|ifp.re|ikwilthepiratebaytpb.rocks|immunicity.st|indiabea.com|indishare.me|insta-stories.com|ispunlock.top|ispunlock.xyz|ithepiratebay.com|japscan.cc|japscan.co|japscan.com|japscan.se|japscan.to|jawcloud.co|jetanimes.co|k-vid.co|k-vid.net|kissanime.ru|kshows.to|libertyvf.co|libertyvf.com|libertyvf.net|libertyvf.tv|liens-telechargement.com|ling.online|linkcaptcha.net|ls-streaming.com|mavanimes.co|mediumarticles.com|mega-telechargements.com|mp3-red.org|mp3red.cc|mp3red.me|nowvideo.club|onion.ly|onion.pet|openload.cc|openload.fun|papstream.co|papstream.com|papstream.net|papstream.xyz|pfiramz.biz|piratebayblocked.com|piratebayproxies.cc|piratebea.top|pirateprox.tel|planet-streaming.com|planet-streaming.net|planet-streaming1.com|plink.re|prfr.re|prifr.eu|protect-iframe.com|protect-link.biz|protect-mylinks.com|protect-stream.com|prox3.info|proxtpb.art|proxy247.art|revivelink.com|sandup.co|security-links.com|sendit.cloud|short.pe|site-de-streaming.com|sonyoutube.com|streaming-planet.com|streamzt.com|szs.pw|thepiratebay-proxylist.se|thepiratebay.vip|thevideobee.to|tntendirect.com|tpbprox.com|tpbproxydl.link|tpbtpb.xyz|uii.io|ukpass.co|unblockall.org|unblocked.app|unblocked.bid|unblocked.gdn|unblocked.is|unblocked.lc|unblocked.ms|unblocked.st|unblocked.wtf|unblocked2.vip|unblockproject.icu|unblockproject.info|unblockthe.net|up-load.io|uploadrar.com|uqload.com|vidbem.com|vidbm.com|vidcloud9.com|videobin.co|vidlox.me|vidlox.tv|vidnode.net|vidshar.tv|vidshare.tv|vidsrc.me|vidstodo.me|vidto.me|vidto.se|vidtodo.com|vidtoro.com|viva-stream.info|viva-stream.net|voiranime.com|vostfrserie.biz|vup.to|watchseriesmovie.net|yalla-shoot.com|yellowbay.one|youzik.com|zone-annuaire.com|zone-protect.com|zone-telechargement.stream|zone-telechargement.to|zone-telechargement.ws|zone-telechargement2.net|zone-telechargements.com|zone-telechargements.ws|zt-za.com", "/sw.js$domain=1337x.st|1337x.to|2shrink.com|4k-stream.net|9anime.to|9xbuddy.app|9xbuddy.com|9xbuddy.org|adshr.ink|adshrinks.com|adsrt.me|almstba.tv|animemangaddl.com|animes-mangas-ddl.net|annuaire-telechargement.com|annuaire-telechargement.net|arabseed.co|arabseed.com|arabseed.me|arabseed.tv|bagas31.info|bdupload.asia|blogginggyanbox.com|cartoonhd.co|chrt.pw|clicknupload.org|clicksfly.com|clk.sh|cloudvideo.tv|cut1.cf|daftsex.com|dailyuploads.net|ddl-island.co|ddl-island.org|desiupload.in|dl-protect.top|downloadhub.cc|downloadhub.lol|downloadhub.trade|downloadhub.wiki|downloadpirate.com|dropapk.to|emotionvideo-tv.com|emule-island.co|emule-island.org|enfermeriahoy.com|file-up.org|filerio.in|filmeonline.biz|filmz.ws|french-stream.eu|french-stream.work|g5u.pw|getlink.pro|getsl.me|gifsis.com|gktorrent.biz|gktorrent.io|gktorrent.pw|gomovies.film|gomovies.guru|gomovies.pl|gomovies.sc|gomovieshub.io|gostream.nu|gostreams.net|govtsmartjob.com|gslink.co|gsurl.in|gsurl.me|hawak.tv|hd-stream.fr|hdvid.fun|hdvid.online|hdvid.tv|indishare.org|intoupload.net|islyce.com|islyce.gq|japscan.cc|japscan.co|japscan.com|japscan.se|japscan.to|keeplinks.co|licensekey.net|ling.online|megaurl.in|mevio.me|moviescrush.co|multiup.eu|multiup.org|mypornhere.com|newskart.xyz|offmp3.app|offmp3.com|okanime.com|oko.sh|onvid.pro|onvid.pw|onvid.site|onvid.space|onvid.website|openloadmovies.ac|openloadmovies.net|openloadmovies.review|ovid.host|ovid.icu|ovid.live|ovid.online|ovid.pro|ovid.pw|ovid.site|ovid.space|ovid.tv|ovid.world|ovid.xyz|pastepub.com|patchsoftwares.com|pelispedia24.tv|putlocker.ninja|rotana.video|sadeempc.com|sendspace.com|serie-en-streaming.co|short.pe|solarporn.net|sonyoutube.com|sss.xxx|stream-island.co|stream-island.org|stream-serie.cc|stream2watch.org|streamay.co|streaming-vostfr.com|swatchseries.to|szs.pw|thehdvid.club|thehdvid.icu|thehdvid.online|thehdvid.pro|thehdvid.site|thehdvid.space|thehdvid.website|thehdvid.xyz|thevideo.ch|thevideo.io|thevideo.me|thevideo.us|thevidhd.club|thevidhd.online|thevidhd.xyz|tntendirect.com|uii.io|ulinx.org|universanimeize.com|up-load.io|upload.ac|upload4earn.org|uploadbyte.com|uploadproper.com|uploadproper.net|urlty.in|vev.io|vev.red|vidhd.host|vidhd.online|vidhd.pro|vidhd.site|vidhd.space|vidhd.world|vidlox.me|vidlox.tv|vidon.club|vidon.xyz|vidop.icu|vidup.io|vidup.tv|vodlocker.to|voir-films.com|vosbooks.tv|w4proxy.pw|world4ufree.best|world4ufree.com.co|world4ufree.fun|wstreaming.net|x1337x.eu|x1337x.se|x1337x.ws|yesmoviesapp.info|zippyshare.com|zone-annuaire.com|zone-telechargement.stream|zone-telechargement.ws|zt-za.com", "||dailymotion.com^$domain=cartoon3rbi.net|manga-fr.com|mavanimes.co|mysharelink.fr|protect-link.biz|robindesdroits.me|stream4free.live|streaming-vostfr.com", "||wawacity.*/ttcxcyz.js", "@@||ajax.googleapis.com/ajax/libs/$script,domain=4anime.to|9anime.to|9xbuddy.com|9xbuddy.org|9xlinks.net|activetect.net|adf.ly|adshr.ink|adshrinks.com|american-dad-streaming.com|android-zone.org|anime-loads.org|animekaizoku.com|anitube.cz|atabencot.net|atomcurve.com|atominik.com|auto-login-xxx.com|awanpc.me|ay.gy|babblecase.com|bdcraft.net|biter.tv|bitigee.com|bluenik.com|brightvar.bid|briskgram.net|bypassed.in|byter.tv|cartoonwire.to|casualient.com|cinebo.net|clearload.bid|cocostreaming.co|coginator.com|cogismith.com|cpasbien.ph|cpasbien.reviews|cracksurl.com|crichd.com|crichd.to|crichd.xyz|cruzing.xyz|dailysport.pw|dailyuploads.net|ddl-island.org|direct-torrents.com|dl-protect1.com|downloadhub.lol|ed-protect.org|emule-island.org|eplstream.xyz|espn-live.stream|europixhd.com|europixhd.net|ezie.cc|fcine.tv|file-up.org|filmpornofrancais.fr|filmstreaming.buzz|filmstreamz.net|flowyourvideo.com|foumovies.net|fr-streaming.com|fs-stream.com|fullanimefr.com|g5u.pw|gamecopyworld.eu|gdriveplayer.me|gdriveplayer.us|getlink.pro|getsl.me|getsurl.com|gledajonline.net|gloyah.net|gnula.nu|gomostream.com|gsurl.in|gsurl.me|gum-gum-streaming.com|gum-gum-streaming.tv|haloani.ru|hdeuropix.io|hdss.to|heures.be|hindipix.in|hours.be|illimitestreaming.net|immunicity.st|ithepiratebay.com|j.gs|japscan.co|jetanime.to|jeuxflash.com|kaitect.com|kializer.com|kibuilder.com|kickassanime.rs|kimechanic.com|kinogo.cc|kinotochka.club|kvid.org|lapremse.fr|larati.net|liens-telechargement.com|manga-vf.fr|mavanimes.co|mcloud.to|microify.com|mmoity.com|moviescounter.io|mp3converter.net|nowvideo.club|official-film-illimite.to|offmp3.app|offmp3.com|onion.ly|onion.pet|openingstijdengids.nl|openingsurengids.be|ouo.io|ouo.press|oxtorrent.cc|picocurl.com|picons.eu|pintient.com|piratebayblocked.com|prettyfast.to|protect-stream.com|prox3.info|q.gs|quainator.com|quamiller.com|queuecosm.bid|replaymod.com|restorecosm.bid|revivelink.com|riffhold.com|sapixmedia.com|security-links.com|shink.me|shon.xyz|simizer.com|simpson-en-streaming.com|skamaker.com|skamason.com|softmaroc.org|stream-island.org|stream-vf.com|streamelite.net|streaming-vostfr.com|streamlive.to|streamzt.com|swiftviz.net|telerium.tv|the-big-bang-theory-streaming.net|thepiratebay.vip|thouth.net|threadsphere.bid|tinyium.com|topeuropix.com|topeuropix.net|torrent9.is|torrent9.so|torrentdownload.info|tpbprox.com|twineer.com|uclaut.net|ukpass.co|unblockall.org|unblocked2.fun|unblocked2.vip|unblocker.gdn|unblockthe.net|underclassblog.com|universanimeize.com|uppit.com|uppom.live|viahold.com|vializer.com|vidsource.me|vidsrc.me|vidstodo.me|vidto.me|vidto.se|vidtoro.com|viva-stream.net|viwright.com|voir-films.cc|voirfilms.club|voirfilms.film|voirfilmshd.net|voirfilmshds.com|vostfrserie.net|waaw.tv|waaw1.tv|wawacity.co|wawacity.ninja|xfilesharing.com|xterca.net|yabuilder.com|yamechanic.com|yoalizer.com|yobuilder.com|yoineer.com|yoitect.com|zipansion.com|zo.ee", "@@||bootstrapcdn.com^$script,stylesheet,domain=7-up.net|american-dad-streaming.com|anitube.cz|clicknupload.co|clicknupload.org|cpasbien.ph|cpasbien.reviews|cruzing.xyz|dailysport.pw|direct-torrents.com|eplstream.xyz|ettvdl.com|europixhd.com|europixhd.net|ezie.cc|filerio.in|fullanimefr.com|gledajonline.net|hdeuropix.io|hds-streaming.org|hdss.to|hindipix.in|indishare.org|insta-stories.com|ithepiratebay.com|jetanime.to|lapremse.fr|lirescan.me|manga-vf.fr|mavanimes.co|mp3converter.net|official-film-illimite.to|onion.ly|onion.pet|piratebayblocked.com|protect-stream.com|prox3.info|simpson-en-streaming.com|snowfiles.com|sonyoutube.com|the-big-bang-theory-streaming.net|thepiratebay.vip|topeuropix.com|topeuropix.net|torrent9.so|tpbprox.com|ukpass.co|unblockproject.icu|unblockproject.info|unblockthe.net|uploadbyte.com|uploadrar.com|uppom.live|vidia.tv|vidlox.me|vidlox.tv|xfilesharing.com", "@@||cloudflare.com/ajax/libs/$script,stylesheet,domain=11anim.com|7-up.net|activetect.net|adf.ly|adshr.ink|adshrinks.com|android-zone.org|anime-loads.org|arabseed.com|atabencot.net|atomcurve.com|atominik.com|auto-login-xxx.com|awanpc.me|ay.gy|babblecase.com|babesxworld.com|bdcraft.net|biter.tv|bitigee.com|bluenik.com|brightvar.bid|briskgram.net|bypassed.in|bypassed.zone|byter.tv|casualient.com|cinebo.net|clearload.bid|coginator.com|cogismith.com|convertinmp4.com|cpmlink.net|cracksurl.com|cruzing.xyz|espn-live.stream|ezie.cc|fcine.tv|file-up.org|file-upload.com|file-upload.net|filmenfr.com|fux0r.fun|fux0r.fyi|fux0r.icu|fux0r.ooo|fux0r.top|fux0r.xyz|gamecopyworld.eu|gdriveplayer.me|gdriveplayer.us|hdss.to|hindipix.in|illimitestreaming.net|immunicity.st|insta-stories.com|ispunlock.top|ispunlock.xyz|ithepiratebay.com|j.gs|japscan.co|japscan.se|jetanime.to|jetload.net|kaitect.com|kializer.com|kibuilder.com|kimechanic.com|kooralive.info|larati.net|lirescan.me|manga-vf.fr|mavanimes.co|mcloud.to|microify.com|mmoity.com|mstream.best|mstream.fun|mstream.icu|mstream.press|mstream.rocks|mstream.space|mstream.website|mstream.xyz|mystream.to|official-film-illimite.to|onion.ly|onion.pet|onlystream.tv|ouo.io|ouo.press|oxtorrent.cc|picocurl.com|picons.eu|pintient.com|piratebayblocked.com|premiumserver.club|prettyfast.to|protect-stream.com|prox3.info|q.gs|quainator.com|quamiller.com|queuecosm.bid|replaymod.com|restorecosm.bid|riffhold.com|sandup.co|sapixmedia.com|simizer.com|skamaker.com|skamason.com|skytorrents.lol|sonyoutube.com|streamelite.net|streamzt.com|subfb.us|swiftviz.net|telerium.tv|tellerium.com|thepiratebay.vip|thevideobee.to|thouth.net|threadsphere.bid|tinyium.com|torrent9.is|tpbprox.com|twineer.com|ukpass.co|unblockall.org|unblocked.is|unblocked.lc|unblocked2.fun|unblocked2.vip|unblockproject.icu|unblockproject.info|unblockthe.net|underclassblog.com|universanimeize.com|uqload.com|viahold.com|vializer.com|vidia.tv|vidlox.me|vidlox.tv|vidsource.me|vidsrc.me|viva-stream.net|viwright.com|voir-films-series.net|voir-films.cc|voirfilms.club|voirfilms.film|voirfilmshd.net|waaw.tv|waaw1.tv|xterca.net|yabuilder.com|yamechanic.com|yoalizer.com|yobuilder.com|yoineer.com|yoitect.com|youwatch-series.com|zipansion.com|zo.ee|zone-telechargements.com", "@@||code.jquery.com^$script,domain=adkami.com|animecomplet.net|babesxworld.com|bypassed.in|bypassed.zone|cocogals.com|extratorrent.si|flowyourvideo.com|fullsharez.com|fux0r.fun|fux0r.fyi|fux0r.icu|fux0r.ooo|fux0r.top|fux0r.xyz|geneafrance.com|getsurl.com|immunicity.st|indishare.org|insta-stories.com|ispunlock.top|ispunlock.xyz|japscan.co|japscan.se|jetload.net|lirescan.me|ls-streaming.com|mp4upload.com|protect-mylinks.com|protect-stream.com|ratopi.com|sandup.co|sonyoutube.com|streamcomplet.vet|subfb.us|sznpaste.net|tntendirect.com|torlock.com|unblockall.org|unblocked.is|unblocked.lc|unblocked2.vip|unblockproject.info|waaw.tv", "@@||connect.facebook.net^*/sdk.js$script,domain=file-upload.com|force-download.com|force-download.es|force-download.net|getlink.pro|le-streaming.com|streaming-vostfr.com", "aliasdmc.fr,allfilms.net,allstreamz.com,annuaire-streaming.com,blogs.allocine.fr,centerblog.net,ddl-island.co,ddl-island.org,elbilad.net,emule-island.co,emule-island.org,filmgratuit.net,filmz.ws,illimitestreaming.net,iphonesoft.fr,jeu.info,jeux-2-filles.com,mac2sell.net,nrj.be,nrj.fr,nuked-klan.org,olivierdauvers.fr,orange.fr,papstream.cc,planet-casio.com,redirection-web.net,science-et-vie.com,service-public.fr,sortir47.fr,stream-island.co,stream-island.org,streamingdivx.cc,streamingdivx.club,terre.tv,toutpratique.com,turf-fr.com,val-de-marne.gouv.fr,virtuoflash.com,voirfilms.club,voirfilms.film,wareziens.net,xboards.org###pub", "1001ebooks.com,1337x.st,1337x.to,9divx.org,agence-webside.fr,amairgil.cz,arciam.fr,cpasbien.to,cpasbien0.net,cpasbien9.net,cpasbiens-netflix.com,cpasbiens-streaming.com,cpasbiens.net,ddl-island.co,ddl-island.org,dpstreaming.to,easyplayer.cc,emule-island.co,emule-island.org,enstream.co,eyonle.com,film01stream.com,filmcomplet.vip,filmgratuit.net,films-telecharger.eu,filmstoon.cam,filmstreaming.buzz,filmstreaming1.la,filmz.ws,filmzenstream.cloud,filmzenstream.xyz,free-telecharger.org,frtorrent.fr,fullsharez.com,guitare-luthier.fr,hdss.to,illimitestreaming.net,je-ddl.com,lemondedekevin.fr,lemonlemag.fr,magdistribution.fr,mangas-anime.com,nemours-medieval.fr,oxtorrent.cc,oxtorrent.co,papstream.cc,planetevideos.xyz,protect-stream.com,ratopi.com,rent2016.fr,rueduplanet.fr,serie-streaming.watch,sillonsdeculture.fr,stream-island.co,stream-island.org,streamcomplet.vet,streamcomplet.vip,streaming-films-hd.com,streamingdivx.cc,streamingdivx.club,streamonsport.club,streamonsport.net,superchataigne2017.fr,topsddns.net,torrent9.to,torrentfranc.com,voir-films-series.com,voirfilmshds.com,wawacity.co,wawacity.ninja,x1337x.eu,x1337x.se,x1337x.ws,zone-telechargement.dev##a[href*=\".php\"]", "wawacity.ninja##a[href^=\"/download?\"]", "dl-protect1.com,filerio.in,ifp.re,libertyvf.co,libertyvf.tv,liens-telechargement.com,pfiramz.biz,pframe.eu,plink.re,prfr.re,prifr.eu,protect-iframe.com,torrents.io,wawacity.co,wawacity.ninja##a[onclick]"]
}