{
    "name": "desktop-full",
    "engines": {
        "23": {
            "url": "https://api.pebblebrowser.com/adblocker/engines/df/0.7.0-engine.bytes",
            "checksum": "3ef7ba5c0d27f9099313e3d46addb9d6ce7f2148172859e9d56ac716a9e54cc5"
        },
        "24": {
            "url": "https://api.pebblebrowser.com/adblocker/engines/df/0.8.0-engine.bytes",
            "checksum": "fd5fecbae4514eec63bf9d33c88736e9b231f86ea7527bd27251983508172445"
        },
        "25": {
            "url": "https://api.pebblebrowser.com/adblocker/engines/df/0.9.0-engine.bytes",
            "checksum": "0e0cf82eb85b4a233543a2dec84a49004710e172585058c22cc8eddc8b8de2a2"
        },
        "26": {
            "url": "https://api.pebblebrowser.com/adblocker/engines/df/0.9.1-engine.bytes",
            "checksum": "1892823e249546b17e83170885016cdf04862d499ab6a805eeb56a5c3fdfca9a"
        },
        "28": {
            "url": "https://api.pebblebrowser.com/adblocker/engines/df/0.10.0-engine.bytes",
            "checksum": "b7f847c75890124b2174987d050d51b5bafa410fb1715b83e588e7f6323bd92a"
        },
        "29": {
            "url": "https://api.pebblebrowser.com/adblocker/engines/df/0.11.0-engine.bytes",
            "checksum": "acf9ce18aa8add78fc2ab26df58e0d295823968dc714b43b87b912091fc1264a"
        },
        "30": {
            "url": "https://api.pebblebrowser.com/adblocker/engines/df/0.12.0-engine.bytes",
            "checksum": "5d75a5832b5207e0def1963c954076aa187b286e116bf7debc7a82bcc9ccef19"
        },
        "32": {
            "url": "https://api.pebblebrowser.com/adblocker/engines/df/0.12.1-engine.bytes",
            "checksum": "1b467f366cbf0a881a7f9d21ca46353785dae1b2009cc2fe20c3920da7c1e166"
        },
        "33": {
            "url": "https://api.pebblebrowser.com/adblocker/engines/df/0.13.0-engine.bytes",
            "checksum": "9d9d6efdf6128fae71ddff125ec1772f4c86d2c589d37358bce41750dd04eeb0"
        },
        "34": {
            "url": "https://api.pebblebrowser.com/adblocker/engines/df/0.14.0-engine.bytes",
            "checksum": "6dde5250235aad470e345cf36a64c00aaf1c949308eb6dad0b0f2054ff8b6426"
        },
        "35": {
            "url": "https://api.pebblebrowser.com/adblocker/engines/df/1.0.0-engine.bytes",
            "checksum": "9440084e3bcb7f94c0d7e84ba7ab01782457cbe0f1f139c89bee30112e441c5c"
        },
        "36": {
            "url": "https://api.pebblebrowser.com/adblocker/engines/df/1.0.1-engine.bytes",
            "checksum": "a0581b4024f8cbe5ae2d089822805269b99c592023ec49586687c11fabdb8ae3"
        },
        "37": {
            "url": "https://api.pebblebrowser.com/adblocker/engines/df/1.1.0-engine.bytes",
            "checksum": "3cfddf0ee6be8e7fb50d15a0839425409337c75e95f580d984ec6a8fdb5ef35c"
        },
        "38": {
            "url": "https://api.pebblebrowser.com/adblocker/engines/df/1.2.0-engine.bytes",
            "checksum": "6b12404de76ffb7c47346def18e9abdc5ba573190bfbbd15e02a79f9bb8a3baa"
        },
        "39": {
            "url": "https://api.pebblebrowser.com/adblocker/engines/df/1.3.0-engine.bytes",
            "checksum": "b448d4c50bc62557b700ef37041266a0e9b3a282ca19c1a018ae1d972f0af6f1"
        },
        "40": {
            "url": "https://api.pebblebrowser.com/adblocker/engines/df/1.3.1-engine.bytes",
            "checksum": "0a258bd6e11946781684233ea2ddcb63723682df56a8761924a3f4f0e9fdb5de"
        },
        "41": {
            "url": "https://api.pebblebrowser.com/adblocker/engines/df/1.4.0-engine.bytes",
            "checksum": "dab9359ffb58fea8639e9d3d8251d822ac8d1beef38bf8b454104ced85ef92ac"
        },
        "42": {
            "url": "https://api.pebblebrowser.com/adblocker/engines/df/1.4.1-engine.bytes",
            "checksum": "c8abe05b92177ec95048cd6950050d990ef5dda89012457feb46e0a17efddf19"
        },
        "43": {
            "url": "https://api.pebblebrowser.com/adblocker/engines/df/1.4.18-engine.bytes",
            "checksum": "69afd1c3e68a6f582b7abce807f7dbf6308f00e3d1dd9be47439927f5e006b28"
        },
        "44": {
            "url": "https://api.pebblebrowser.com/adblocker/engines/df/1.5.0-engine.bytes",
            "checksum": "08d46a7f6317ba2172e503ba0c698906c4cc1faaf7bbe603cd7cfc1fd80a9591"
        },
        "45": {
            "url": "https://api.pebblebrowser.com/adblocker/engines/df/1.6.2-engine.bytes",
            "checksum": "7db22c2c1c40e1da86abd1392de0092025506190a84bdebb24a6e7271211afc4"
        },
        "46": {
            "url": "https://api.pebblebrowser.com/adblocker/engines/df/1.7.1-engine.bytes",
            "checksum": "7975f5d9185395c419adb4fcb54af505ac924c2b2df3b496e46c73bcd5de4003"
        },
        "47": {
            "url": "https://api.pebblebrowser.com/adblocker/engines/df/1.8.3-engine.bytes",
            "checksum": "fd63b6e23bc612f810f3634f3f988ba142364df57b2ca29354d699e562dc207a"
        },
        "49": {
            "url": "https://api.pebblebrowser.com/adblocker/engines/df/1.9.1-engine.bytes",
            "checksum": "52c5bf6455c45d3a4ccb4dcb264a968ff2473a8296ab31ee2c5848a39a77a3ef"
        },
        "51": {
            "url": "https://api.pebblebrowser.com/adblocker/engines/df/1.9.2-engine.bytes",
            "checksum": "0d8ea26966383eda9ca4cf10a202ef4295b0ae65d15432d8f9433cd07476d7d7"
        },
        "78": {
            "url": "https://api.pebblebrowser.com/adblocker/engines/df/1.10.0-engine.bytes",
            "checksum": "689abe6317bd47d3e179f0525b0ed20cf870efdb8138bdebb26dd4e9ca2cd6d6"
        },
        "79": {
            "url": "https://api.pebblebrowser.com/adblocker/engines/df/1.11.0-engine.bytes",
            "checksum": "2165bc12d2eb9451a3e591246fa753700572d26e7ef0f7b72a5b9194cd75a80d"
        },
        "80": {
            "url": "https://api.pebblebrowser.com/adblocker/engines/df/1.12.0-engine.bytes",
            "checksum": "6d04b7dc4b184a1519c108f357090ae92afccf4e8b9907919eb4eb381ba54dd8"
        },
        "81": {
            "url": "https://api.pebblebrowser.com/adblocker/engines/df/1.12.1-engine.bytes",
            "checksum": "18dd7da83d1cf471785bdc137cb6214cd0654cebdabd86a4bb663a117baef187"
        },
        "82": {
            "url": "https://api.pebblebrowser.com/adblocker/engines/df/1.12.2-engine.bytes",
            "checksum": "b66d510ea42c56068eb4d121e170cf23ad08ca786a091277d720d59931057fc1"
        },
        "83": {
            "url": "https://api.pebblebrowser.com/adblocker/engines/df/1.12.3-engine.bytes",
            "checksum": "3e836b4eab9391ccad80d13c7f646c2bd49dada02a13fb5c6c94c9f35257ed02"
        },
        "85": {
            "url": "https://api.pebblebrowser.com/adblocker/engines/df/1.13.0-engine.bytes",
            "checksum": "b154891e2bf9bd2815aad4d435334b301a9a7576675f5f6e01d2d9854ee05dc0"
        },
        "89": {
            "url": "https://api.pebblebrowser.com/adblocker/engines/df/1.13.1-engine.bytes",
            "checksum": "0d4ee9404962721c6964295b070351d1923f1a8856b5f2aa049a39ba13762b64"
        },
        "95": {
            "url": "https://api.pebblebrowser.com/adblocker/engines/df/1.14.0-engine.bytes",
            "checksum": "5abbcb251eb8ce1faa0a385939061f5984ca4a51ea0e2109e469bd19f032c28e"
        },
        "96": {
            "url": "https://api.pebblebrowser.com/adblocker/engines/df/1.14.1-canary-engine.bytes",
            "checksum": "491be9f7f757897a3606104d9f190b977b9ab3fc8bb50d24b6673a6fa746e417"
        },
        "97": {
            "url": "https://api.pebblebrowser.com/adblocker/engines/df/1.14.1-engine.bytes",
            "checksum": "58fdca0c1eb5bc3589327169f2fb1f9aba8cca3bc2693a314951d973fa922a64"
        },
        "109": {
            "url": "https://api.pebblebrowser.com/adblocker/engines/df/1.14.2-engine.bytes",
            "checksum": "8e3fcfde840258d073d6a7d52754bf3b932801f5229d68f0ca4f411e29731f2d"
        },
        "121": {
            "url": "https://api.pebblebrowser.com/adblocker/engines/df/1.14.3-engine.bytes",
            "checksum": "bfe1d335a61006010144d3bb9a813ccadf72fea0bb735dc63f4042c86fb1f567"
        },
        "123": {
            "url": "https://api.pebblebrowser.com/adblocker/engines/df/1.14.4-engine.bytes",
            "checksum": "68b048912496acb59e2650d29bcd72d0b7974427a6a398641028a08f866591c8"
        },
        "138": {
            "url": "https://api.pebblebrowser.com/adblocker/engines/df/1.15.0-engine.bytes",
            "checksum": "da8a7c61dc244fa80aa0798f0b9728c055fe11355cab393569423c2c9dc1ef5e"
        },
        "140": {
            "url": "https://api.pebblebrowser.com/adblocker/engines/df/1.15.1-engine.bytes",
            "checksum": "04c5dbb35e102ae8340622be2a91555b74fc4fb4cd1999572da2eec4304a4ae0"
        },
        "156": {
            "url": "https://api.pebblebrowser.com/adblocker/engines/df/1.16.0-engine.bytes",
            "checksum": "71990312bde77f347ef5c0eb9ce08985c98ab50ba7a41fef162ab71a32361435"
        },
        "183": {
            "url": "https://api.pebblebrowser.com/adblocker/engines/df/1.16.1-engine.bytes",
            "checksum": "537ed4f67c111286b7b9efcd3df22a17865268e25298217ef35e1a3ef0fc9e9f"
        },
        "187": {
            "url": "https://api.pebblebrowser.com/adblocker/engines/df/1.17.0-engine.bytes",
            "checksum": "073800e2f17a4f869adcf57686bd0b63a28d443f2efe1b54e864b39bc45d8d44"
        },
        "230": {
            "url": "https://api.pebblebrowser.com/adblocker/engines/df/1.18.0-engine.bytes",
            "checksum": "5aeb5bec15b2519a2a48e7489f6c752bfde0065f89055c5ca2e8ef17f24aee6c"
        },
        "233": {
            "url": "https://api.pebblebrowser.com/adblocker/engines/df/1.18.2-engine.bytes",
            "checksum": "25d4f4ff37a7f931df478d9adecb59460600428c33c2473f47a0faa577eb4e6b"
        },
        "249": {
            "url": "https://api.pebblebrowser.com/adblocker/engines/df/1.18.3-engine.bytes",
            "checksum": "ae63789eab02fc2b9d6a3adb43d89614c0287e3d6143abdcec1dcdac119570d8"
        },
        "288": {
            "url": "https://api.pebblebrowser.com/adblocker/engines/df/1.18.4-engine.bytes",
            "checksum": "e0e912743e0b990c10988e34011e51cb1c68a0a26354ac02f5e8a415d8054f90"
        },
        "297": {
            "url": "https://api.pebblebrowser.com/adblocker/engines/df/1.18.5-engine.bytes",
            "checksum": "b7f13a5501818803866262f58129926f506ad98780a9f9862c4b5869e028bd32"
        }
    },
    "lists": {
        "easylist": {
            "url": "https://api.pebblebrowser.com/adblocker/resources/easylist/list.txt",
            "checksum": "2ae8e1b4112ba8551b23078336ddfee6a2d41be432fcc5984412032364396201",
            "diffs": {
                "c887672f8de612247b89a3386f9b4a70b1764b07292cd21c7f82800a15b7fe4f": "https://api.pebblebrowser.com/adblocker/resources/easylist/1.json",
                "4664404d62cb8c78e67da6b15a06ef27ba845468797ef4ae95c1e51f1fb5854f": "https://api.pebblebrowser.com/adblocker/resources/easylist/2.json",
                "0900fe7dbcfc5cf93ab0670e73f2ebd3dc219e67f08bcce558a1a85c52a7e89a": "https://api.pebblebrowser.com/adblocker/resources/easylist/3.json",
                "8772bed079521660e93390c2377a8fd789a17b73d6fcd3b18605b552ec28f290": "https://api.pebblebrowser.com/adblocker/resources/easylist/4.json",
                "0b92f228c3ecf59cb437acc695f9dfefbf0dfa60789f4a4bf0199b12f1052567": "https://api.pebblebrowser.com/adblocker/resources/easylist/5.json",
                "cd261c60a6cd08fc79ac7037e2de1f0096151e30586fb872ac1ea8acfbcbd821": "https://api.pebblebrowser.com/adblocker/resources/easylist/6.json",
                "075ca0957fb4245f55605f0db1a6f0748ef8317aa94ccddc151c5daac7651424": "https://api.pebblebrowser.com/adblocker/resources/easylist/7.json"
            }
        },
        "plowe-0": {
            "url": "https://api.pebblebrowser.com/adblocker/resources/plowe-0/list.txt",
            "checksum": "8723d3b6e34ef7ddb17ce6b30a0f27e59df4165822e97a2b8d725619d0899de3",
            "diffs": {
                "4689525bb94e8bc487527374295456ed2a13603cd5092a8876b58e3389a2619c": "https://api.pebblebrowser.com/adblocker/resources/plowe-0/1.json",
                "0ef012a9b293c523893a9cc0c48c729e40b1be907a644dbc92b81daf0ca175f1": "https://api.pebblebrowser.com/adblocker/resources/plowe-0/2.json",
                "55e4f7a04031cae54e1a6af74aa5432174d7d094d7b117e0a2e1c7335be266cd": "https://api.pebblebrowser.com/adblocker/resources/plowe-0/3.json",
                "4a08b6f5eb92809ec7ffd8263227653bf645f3e65a51cfe4f69dfc9a1bf85b44": "https://api.pebblebrowser.com/adblocker/resources/plowe-0/4.json",
                "caa557de49e7806fa49c216d0cf804163d7f191badcdfa53033165cc4958ef06": "https://api.pebblebrowser.com/adblocker/resources/plowe-0/5.json",
                "09fda4660fcba1931481d1d9e5dbe25c7aba25fe44f9d4bd8930d93d5c245a8e": "https://api.pebblebrowser.com/adblocker/resources/plowe-0/6.json",
                "2c3e31abb8445dd73bcf22985964badd8574415006923f6386d4e542db53c774": "https://api.pebblebrowser.com/adblocker/resources/plowe-0/7.json"
            }
        },
        "cliqz-filters": {
            "url": "https://api.pebblebrowser.com/adblocker/resources/cliqz-filters/list.txt",
            "checksum": "fa6066266d6cb63b29183cc23728dc3a57f131a10e0ec1380f49ee64ed1cb228",
            "diffs": {
                "e8cb433a9fbd0de4ddfeeed4067d3e0c58bd58af2df7ab4e81b6a2cee54f59b9": "https://api.pebblebrowser.com/adblocker/resources/cliqz-filters/1.json",
                "a0f4bc08f6b35170477aee1f5049be6b35a1e582d83325d3d758711c487ad5c3": "https://api.pebblebrowser.com/adblocker/resources/cliqz-filters/2.json",
                "f3d1934b7dd035d5c19ff5d89e0ae0eae4d521ef53de5e4ef6a686008f80040f": "https://api.pebblebrowser.com/adblocker/resources/cliqz-filters/3.json",
                "50b46fbf28896b63e01e74e227243ec5bcb9b211365b0d0b727b2a83f77298e6": "https://api.pebblebrowser.com/adblocker/resources/cliqz-filters/4.json",
                "11d07e887a48c0fd545727d4adbd6df720a853a964f4ac0d9c28193bd8eb6d5a": "https://api.pebblebrowser.com/adblocker/resources/cliqz-filters/5.json",
                "c6ee3ba23ab7e04de813fb0206eecb7d5587a358548786413e81130644c9b04f": "https://api.pebblebrowser.com/adblocker/resources/cliqz-filters/6.json",
                "75c2fd5efce022362d63988cfa820086112ee9e1fa0da22930fc753f2cdf0e35": "https://api.pebblebrowser.com/adblocker/resources/cliqz-filters/7.json"
            }
        },
        "whotracksme-filters": {
            "url": "https://api.pebblebrowser.com/adblocker/resources/whotracksme-filters/list.txt",
            "checksum": "38ec9e885a0708245c4d6a44755b511aeacc6c9c76d991f1ac040ad7debcc5ee",
            "diffs": {
                "dd29d82c9c8fb22e2d95194ec1f583e0a717e5f0f0e771c6aaf562876956168f": "https://api.pebblebrowser.com/adblocker/resources/whotracksme-filters/1.json"
            }
        },
        "ublock-abuse": {
            "url": "https://api.pebblebrowser.com/adblocker/resources/ublock-abuse/list.txt",
            "checksum": "fcc36338269784988449d986fb4491374c5f36dec3f525bfee0d35bf5a2a16b4",
            "diffs": {
                "f8dabf2456d7d232388df78c4331b3e59a18ef82940c64802d37bae59b0ee801": "https://api.pebblebrowser.com/adblocker/resources/ublock-abuse/1.json",
                "843adecb0240ab5bcded8ec25c3d5df0e25d2b01dd832d8ff3a3c655645d22a2": "https://api.pebblebrowser.com/adblocker/resources/ublock-abuse/2.json",
                "e4d09446295fe95721051dfe17704f6ddc4de618cd9a0e6c909e506589a8b763": "https://api.pebblebrowser.com/adblocker/resources/ublock-abuse/3.json",
                "57c0e2ab20924686d1a436e0f8106c4e14f0bc7037ca93f602b1c55c7cd5e453": "https://api.pebblebrowser.com/adblocker/resources/ublock-abuse/4.json",
                "2b7d5d51a921c1436b5bd8b9c33fce76267ab28019bb752279ad7a9255d2ddbb": "https://api.pebblebrowser.com/adblocker/resources/ublock-abuse/5.json",
                "7648feb62cdd76a8f94f4e3c20abcfd6d0c17232bd268f17bfec319a4e6285e6": "https://api.pebblebrowser.com/adblocker/resources/ublock-abuse/6.json",
                "d007306e38bae93e7c6ac22d9807a15926536fa35bd26bc9f5c4367b376b9cd6": "https://api.pebblebrowser.com/adblocker/resources/ublock-abuse/7.json"
            }
        },
        "ublock-annoyances": {
            "url": "https://api.pebblebrowser.com/adblocker/resources/ublock-annoyances/list.txt",
            "checksum": "a1b7648b2108e4c4ad0a745176f7f7235047d385f0649aa2454e15c15ef8aa12",
            "diffs": {
                "02b5c092395b70639b085fa840476fa3122a75e8897b28af944ee10f8295fdf3": "https://api.pebblebrowser.com/adblocker/resources/ublock-annoyances/1.json",
                "8aacf69b51a15bba34ce7c4040830b8326952b645d378f6fbc48d85d9cb29d46": "https://api.pebblebrowser.com/adblocker/resources/ublock-annoyances/2.json",
                "80c67008fcf7b1242ba18bf78253d8be8f4c55d6dba556e2823acd5c7408fd2e": "https://api.pebblebrowser.com/adblocker/resources/ublock-annoyances/3.json",
                "e01fcba0ec6d770e10c9f2136bb857fc5b3e5dbed2bf9a3152610e0c50e17fc3": "https://api.pebblebrowser.com/adblocker/resources/ublock-annoyances/4.json",
                "b08ec2275614c0d326b204cf166eb96e175057c6571f77c748d3ef48db7a7e17": "https://api.pebblebrowser.com/adblocker/resources/ublock-annoyances/5.json",
                "a895a325b25fb39210e0c6c9e0e14a64620387a4fa9b028e2cfafb5e5aad7feb": "https://api.pebblebrowser.com/adblocker/resources/ublock-annoyances/6.json",
                "deb781b4376011dcd9792a376b12aa74fa8d47cfa49d74c95dfc35cffac09752": "https://api.pebblebrowser.com/adblocker/resources/ublock-annoyances/7.json"
            }
        },
        "ublock-badware": {
            "url": "https://api.pebblebrowser.com/adblocker/resources/ublock-badware/list.txt",
            "checksum": "0ee19870f391723ae2831a9f1b8ec64f39483e21ca036ff1e4f85daa7a1b0dd6",
            "diffs": {
                "c202efac789e94fd27d5b4867a853a580bea82e449884853b1374c9b63edb622": "https://api.pebblebrowser.com/adblocker/resources/ublock-badware/1.json",
                "52adeeaf7772c1b1497e2b062d7d9bcd8c9aac378dbff8331f3bf14809593639": "https://api.pebblebrowser.com/adblocker/resources/ublock-badware/2.json",
                "e0bde1c9658897a0cf3e96165306edecb740ebdf56bd30b48e16e8ec567a6a33": "https://api.pebblebrowser.com/adblocker/resources/ublock-badware/3.json",
                "3b116570b728dfb2473bd316498b31e0da9adc8e146d048b33c45b34fc5d6981": "https://api.pebblebrowser.com/adblocker/resources/ublock-badware/4.json",
                "6d2a586d25dfc366b36526b7f6f24899b5bd232579036275fc244ebe56c131e6": "https://api.pebblebrowser.com/adblocker/resources/ublock-badware/5.json",
                "b61e8a6b9a4556940c513611c8f587294d75180646da6f6203cbd9e137d8db96": "https://api.pebblebrowser.com/adblocker/resources/ublock-badware/6.json",
                "f66a4d6f6b22c41bf5b7bca6c2921570703684a86df722c60a2feac8e3411464": "https://api.pebblebrowser.com/adblocker/resources/ublock-badware/7.json"
            }
        },
        "ublock-filters": {
            "url": "https://api.pebblebrowser.com/adblocker/resources/ublock-filters/list.txt",
            "checksum": "d71f2f663356dd6daab25b66fe7c18fbc6d4b6333eadf17af9c84a06c2e5fb2c",
            "diffs": {
                "e246032694c0e53d8d480a158fdb96a87f62d8d3812ab3ba58e0b9961d7cc9d5": "https://api.pebblebrowser.com/adblocker/resources/ublock-filters/1.json",
                "50d669d7ce43933e7a311d22af341d0f65104ec624f1e538c6b422bfaa4807b7": "https://api.pebblebrowser.com/adblocker/resources/ublock-filters/2.json",
                "8cf323da742cf649b0e39481cedfdf6edabc34a06633a10cf05d441ae2b40e67": "https://api.pebblebrowser.com/adblocker/resources/ublock-filters/3.json",
                "337b5392570c5a35a30079f2ba44867df0b46ded9e3c4f52f898dbe8f020f24d": "https://api.pebblebrowser.com/adblocker/resources/ublock-filters/4.json",
                "d2081bbb5cc2284f3484f284a4ee22a0068481d6be95793d1572c5d6cfb308d3": "https://api.pebblebrowser.com/adblocker/resources/ublock-filters/5.json",
                "08e6f0e6737ec726d73dd09633b1a4318a42f947e5e93425e3a6fd38960322ad": "https://api.pebblebrowser.com/adblocker/resources/ublock-filters/6.json",
                "88a4c672c50e46d44c804fd4f01d6c8f973adac08a44d95bf89d8cfee7c1f013": "https://api.pebblebrowser.com/adblocker/resources/ublock-filters/7.json"
            }
        },
        "ublock-filters-2020": {
            "url": "https://api.pebblebrowser.com/adblocker/resources/ublock-filters-2020/list.txt",
            "checksum": "357b260997b63bc9153e566acfbf129c46cd50cfa87891cb842638de7aa9cabf",
            "diffs": {
                "592225161955a0b3388cfb834761d41de1f1bf1f92334f1894b9d69b02bacc17": "https://api.pebblebrowser.com/adblocker/resources/ublock-filters-2020/1.json",
                "917f85e8f153bba361d93fd6273168925e293b6d96c54179ab34e019ab62c011": "https://api.pebblebrowser.com/adblocker/resources/ublock-filters-2020/2.json",
                "eb5924ca2935e6d3d9e83ea7a3c9a1cb6aeb8b5986044b9e418846b069d9e764": "https://api.pebblebrowser.com/adblocker/resources/ublock-filters-2020/3.json",
                "2dabbbdf0c40f19777d7a08fb17ffa5b6f88537e7ee33c1e75c7d235ceeffca4": "https://api.pebblebrowser.com/adblocker/resources/ublock-filters-2020/4.json",
                "c85e02275f1a4362989bac3bdd6cfa5215d9d3ddc9625eec58dd36b3df2628ad": "https://api.pebblebrowser.com/adblocker/resources/ublock-filters-2020/5.json",
                "e12ffe587ecc4a1cfde85b543d66955ec282109c162202f68b9d5828c9ddc48a": "https://api.pebblebrowser.com/adblocker/resources/ublock-filters-2020/6.json",
                "729c3778cff842c6f2ef39326043cabf1993b56e9d3837879b905ed849e63db5": "https://api.pebblebrowser.com/adblocker/resources/ublock-filters-2020/7.json"
            }
        },
        "ublock-unbreak": {
            "url": "https://api.pebblebrowser.com/adblocker/resources/ublock-unbreak/list.txt",
            "checksum": "837934f6f38c2d6958801ce5f915eecbef1cdf62adea45a004f03f645e85f644",
            "diffs": {
                "7754191594284e94c8b56fea2f2c1372dda8bea0ea711169cbe937210bdc58a0": "https://api.pebblebrowser.com/adblocker/resources/ublock-unbreak/1.json",
                "3f2025e3c29712c8c10385ed07bec81a96096f6345aecff5a5b4e93135a2a4cf": "https://api.pebblebrowser.com/adblocker/resources/ublock-unbreak/2.json",
                "e48f4d841ec32d52da62ce31b923e5da40ed8fa754af6aeae096069f8f5c8499": "https://api.pebblebrowser.com/adblocker/resources/ublock-unbreak/3.json",
                "24990a7260a995df6f66c05670dccd2a8453eecbf05fe691b5dbbc9e9708cd06": "https://api.pebblebrowser.com/adblocker/resources/ublock-unbreak/4.json",
                "a0ed632352fce1834bb08f45d78855ff828e0cd7e7bb4cfb89e0a24b4850e6a7": "https://api.pebblebrowser.com/adblocker/resources/ublock-unbreak/5.json",
                "f54fd304bceb6cba3564d22b30decf30669c6ebc862e2f58064674c36704caf5": "https://api.pebblebrowser.com/adblocker/resources/ublock-unbreak/6.json",
                "01255ddcb165292200d7973e6e87ccadf02aaf490b61c084e262434f901bedab": "https://api.pebblebrowser.com/adblocker/resources/ublock-unbreak/7.json"
            }
        },
        "french-filters": {
            "lang": "ar fr",
            "url": "https://api.pebblebrowser.com/adblocker/resources/french-filters/list.txt",
            "checksum": "528926814755be6d599a2e3228a8e4ccc37d4e90875bfd54584249a64c1fc76b",
            "diffs": {
                "8287a860c692e9bc61bdf10254908b141055e8eeb6bf037e5fc12a34da0962d9": "https://api.pebblebrowser.com/adblocker/resources/french-filters/1.json",
                "f55a754b3bc9a9bde89f8ffdfcace523c78e5b37a6cc6a78374585a1f2983512": "https://api.pebblebrowser.com/adblocker/resources/french-filters/2.json",
                "2c2f222b332127dfb64912758ce65de4dbc0968985cf752b283920d170ecb6bc": "https://api.pebblebrowser.com/adblocker/resources/french-filters/3.json",
                "58a33158528a440fd228795919b58389abd96099dfee8b96f58da1c0a18a4790": "https://api.pebblebrowser.com/adblocker/resources/french-filters/4.json",
                "8c18255c654cc4287727c0ee67aa846a63554eab418f8ada08652044e26e51f7": "https://api.pebblebrowser.com/adblocker/resources/french-filters/5.json",
                "6647bab0fbf3bfd86c3665edbfcb0f4e61f7be497c16a376c3530a2d23f99547": "https://api.pebblebrowser.com/adblocker/resources/french-filters/6.json",
                "406fd01836d646a09045af4bb33359d106e9378695782304d69f6598aef1574c": "https://api.pebblebrowser.com/adblocker/resources/french-filters/7.json"
            }
        },
        "german-filters": {
            "lang": "de",
            "url": "https://api.pebblebrowser.com/adblocker/resources/german-filters/list.txt",
            "checksum": "21af02f3e8d14fc438205dd6d2c5fb2ba984c9c5d8992c091b92735c36029838",
            "diffs": {
                "744637dbc542703654958072a634cf5848ab68eea7d1c3a66eabc7f0f6f89e6b": "https://api.pebblebrowser.com/adblocker/resources/german-filters/1.json",
                "c252bf25b7b0b39475318bd9b1b51949974e60eb0ae65ca2feff95bb374c4552": "https://api.pebblebrowser.com/adblocker/resources/german-filters/2.json",
                "04ddad15b600b48474eb5f0734482c01cb223fc8f7daf7c7b12f5cbf15b86467": "https://api.pebblebrowser.com/adblocker/resources/german-filters/3.json",
                "4bee2b85912e1e7b9eb20cc87bf9d976866da2ee724dae342f0e92b8d0a4d77e": "https://api.pebblebrowser.com/adblocker/resources/german-filters/4.json",
                "b514831ce0dabd714974804d4b14991e9d360301034b6e0aa576ce448ea7c131": "https://api.pebblebrowser.com/adblocker/resources/german-filters/5.json",
                "9d6c820af097d91896160eb1bb459b45a7e778da9345f150825db43a0b42b738": "https://api.pebblebrowser.com/adblocker/resources/german-filters/6.json",
                "fc10eebf08c8e77a38fae6c10cb2b73df3d6938bca16c5cacd31fdf01958c4ba": "https://api.pebblebrowser.com/adblocker/resources/german-filters/7.json"
            }
        },
        "greek-filters": {
            "lang": "el",
            "url": "https://api.pebblebrowser.com/adblocker/resources/greek-filters/list.txt",
            "checksum": "791de83fa47111e0b7555b5e81b9b1278ae2518be250f8093a01677101698b85",
            "diffs": {
                "52d6c6a07c0efe70908037d2bc098f2ed9270cae4ce7de7442c3f0b0d1f2881a": "https://api.pebblebrowser.com/adblocker/resources/greek-filters/1.json",
                "0ba44041d0b126ac66c8aa52c8d52ece429ce9e16e492523cbe07329139c0fa2": "https://api.pebblebrowser.com/adblocker/resources/greek-filters/2.json",
                "ed49fcd7f09ff32e0aded9039d6dc1562388b81a91f034d4eb955db6b0994e2f": "https://api.pebblebrowser.com/adblocker/resources/greek-filters/3.json",
                "7d921b2487316da7940bdbe4bba7feca41cbd68b469211ce973700ea224fb06e": "https://api.pebblebrowser.com/adblocker/resources/greek-filters/4.json",
                "00ef5cd3dcbcad43115eb42bee28f755cd3cced3d0980df201a14e97fc3ebbad": "https://api.pebblebrowser.com/adblocker/resources/greek-filters/5.json",
                "cec9a5648feb951c6da9cf08a5b83a4298dcb5ffee82b532478486070475f40f": "https://api.pebblebrowser.com/adblocker/resources/greek-filters/6.json",
                "069e589b2d44455a4976838e8db51e622d225276b9fdb31d1bd1cb3c7b98af3d": "https://api.pebblebrowser.com/adblocker/resources/greek-filters/7.json"
            }
        },
        "italy-filters": {
            "lang": "it",
            "url": "https://api.pebblebrowser.com/adblocker/resources/italy-filters/list.txt",
            "checksum": "f9c1c180f52042c8d4307ba15e973fdc8ee94bbcf29de5f4230294c6f84aec6b",
            "diffs": {
                "e66f6bb5532d6db2b6377f4de3274ce6492c33e2f548ee17bd73db588cf03947": "https://api.pebblebrowser.com/adblocker/resources/italy-filters/1.json",
                "22b4d12bab22159b767af2da21d804cc723418f7616f00ada960ed7fdcec64f8": "https://api.pebblebrowser.com/adblocker/resources/italy-filters/2.json",
                "f1f0d95db021249a93a69a3f83fd9066cbdaf231485f3e2bfb43595c8fd4d9a9": "https://api.pebblebrowser.com/adblocker/resources/italy-filters/3.json",
                "8ac159d801355367fb6b72661a923fe45bd47a746988711501deb486791100c6": "https://api.pebblebrowser.com/adblocker/resources/italy-filters/4.json",
                "615f2d8e4b1714386f3629dedd301dcfa2b0935bb7e5bf082e1cb190c31ac402": "https://api.pebblebrowser.com/adblocker/resources/italy-filters/5.json",
                "1b8ccc2b6eebbe38dc0859fcbfcb732f7e31d8630c39e41762ef126f41e339fe": "https://api.pebblebrowser.com/adblocker/resources/italy-filters/6.json",
                "85b30e0c89addcac48bc42c24fac5fc02fa16e111d682c8b15afe1297e58e345": "https://api.pebblebrowser.com/adblocker/resources/italy-filters/7.json"
            }
        },
        "turkey-filters": {
            "lang": "tr",
            "url": "https://api.pebblebrowser.com/adblocker/resources/turkey-filters/list.txt",
            "checksum": "e7117c93280c34ca60ca3b2120bff02eeeccaa147db57dd3ee8b1a1587ba7ff0",
            "diffs": {
                "df99a3fc4312012b28c47c0e72028720c50f7b0e98379b417e1e59d3964df951": "https://api.pebblebrowser.com/adblocker/resources/turkey-filters/1.json",
                "5950f15d62d7bad484bfade2505a1147f2f99bd35560378c2b5f3da333a739f5": "https://api.pebblebrowser.com/adblocker/resources/turkey-filters/2.json",
                "a794df105d3525cd9faceee18b30249987fca0d6ec6579930e73213dc842ebf4": "https://api.pebblebrowser.com/adblocker/resources/turkey-filters/3.json",
                "fb0251fedc9c67fbf14919a1c2f29d342fed4c39f1814241f44994146a010bdb": "https://api.pebblebrowser.com/adblocker/resources/turkey-filters/4.json",
                "915f114a6555412ebbf4f817701f2133a3112abd9c64d5e8417c1a555af52910": "https://api.pebblebrowser.com/adblocker/resources/turkey-filters/5.json",
                "9b1b7d35a96ea2da1aae0eaa9840f30ac9a5d7ad617ec1c0184af3ce6bea45dd": "https://api.pebblebrowser.com/adblocker/resources/turkey-filters/6.json",
                "85cf10f1ec60187a5403380549fd2fa204845c788dba50524ab8a07d7e6a3b15": "https://api.pebblebrowser.com/adblocker/resources/turkey-filters/7.json"
            }
        },
        "russian-filters": {
            "lang": "ru uk",
            "url": "https://api.pebblebrowser.com/adblocker/resources/russian-filters/list.txt",
            "checksum": "28aad7e590873ed74d3b5f5342712c6d3724e5846a9e0635f3674fae30df53ef",
            "diffs": {
                "cd60698c90cb14786e4fd04857a191a92e16a2ce5aaf88c97d01c1d7036aa117": "https://api.pebblebrowser.com/adblocker/resources/russian-filters/1.json",
                "d55860f592155c86ad48e1b07fd4fbd0f03cd96b37af4a751edbd4982e8963d6": "https://api.pebblebrowser.com/adblocker/resources/russian-filters/2.json",
                "f02e478e26596d21ec22deb76b353370a3e4d945546e9578eb9d887ca18260ab": "https://api.pebblebrowser.com/adblocker/resources/russian-filters/3.json",
                "63ae8ccda738f81e49529a7dfbf8e875a7d60c11f1cb7c125cf3fdabb48b0fd6": "https://api.pebblebrowser.com/adblocker/resources/russian-filters/4.json",
                "ec02363e04f32f5097df8f16613baf16494e3d1c75a8dadb0a7bd89608da569a": "https://api.pebblebrowser.com/adblocker/resources/russian-filters/5.json",
                "ce28c1e73235cad258f7411375a437ed20a43806b8c9b5485f2fbcc10e3f1bee": "https://api.pebblebrowser.com/adblocker/resources/russian-filters/6.json",
                "38e480499c5df67b3eaa028d5a63e9feed7de06be76be3a84f041cc58d4dc5fd": "https://api.pebblebrowser.com/adblocker/resources/russian-filters/7.json"
            }
        },
        "1p-filters": {
            "url": "https://api.pebblebrowser.com/adblocker/resources/1p-filters/list.txt",
            "checksum": "72e042c74aea5150698bf18afdd2e6de9895e062f186498b95cbb3fdd4699eb1",
            "diffs": {}
        },
        "easyprivacy": {
            "url": "https://api.pebblebrowser.com/adblocker/resources/easyprivacy/42f0339fb983f61a1df63c9cc1f373ce801fa3b0c932373ac135dd76b1854efc/list.txt",
            "checksum": "42f0339fb983f61a1df63c9cc1f373ce801fa3b0c932373ac135dd76b1854efc",
            "diffs": {
                "a9a47be41b757639143c808db6c2317fa0a8a897269ffe8ed07e98ab40f7feee": "https://api.pebblebrowser.com/adblocker/resources/easyprivacy/1.json",
                "463e8ad684475949328e3ac7d765116bd7c291e4d0f6d4e4a72e1dd384ff066a": "https://api.pebblebrowser.com/adblocker/resources/easyprivacy/2.json",
                "694bfa06ebc4f3a60fa6894f43c5216cb8855180f197cf2ec313efc445e3fbfb": "https://api.pebblebrowser.com/adblocker/resources/easyprivacy/3.json",
                "3a70d0ab0e4f4b2cebaa8b39e79ebad854389a193c7e2c03dd4b5c55fc68e3e6": "https://api.pebblebrowser.com/adblocker/resources/easyprivacy/4.json",
                "a392f989cc84903d4d6a96358f333f1a5ed690920de9a604d303cc2d533de8f9": "https://api.pebblebrowser.com/adblocker/resources/easyprivacy/5.json",
                "75bbb7f9e6f978125c74726799b92f12b8eb81db489460d8431d79507bc8bc49": "https://api.pebblebrowser.com/adblocker/resources/easyprivacy/6.json",
                "f5a5d45c8baff7435beeeaa2003238df79204e452ec1e78f9eecf982708c2b4e": "https://api.pebblebrowser.com/adblocker/resources/easyprivacy/7.json"
            }
        },
        "ublock-privacy": {
            "url": "https://api.pebblebrowser.com/adblocker/resources/ublock-privacy/list.txt",
            "checksum": "53fc0b90afddd465e22f509197a7c389e5573e354033a2110b67a2d9b64dd318",
            "diffs": {
                "787acf8d78d4cd843e585f45b309020231f805435160e7038dfcea52ac63d980": "https://api.pebblebrowser.com/adblocker/resources/ublock-privacy/1.json",
                "68f9726c9ae02b3f41ffbc50b77f5878e58526ae7816ebdb76c90ed79d3bc60e": "https://api.pebblebrowser.com/adblocker/resources/ublock-privacy/2.json",
                "e852f83f09da5c8b2a0cb0ae7fa847de87d69f45e41481aabfe8a411c57d6bf1": "https://api.pebblebrowser.com/adblocker/resources/ublock-privacy/3.json",
                "43b51a3a975e5e8201b577ec10e99a7b0438b42ebcb16a08b95eddd13cb5045b": "https://api.pebblebrowser.com/adblocker/resources/ublock-privacy/4.json",
                "fe97130e6503cdcee85fadce8749627dd43347ee32324ffad35f13f0b4a3bf97": "https://api.pebblebrowser.com/adblocker/resources/ublock-privacy/5.json",
                "96488891527ef08861c69fd712a3ec389b389eb24f8c0d95b634bc11ed575c25": "https://api.pebblebrowser.com/adblocker/resources/ublock-privacy/6.json",
                "3240ad24140e1a3388d427e34a2537f93afb5e124cab00a72ab73cda2a7f289d": "https://api.pebblebrowser.com/adblocker/resources/ublock-privacy/7.json"
            }
        },
        "cliqz-filters-annoyances": {
            "url": "https://api.pebblebrowser.com/adblocker/resources/cliqz-filters-annoyances/list.txt",
            "checksum": "5e3787cd444092b30b624d2b98c58c73298ab349bfb6ae30a6671dce7088d354",
            "diffs": {}
        },
        "easylist-cookie": {
            "url": "https://api.pebblebrowser.com/adblocker/resources/easylist-cookie/b352501e42b37064918563b67e4e5eebe631b7958fe3807221a3eaa675bac2b7/list.txt",
            "checksum": "b352501e42b37064918563b67e4e5eebe631b7958fe3807221a3eaa675bac2b7",
            "diffs": {
                "82daec7ae40ecb4611b9970d28aeafebe4a6ce24b311627e41cca5c55cb4d80a": "https://api.pebblebrowser.com/adblocker/resources/easylist-cookie/1.json",
                "ed2100cc2f425c5e2cb9e24725ae8bd0192b97c416d0a3c6dd3ba3f8f44577b3": "https://api.pebblebrowser.com/adblocker/resources/easylist-cookie/2.json",
                "627da2d22872bec45caca5eb5f72a780712ef641ef4c8e450aae749f82fd501d": "https://api.pebblebrowser.com/adblocker/resources/easylist-cookie/3.json",
                "b50103a5dd3bf84a3874d4c83eafa263c64a9ea125e0db9406ae56500a17d760": "https://api.pebblebrowser.com/adblocker/resources/easylist-cookie/4.json",
                "e4a4d9b7ab1b2302a6f6007e3f7c5ba5faf1f8a244db9618ce5072836d5a1ae3": "https://api.pebblebrowser.com/adblocker/resources/easylist-cookie/5.json",
                "dcbe17159fd56e31975e438e240641754a39ceb095cd14d4a3bbda88595ffee2": "https://api.pebblebrowser.com/adblocker/resources/easylist-cookie/6.json",
                "6388338873d4a538542fb1bf45e459a9eede21ec633e070cf36e49f1f9f87a68": "https://api.pebblebrowser.com/adblocker/resources/easylist-cookie/7.json"
            }
        }
    },
    "resources": {
        "url": "https://api.pebblebrowser.com/adblocker/resources/ublock-resources/list.txt",
        "checksum": "78ca65dc81beddf4efb9d6fedd82997bd7bf326a89e76a85cf9b4f45fb046d5c"
    }
}