{
    "added": ["-bk.ligastavok.ru^$third-party,script", "||highflyers.ru^$third-party", "||vafrike.ru^$third-party", "||zdos.ru^$third-party", "||1domenbank.ru^$third-party", "||adsgarden.com^$third-party", "||advertmi.ru^$third-party", "||ainsyndication.com^$third-party", "||bidtizadd.ru^$third-party", "||carplaytoday.site^$third-party", "||cdn-bk.ligastavok.ru^", "||dvwnfic0apgjlhv.ru^$third-party", "||engine-bk.ligastavok.ru^", "||stopvirus.link^$third-party", "||usocial.pro^$third-party", "||viewst.com^$third-party", "||wait.re^$third-party", "||ymjfhg.com^$third-party", "||znewswork.com^$third-party", "$third-party,script,domain=1poclimaty.ru|24film.top|2planeta.ru|2womans.ru|36doors.ru|4damki.ru|4k-kino.net|7ba.org|7ba.ru|a-dot-kinozal-tv.appspot.com|a-text.ru|accountingsys.ru|activestudy.info|agronom.expert|agronomam.com|agronomu.com|alcogolizm.com|alimero.ru|alkogolu.net|alkomir.net|alkotraz.ru|allsport-tv.ru|amperof.ru|anitorrent.ru|anypictures.ru|aogor.ru|apihot.ru|apkhleb.ru|apornoonlain.tv|appmo.org|artremstroi.ru|assz.ru|astrolibra.com|avtopilot61.ru|bad-room.ru|bermen.ru|besstidniki.ru|bestwagen.ru|bestweapon.ru|bit-lite.com|bookmo.org|breaking-bad.tv|bukin.tv|bulvisa.ru|businessmonster.ru|car3g.ru|cardio-life.info|carmen62.ru|centrelizarova.ru|chasov-master.ru|chepok.xyz|chernovsky.ru|chrome-portal-russia.ru|chudesnyemesta.ru|ckmosstroy.ru|clubkaksdelat.website|com-x.life|cools.biz|cools.dj|cosmo-frost.ru|crazyatomicgames.com|cvid.kiev.ua|dachnyuchastok.ru|delphimaster.net|devki.life|dextv.net|diabethelp.org|diabetik.guru|diametod.ru|document-expert.ru|drevovid.ru|dzd54.ru|ecofoodferma.ru|ecoinform.ru|economics-prorok.com|electroinfo.net|ellunium.ru|enigma-project.ru|erokomiksi.com|erokomiksi.org|eromo.org|erzsebet.org|etikket.ru|eurasia96.ru|ewaline.su|fanserial.net|fermahelp.ru|fetish-porn.online|fgssm.ru|fialka.tomsk.ru|film-ua.com|filmisub.com|filmitorrent.site|films-online.club|filmy-online.be|fit-ness24.ru|fitnessera.ru|fitohome.ru|flashfm.ru|flibusta.site|flower-vrn.ru|fonzo.ru|football-game.club|freepiks.ru|friends-online.me|fullpcgame.ru|games.portal.md|gaming-torrent.net|gastris.ru|gejzer.ru|gfilm.club|gidfermer.com|glaza.guru|goblins-online.ru|godzfilm.net|gold-song.ru|golovaneboli.ru|golovnie-boli.com|goodfilm.top|grand-lion.ru|grand2.ru|gubka-bob.ru|gwss.ru|hajr.ru|halalmemorial.ru|happy-biock.info|happy-block.info|hdkino.biz|hentai-x.ru|hentaiz.org|hentasis1.top|hi-electric.com|historyam.ru|hitmo.org|homeporn.website|horror.name|hot-matures.com|hotmo.org|howto-news.info|huyamba.tv|igra-prestolov.online|igrozoom.ru|iiotconf.ru|indi1.top|instrument16.ru|interesnoevmire.ru|inzhener-info.ru|irinazaytseva.ru|iv-modelist.ru|iz-kirpicha.su|joporn.net|ka4nem.ru|kabel-house.ru|kakpishem.ru|kape.cc|kapec.tv|kapectv.com|kapez.net|kartgeoburo.ru|kino-cinema.info|kino-history.net|kino-life.net|kino4k.in|kino4ua.net|kinobal.ru|kinobaza.info|kinoboom.su|kinocok.org|kinofilmpro.ru|kinofilmu.net|kinogoby.ru|kinohd-novinki.online|kinoking.club|kinopark.su|kinopleer.net|kinopovtor.online|kinoroom.biz|kinosafe.net|kinospace.be|kinospot.me|kinotorrs.me|kinotravel.co|kinotruea.club|kinovau.club|kinovhod.xyz|kinozal-me.appspot.com|kinozal-tv.appspot.com|kinozal-zerkalo.appspot.com|kipolino.site|klopkan.ru|klub-masterov.ru|knigogo.net|korneevroman.ru|kostitv.ru|kotmurka.ru|krov.expert|krovli-zabori.ru|kslift.ru|kubus-expo.ru|kulinarnayamozaika.ru|laservirta.ru|lgotivam.ru|lidrok.ru|lifegid.com|lion-tv.org|lordfilm.fun|lordfilm.guru|lostfilm-hd720.ru|lov16.ru|lucky-girl.ru|luckyfamilyman.ru|luxurytv.online|manrem.ru|manswoman.ru|many-books.org|maxifilm.live|mdroit.com|med-heal.ru|medicafit.ru|medkurs.ru|meduniver.com|mega-porno.me|megatfile.cc|meizer.kz|mhub.top|minusx.ru|modeland.ru|mods-craft.ru|moekopchenie.ru|moifundament.ru|moiinstrumenty.ru|momentpereloma.ru|momssite.ru|moreprodukt.info|moriana.ru|mostech-group.ru|moy-instrument.ru|mp3-muzyka.ru|mp3top.vip|mpsdoc.com|mschistota.ru|msutt.ru|muzmo.cc|muzoffs.ru|muzter.net|my-music-kiosk.ru|myseasonvar.ru|mysekret.ru|mzmuz.ru|nameology.ru|nash-sekret.ru|nashaplaneta.su|nasheporno.tv|nasimke.com|natrukodel.ru|natural-cosmetology.ru|neurodoc.ru|new-baskino.ru|new-kinokrad.club|new-kinokrad.co|new-kinokrad.net|nightmare.su|nitkoj.ru|nosnebolit.ru|obmenvsem.org|obuchonok.ru|ogradim.su|ok-tv.org|okommunalke.ru|olgushka1971.ru|omesyachnyh.ru|onwomen.ru|opensharing.org|os-helper.ru|osortah.ru|otfortlove.ru|otsvetax.ru|ovetryanke.ru|ozge.ru|papa-carlo.su|parnuxi.biz|parnuxi.com|pasmr21.ru|pejnya.me|pejnya.net|pejnya.org|pererojdenie.info|pic-chik.com|picusha.net|pinetka.com|pipdecor.ru|pixcloud.ru|pkrc.ru|planetatain.ru|planshet-info.ru|pmc-perm.ru|pobegtv.ru|podrobnosti.ua|poimel.live|politeka.net|porn720.biz|pornk.pro|pornolomka.com.ru|pornorasskazy.com|pornorota.net|pornotor.org|porus.ru|posudaa.ru|powerserial.club|praviloserdca.ru|prestolov.me|pricheska-strizhka.ru|prikoly2016.ru|pro-acne.ru|proiptv.top|pronpic.org|prookna.info|proua.com.ua|provsehsobak.ru|ptitsadoma.ru|radio-angusht.ru|radnuk.info|rastenia.info|remont-avtovaz.ru|repack-xatab.ru|repka.online|ringon.cc|rogoff.club|roypchel.ru|ru-tor.tech|rubook.org|ruporus.biz|ruporus.cc|ruporus.com|ruporus.net|ruporus.top|ruporus.tv|ruporus.xyz|rustico.ru|rustland.ru|samplepro.ru|sasisa.ru|sbankin.com|sberbanki-onlajn.ru|screenpost.ru|scribble.su|scrin.org|sdelayusama.ru|serial-mentalist.ru|setfilms.net|sex-comics.mobi|shaggyimg.pro|shiryaevpavel.ru|shlupkatv5.name|si-3.ru|siestafit.ru|sinkovskoe.ru|skorogovo.ru|smartsowet.ru|smotret-fizruk-online.su|smotritut.online|soderzhanki2.ru|software-expert.ru|solutics.ru|sorokam.ru|soundtracks.pro|spar.org.ua|sportsalo.com.ua|sputres.ru|sssexxx.net|starlinemedia.ru|statusdm.ru|stilvann.ru|stop-tarif.ru|studfiles.net|subject.com.ua|subscribesmer.info|suncallin.ru|surgeryzone.net|svarkaed.ru|sweetbook.net|swoofe.ru|t1pochek.site|tapehub.tech|terev.ru|thetarif.ru|thisisus.ru|tip0chek.site|tipochek.xyz|tivix.co|tnt-online.life|tolkorus.info|tolmax.ru|topfacts.com.ua|topfacts.top|topmigrant.ru|topruporno.net|torrent-bro.ru|torrent-igruha.co|torrent-igruha.org|torrent-pirat.com|torrent-post.ru|torrentinka.me|torrentor.pro|torrentss.ru|torrentx.me|trand-store.ru|travelinthesky.ru|trend-city.ru|trupornolabs.org|tupikov.ru|turkish-tv-series.ru|tushkan-tv.net|tvizor.org|tvua.biz|uk-unblock.xyz|ukrlit.net|ukzdor.ru|umeha.3dn.ru|uraltrack.net|utorrentfilmi.ru|vashipitomcy.ru|vasque-russia.ru|veterinargid.ru|vhd1080.online|vi-pole.ru|videotut.live|vidmo.org|vikimult.net|vitaminius.ru|vjazanie-kreativ.ru|vklook.ru|vodakarta.ru|voin.guru|volosipro.info|volshebstvozizni.ru|vona.pp.ua|voyeyrist.com|vpopke.com|vpoz.ru|vsedeserti.ru|vseprokley.ru|vskazke.tv|vtekb.ru|vtorothodi.ru|vtrende72.ru|weaponland.ru|webhalpme.ru|webmaster.pp.ua|wikimetall.ru|windows-portal.pw|windowspro.ru|withcars.ru|world-knigi.ru|x-16.ru|x-minys.ru|x-video.top|xhdporno.porn|ximepa.ru|xittv.net|xn----7sblrbejkkdaeg5b2g.xn--p1ai|xn----8sbp3abdbfk9f.com|xn--d1ach1ajefc.net|xpicture.ru|xsound.kz|xxx-igra.com|ya2018.com|yaldagames.com|yaporn.club|yardyam.ru|yazdorov.win|yhogorlonos.com|z-torrents.ru|zaostalprom.ru|zapiski-stomatologa.ru|zarlit.com|zdorovo-zhivi.ru|zelenj.ru|zf-fm.top|zhkhinfo.ru|zombik.biz|zoom.ru.net", "$third-party,xmlhttprequest,domain=24video.adult|24video.click|24video.net|24video.vip|4films.net|allhentai.ru|anisima.ru|arablionz.tv|artrozamnet.ru|autotopik.ru|baskino.fun|bigpuzzle.ru|bubluoteka.org|diakov.net|eku.ru|familyspace.ru|farap.ru|fast-torrent.co|film1080p.ru|filmitorrentom.org|findanime.net|ggtube.pro|gorodche.ru|gorodvo.ru|hd-720.com|hdkino.vip|hdklub.com|hdsite.net|hochu.tv|kaztorka.org|kino-hit-online.com|kino-klub.net|kino-tvserial.online|kinogo.cc|kinohd.net|kinohd.ws|kinosvit.tv|kogda.org|magicfilm.net|mainavi.ru|moviebuster.tv|neolove.ru|newcloud.tv|nisorinki.net|nnm-club.lib|nnm-club.me|nnmclub.ro|nnmclub.to|online-hd.biz|onlineguru.ru|ostfilm.tv|pc-torrents.net|pogoda.e1.ru|privat-fotka.ru|prokazan.ru|ru-kino.com|ruvi.tv|seasonvar.ru|shtorm777.ru|smotriserial.me|superhumor.ru|telspravochnik.com|top-radio.ru|torrent-soft.net|torrentshow.org|tryserial.net|voffka.com|vse-sezony.org|yummyanime.club|zk.fm", "$websocket,domain=0day.kiev.ua|192.102.7.159|193.106.30.70|193.106.30.84|1kinobig.ru|1kinogo.net|2000.ua|24molnia.com|24tv.ua|2baksa.net|3dn.ru|3porosenka.ru|4ertik.xxx|4films.net|4torrentgames.net|5.ua|abook-club.ru|ace-stream.tv|addpg.net|ahs-online.net|ahs-online.xyz|alexlan.org|all-best.pro|all-tor.net|allbesta.cc|allbesta.org|allmovie.pro|allmovie.tv|allsport-news.net|anatomia-strasti.com|anime-rus.ru|animespirit.ru|anti-block.org|apostrophe.ua|argumenti.ru|artword.com.ua|asbook.co|asbook.net|asn.in.ua|astro-tv.net|au-books.com|audilka.com|autonews.com.ua|ave-brasil.ru|babla.ru|babushky.ru|badcinema.ru|badtorrent.com|bagnet.org|baskino-hd.ru|baskinohd.ru|baskinonet.ru|bazkino.club|belnovosti.by|benfilm.net|bestnavi.ru|bestserials.net|big-bang-online.ru|big-tor.org|bigbang-tv.net|bigbangtv.space|bigcinema-hd.tv|bigcinema-online.ru|bigcinema-tv.club|bigcinema.org|bigcinemahd.net|bigkiev.com.ua|bit-tor.org|blogspot.com|blogspot.ru|bludlivaya-california.com|bo-em.com|bombardir.ru|book-online.com.ua|bookitut.ru|bookskeeper.ru|brovary.net.ua|bugaga.ru|business.ua|cat-a-cat.net|cccp-kino.com|champion.com.ua|com-x.life|concretejungle.ru|consol-games.net|coocook.me|cool-tor.org|cvid.kiev.ua|dead-online.net|dead-serial.com|delfilm.ru|detectivebooks.ru|deviloff.net|dialog.ua|directadvert.ru|dnevniki-vampira.net|dnevniki-vampira.org|dni24.com|dochronika.ru|dokonlin.ru|dokpro.club|dokumentfilm.ru|dom-filmov.ru|dream-film.tv|drevnie-online.net|drevnie-tv.com|dv-gazeta.info|ebalka.net|echo.msk.ru|elementarno-tv.com|elise.com.ua|epidemz.co|ereko.ru|ero-top.com|eurointegration.com.ua|every-holiday.ru|facenews.ua|fakty.ua|fantasticfilm.ru|fargo-online.net|fast-bit.org|fast-tor.net|fastpicc.ru|favoritemovies.at.ua|filin.tv|film-max.ru|film-tor.org|film4ik.tv|film720.ru|filmio.tv|filmix-online.net|filmogo.co|filmtor.net|filmzguru.ru|fithacker.ru|fizrukoff.net|football-russian.me|football.kulichki.net|football24.ua|free-ru.org|free-rutor.org|freedom-tor.org|friends-online.co|from-ua.com|fstreker.net|futurevideo.pro|gagadget.com|games-reviews.net|gamesontorrent.ru|gamestracker.org|gazeta.ua|get-tune.cc|gidonline-club.ru|gidonlinehd.ru|gighub.net|glavnoe.ua|glavpost.com|gmt-max.net|go-kino.ru|goblin-film.ru|goblins-online.ru|gold-song.ru|golos.zp.ua|goodkino.biz|gooool.org|gorno-altaisk.info|great-tv.ru|griffiny.ru|grimm-online.org|gvirt.com|hardnews.info|hd-720.biz|hd-720.ucoz.net|hd-720.ucoz.ru|hd-bit.org|hd-club.ru|hd-dream.ru|hd-kinogo.co|hd-kinomax.net|hd-kinomax.org|hd720.biz|hdclub.org|hdfilms.tv|hdkino.biz|hdkinohit.net|hdkinolenta.com|hdkinoset.net|hdkinoshka.net|hdkinoteatr.com|hdmulti.net|hdrezka.ag|hdrezka.club|hdrezka.fail|hdrezka.mba|hdrezka.su|hdzal.net|hentaiz.org|history.vn.ua|hotcharts.ru|hothome.info|hvylya.net|igra-prestoloff.cx|igra-prestolov-hd.xyz|ikino.su|ikinohd.club|imtw.ru|india-tv.net|inform-ua.info|informat.com.ua|inopressa.ru|interesnoiveselo.ru|isport.ua|itop-gear.ru|kaifzona.ru|kesemvv.com|kinino.ru|kino-1080hd.ru|kino-az.net|kino-dom.org|kino-filmi.net|kino-go.club|kino-hd.in|kino-hit.online|kino-kingdom.com|kino-nada.net|kino-online.club|kino-panda.net|kino-sayt.net|kino-tor.org|kino-torrent.net|kino-tv.club|kinoaa.ru|kinobaks.net|kinobal.ru|kinobi.club|kinoclips.net|kinoclips.tv|kinodacha.org|kinodacha.ucoz.ru|kinodema.com|kinodroid.net|kinofrog.ru|kinogo-2017.com|kinogo-720.co|kinogo-720.net|kinogo-720.online|kinogo-720p.ru|kinogo-club-online.net|kinogo-club.co|kinogo-club.com|kinogo-co-2016.ru|kinogo-dom.com|kinogo-film.co|kinogo-filmi.net|kinogo-filmov.net|kinogo-free.net|kinogo-hd-720.club|kinogo-hd.net|kinogo-hd.pro|kinogo-hdtv.net|kinogo-net-2016.ru|kinogo-net-2017.co|kinogo-net.tv|kinogo-onlain.club|kinogo-onlain.me|kinogo-onlain.net|kinogo-online.cc|kinogo-online.club|kinogo-online.net|kinogo-ru.net|kinogo-v-hd.ru|kinogo-x.ru|kinogo.by|kinogo.ru.net|kinogo1.club|kinogo16.net|kinogo2.net|kinogo22.net|kinogo4.net|kinogo720p.net|kinogo720p.org|kinogod.club|kinogohd.biz|kinogou.club|kinograd.tv|kinoha.xyz|kinohost.nov.ru|kinokrad-2017.net|kinokrad-onlain.net|kinokrad-online.net|kinokrad-tv.ru|kinokrad.co|kinomafia.tv|kinomagnit.net|kinomanya.net|kinomassa.biz|kinomol.ru|kinopati.ru|kinopictures.net|kinoplen.ru|kinopov.com|kinoprofi.su|kinoprosmotr.site|kinopult.com|kinorob.net|kinorom.com|kinorubik.com|kinosafe.net|kinoseriya.net|kinosok.org|kinospec.net|kinosprut.com|kinostok.tv|kinosub-online.ru|kinosweet.net|kinozal.guru|kinozal.me|kinozal.tv|kinozal.website|kinozaltv.net|kinozed.com|kinozubr.net|kinozver.club|kinozz-hd.ru|kkkino.net|knighki.com|kodik.name|komedra.com|korrespondent.net|korzik.net|kosti-tv.com|kp.ua|kriminal.tv|kulturologia.ru|lalapaluza.ru|latino-serialo.tv|latinochka.ru|lib.rus.ec|libtor.club|linecinema.org|liverpoolfc.ru|livetv-torrent.com|liza.ua|lokomotiv.info|lostfilmhd.ru|lostfilmonline.ru|loveread.ec|loveserial.net|lyudiipolitika.ru|magicfilm.net|marcoserv.ru|marketsignal.ru|mega-tor.org|mega-trek.com|megaserial.me|mind.ua|minizal.su|mirmult.com|mirror-rutor.org|moiserialy.net|molodegka.xyz|movieshok.ru|moviestape.net|mp3-mus.net|mp3zv.ru|multi-tor.org|multiki-online24.ru|multivarka.tv|multon-line.ru|multyasha.com|mundo-latino.ru|muz-color.ru|muztorr.ru|muzyka-torrent.ru|my-hit.org|my-music-kiosk.ru|myflashgame.com.ua|myhdrezka.com|mymult.net|myserialy.ru|myvideopl.com|myvimir.ru|na-kinogo.net|namenu.ru|narodna-pravda.ua|narutoplanet.ru|naspravdi.info|nevsedoma.com.ua|new-kinokrad.club|new-kinokrad.net|new-ru.org|new-tor.org|news-front.info|newserials.tv|newsmsk.com|newspravda.com|newsru.com|newsyou.info|nice-film.ru|nizaika.tv|nnm-club.lib|nnm-club.me|nnmclub.ro|nnmclub.to|no-block.org|nod32eset.ru|nokino.biz|notfilm.ru|novosti-n.info|novostionline.net|nowa.cc|nur.kz|o-filme.ru|oane.ws|oblgazeta.ru|ochevidets.ru|ojin.tv|okino.cc|okino.tv|oko-planet.su|olga-online.com|on-movie.net|onedivision.ru|onfillm.club|onfilmz.net|online-futurama.ru|online-south-park.ru|onlinevideohd.ru|only-tv.org|onlyf.net|onlyfilms.ws|onlymult.com|open-tor.org|ovgorskiy.ru|p-p.com.ua|pc-torrents.net|pdalife.ru|pesni-tut.com|petamusic.ru|petamusik.ru|piguiqproxy.com|pixelbrush.ru|planeta-mult.ru|planetanovosti.com|play-apk.ru|pleer.ws|podrobnosti.ua|poiskm.co|politeka.net|popadenec.ru|porjati.net|porjati.ru|pornoshara.tv|pravda.com.ua|primgazeta.ru|prnt.sc|prntscr.com|proxy-rutor.org|pure-t.ru|putin-today.ru|qiqru.org|qmp3.cc|qrz.ru|qwasd.ru|radikal.ru|radiola.audio|radnuk.info|rango.tv|real-game.net|real-vin.com|report.if.ua|ria-m.tv|rifey.ru|rogoff.club|rosserial.net|royallib.com|rp-mechanics.ru|rsload.net|ru-bit.com|ru-free-tor.org|ru-tor.net|rudifilm.com|rulit.me|rupolitshow.ru|rupor.info|rus-tor.com|rusdialog.ru|rusdozor.ru|rusjev.net|russiapost.su|rutor-group.pro|rutor.co|rutor.info|rutor.is|rutracker-2017.org|ruxox.ru|rvb.ru|sbornik-music.ru|season-var.net|seasonvar.cc|seasonvar.re|seasonvar.ru|segodnya.ua|selflib.me|serial.wiki|serialguru.ru|serialis.net|serialpro.net|serialsend.ru|sexvhd.net|sexytal.com|sezon-hd.ru|shans.com.ua|shanson.name|share-serials.net|sharij.net|sherlok.me|shnyagi.net|show-online.tv|showgid.tv|sibnet.ru|sitandwatch.org|skidows.com|skycinema.cc|slushat-radio.net|small-game.com|smo333.com|smotra.net|smotret-fizruk-online.su|smotret-online.kz|smotretfilm.online|smotri-filmi.cc|smotri-filmu.ru|sobytiya.net|sovkinofilm.ru|spletnica-tv.com|sportlook.tv|sputniktv.in.ua|srubirubli.ru|sshut.ru|stereotraker.ru|stockinfocus.ru|strana.ua|strela-online.com|super-tor.net|sverhestestvenoe.com|tapochek.net|tbperedachi.ucoz.ru|teenwolf-tv.com|tele-go.net|televizorus.com|tengrinews.kz|tfilm.co|the100-tv.com|theflash-tv.com|thg.ru|top-tor.org|tor-bit.net|tor-ru.net|tor-ru.org|tor-unblock.org|torentor.co|torentor.net|torrent-baza.com|torrent-filmi.net|torrent-mob.at.ua|torrent-windows.net|torrent-zona.com|torrent2games.net|torrentino.me|torrentino.online|torrentk.ru|torrents-free.ru|totori.ru|tparser.org|tracker.hdclub.com.ua|tracktor.tv|trialeset.org|trialeset.ru|turkey-tv.net|turksinema.net|tushkan.club|tushkan.net|tut-film.com|tv-300.ru|tv-only.org|tv-torrent.me|tvbook.tv|tvonline.su|tvseason.net|tvserial-online.biz|tvtorrent.me|tyachivnews.in.ua|ua-cinema.com|ua.today|uainfo.org|uaonlinefilms.com|uchebnik-online.net|uchim.org|udaff.com|ukr.net|ukrlib.com.ua|ukrlit.net|uniongang.net|uniongang.org|univeroff.net|unn.com.ua|ura-inform.com|uralpress.ru|uraltrack.net|valuta.online.ua|vd-tv.ru|vdvsn.ru|vepizode.net|veroyatno.com.ua|versii.com|vesti.kz|vgorode.ua|vikingi-online.net|vikka.ua|vinixmult.net|vip-tor.org|vkino-tv.ru|vkinoteatre.net|vklipe.com|vnx.su|volynnews.com|vserialy.com|vserpg.ru|vsesochineniya.ru|vsetop.com|vskazke-tv.com|vtorrents.net|westernfilm.ru|wikimovies.ru|women-page.ru|wood-film.net|world-ua.com|wow-show.ru|wsturbo.net|x-bit.net|x-tor.org|xmuzic.me|xn--c1adkjnf.net|xn--c1ajfnfb.net|xn--j1aidcn.org|xsport.ua|yahooeu.ru|yallaneliera.com|yaminecraft.ru|ymka.tv|youtubetv.com.ua|ytra.ru|zakon.kz|zercalorutor.org|zerkalo-rutor.org|zerx.club|zfilm-hd.club|zhd.life|znaj.ua|zona-film.com|zona.mobi|zpravda.ru|zserials.cc|zwezda.net", ".php$third-party,script,domain=freezmi.io", ".zdos.ru^$script", "/wnew.js$domain=constitutionrf.ru|stykrf.ru", "|ws*://$domain=0day.kiev.ua|192.102.7.159|193.106.30.70|193.106.30.84|1kinobig.ru|1kinogo.net|2000.ua|24molnia.com|24tv.ua|2baksa.net|3dn.ru|3porosenka.ru|4ertik.xxx|4films.net|4torrentgames.net|5.ua|abook-club.ru|ace-stream.tv|addpg.net|ahs-online.net|ahs-online.xyz|alexlan.org|all-best.pro|all-tor.net|allbesta.cc|allbesta.org|allmovie.pro|allmovie.tv|allsport-news.net|anatomia-strasti.com|anekdot.ru|anime-rus.ru|animespirit.ru|anti-block.org|apostrophe.ua|argumenti.ru|artword.com.ua|asbook.co|asbook.net|asn.in.ua|astro-tv.net|au-books.com|audilka.com|autonews.com.ua|ave-brasil.ru|babla.ru|babushky.ru|badcinema.ru|badtorrent.com|bagnet.org|baskino-hd.ru|baskinohd.ru|baskinonet.ru|bazkino.club|belnovosti.by|benfilm.net|bestnavi.ru|bestserials.net|big-bang-online.ru|big-tor.org|bigbang-tv.net|bigbangtv.space|bigcinema-hd.tv|bigcinema-online.ru|bigcinema-tv.club|bigcinema.org|bigcinemahd.net|bigkiev.com.ua|bit-tor.org|blogspot.com|blogspot.ru|bludlivaya-california.com|bo-em.com|bombardir.ru|book-online.com.ua|bookitut.ru|bookskeeper.ru|brovary.net.ua|bugaga.ru|business.ua|cat-a-cat.net|cccp-kino.com|champion.com.ua|com-x.life|concretejungle.ru|consol-games.net|coocook.me|cool-tor.org|cvid.kiev.ua|dead-online.net|dead-serial.com|delfilm.ru|detectivebooks.ru|deviloff.net|dialog.ua|directadvert.ru|dnevniki-vampira.net|dnevniki-vampira.org|dni24.com|dochronika.ru|dokonlin.ru|dokpro.club|dokumentfilm.ru|dom-filmov.ru|dream-film.tv|drevnie-online.net|drevnie-tv.com|dv-gazeta.info|ebalka.net|echo.msk.ru|elementarno-tv.com|elise.com.ua|epidemz.co|ereko.ru|ero-top.com|eurointegration.com.ua|every-holiday.ru|facenews.ua|fakty.ua|fantasticfilm.ru|fargo-online.net|fast-bit.org|fast-tor.net|fastpicc.ru|favoritemovies.at.ua|filin.tv|film-max.ru|film-tor.org|film4ik.tv|film720.ru|filmio.tv|filmix-online.net|filmogo.co|filmtor.net|filmzguru.ru|fithacker.ru|fizrukoff.net|football-russian.me|football.kulichki.net|football24.ua|free-ru.org|free-rutor.org|freedom-tor.org|friends-online.co|from-ua.com|fstreker.net|futurevideo.pro|gagadget.com|games-reviews.net|gamesontorrent.ru|gamestracker.org|gazeta.ua|get-tune.cc|gidonline-club.ru|gidonlinehd.ru|gighub.net|glavnoe.ua|glavpost.com|gmt-max.net|go-kino.ru|goblin-film.ru|goblins-online.ru|gold-song.ru|golos.zp.ua|goodkino.biz|gooool.org|gorno-altaisk.info|great-tv.ru|griffiny.ru|grimm-online.org|gvirt.com|hardnews.info|hd-720.biz|hd-720.ucoz.net|hd-720.ucoz.ru|hd-bit.org|hd-club.ru|hd-dream.ru|hd-kinogo.co|hd-kinomax.net|hd-kinomax.org|hd720.biz|hdclub.org|hdfilms.tv|hdkino.biz|hdkinohit.net|hdkinolenta.com|hdkinoset.net|hdkinoshka.net|hdkinoteatr.com|hdmulti.net|hdrezka.ag|hdrezka.club|hdrezka.fail|hdrezka.mba|hdrezka.su|hdzal.net|hentaiz.org|history.vn.ua|hotcharts.ru|hothome.info|hvylya.net|igra-prestoloff.cx|igra-prestolov-hd.xyz|ikino.su|ikinohd.club|imtw.ru|india-tv.net|inform-ua.info|informat.com.ua|inopressa.ru|interesnoiveselo.ru|isport.ua|itop-gear.ru|kaifzona.ru|kesemvv.com|kinino.ru|kino-1080hd.ru|kino-az.net|kino-dom.org|kino-filmi.net|kino-go.club|kino-hd.in|kino-hit.online|kino-kingdom.com|kino-nada.net|kino-online.club|kino-panda.net|kino-sayt.net|kino-tor.org|kino-torrent.net|kino-tv.club|kinoaa.ru|kinobaks.net|kinobal.ru|kinobi.club|kinoclips.net|kinoclips.tv|kinodacha.org|kinodacha.ucoz.ru|kinodema.com|kinodroid.net|kinofrog.ru|kinogo-2017.com|kinogo-720.co|kinogo-720.net|kinogo-720.online|kinogo-720p.ru|kinogo-club-online.net|kinogo-club.co|kinogo-club.com|kinogo-co-2016.ru|kinogo-dom.com|kinogo-film.co|kinogo-filmi.net|kinogo-filmov.net|kinogo-free.net|kinogo-hd-720.club|kinogo-hd.net|kinogo-hd.pro|kinogo-hdtv.net|kinogo-net-2016.ru|kinogo-net-2017.co|kinogo-net.tv|kinogo-onlain.club|kinogo-onlain.me|kinogo-onlain.net|kinogo-online.cc|kinogo-online.club|kinogo-online.net|kinogo-ru.net|kinogo-v-hd.ru|kinogo-x.ru|kinogo.by|kinogo.ru.net|kinogo1.club|kinogo16.net|kinogo2.net|kinogo22.net|kinogo4.net|kinogo720p.net|kinogo720p.org|kinogod.club|kinogohd.biz|kinogou.club|kinograd.tv|kinoha.xyz|kinohost.nov.ru|kinokrad-2017.net|kinokrad-onlain.net|kinokrad-online.net|kinokrad-tv.ru|kinokrad.co|kinomafia.tv|kinomagnit.net|kinomanya.net|kinomassa.biz|kinomol.ru|kinopati.ru|kinopictures.net|kinoplen.ru|kinopov.com|kinoprofi.su|kinoprosmotr.site|kinopult.com|kinorob.net|kinorom.com|kinorubik.com|kinosafe.net|kinoseriya.net|kinosok.org|kinospec.net|kinosprut.com|kinostok.tv|kinosub-online.ru|kinosweet.net|kinozal.guru|kinozal.me|kinozal.tv|kinozal.website|kinozaltv.net|kinozed.com|kinozubr.net|kinozver.club|kinozz-hd.ru|kkkino.net|knighki.com|kodik.name|komedra.com|korrespondent.net|korzik.net|kosti-tv.com|kp.ua|kriminal.tv|kulturologia.ru|lalapaluza.ru|latino-serialo.tv|latinochka.ru|lib.rus.ec|libtor.club|linecinema.org|liverpoolfc.ru|livetv-torrent.com|liza.ua|lokomotiv.info|lostfilmhd.ru|lostfilmonline.ru|loveread.ec|loveserial.net|lyudiipolitika.ru|magicfilm.net|marcoserv.ru|marketsignal.ru|mega-tor.org|mega-trek.com|megaserial.me|mind.ua|minizal.su|mirmult.com|mirror-rutor.org|moiserialy.net|molodegka.xyz|movieshok.ru|moviestape.net|mp3-mus.net|mp3zv.ru|multi-tor.org|multiki-online24.ru|multivarka.tv|multon-line.ru|multyasha.com|mundo-latino.ru|muz-color.ru|muztorr.ru|muzyka-torrent.ru|my-hit.org|my-music-kiosk.ru|myflashgame.com.ua|myhdrezka.com|mymult.net|myserialy.ru|myvideopl.com|myvimir.ru|na-kinogo.net|namenu.ru|narodna-pravda.ua|narutoplanet.ru|naspravdi.info|nevsedoma.com.ua|new-kinokrad.club|new-kinokrad.net|new-ru.org|new-tor.org|news-front.info|newserials.tv|newsmsk.com|newspravda.com|newsru.com|newsyou.info|nice-film.ru|nizaika.tv|nnm-club.lib|nnm-club.me|nnmclub.ro|nnmclub.to|no-block.org|nod32eset.ru|nokino.biz|notfilm.ru|novosti-n.info|novostionline.net|nowa.cc|nur.kz|o-filme.ru|oane.ws|oblgazeta.ru|ochevidets.ru|ojin.tv|okino.cc|okino.tv|oko-planet.su|olga-online.com|on-movie.net|onedivision.ru|onfillm.club|onfilmz.net|online-futurama.ru|online-south-park.ru|onlinevideohd.ru|only-tv.org|onlyf.net|onlyfilms.ws|onlymult.com|open-tor.org|ovgorskiy.ru|p-p.com.ua|pc-torrents.net|pdalife.ru|pesni-tut.com|petamusic.ru|petamusik.ru|piguiqproxy.com|pixelbrush.ru|planeta-mult.ru|planetanovosti.com|play-apk.ru|pleer.ws|podrobnosti.ua|poiskm.co|politeka.net|popadenec.ru|porjati.net|porjati.ru|pornoshara.tv|pravda.com.ua|primgazeta.ru|prnt.sc|prntscr.com|proxy-rutor.org|pure-t.ru|putin-today.ru|qiqru.org|qmp3.cc|qrz.ru|qwasd.ru|radikal.ru|radiola.audio|radnuk.info|rango.tv|real-game.net|real-vin.com|report.if.ua|ria-m.tv|rifey.ru|rogoff.club|rosserial.net|royallib.com|rp-mechanics.ru|rsload.net|ru-bit.com|ru-free-tor.org|ru-tor.net|rudifilm.com|rulit.me|rupolitshow.ru|rupor.info|rus-tor.com|rusdialog.ru|rusdozor.ru|rusjev.net|russiapost.su|rutor-group.pro|rutor.co|rutor.info|rutor.is|rutracker-2017.org|ruxox.ru|rvb.ru|sbornik-music.ru|season-var.net|seasonvar.cc|seasonvar.re|seasonvar.ru|segodnya.ua|selflib.me|serial.wiki|serialguru.ru|serialis.net|serialpro.net|serialsend.ru|sexvhd.net|sexytal.com|sezon-hd.ru|shans.com.ua|shanson.name|share-serials.net|sharij.net|sherlok.me|shnyagi.net|show-online.tv|showgid.tv|sibnet.ru|sitandwatch.org|skidows.com|skycinema.cc|slushat-radio.net|small-game.com|smo333.com|smotra.net|smotret-fizruk-online.su|smotret-online.kz|smotretfilm.online|smotri-filmi.cc|smotri-filmu.ru|sobytiya.net|sovkinofilm.ru|spletnica-tv.com|sportlook.tv|sputniktv.in.ua|srubirubli.ru|sshut.ru|stereotraker.ru|stockinfocus.ru|strana.ua|strela-online.com|super-tor.net|sverhestestvenoe.com|tapochek.net|tbperedachi.ucoz.ru|teenwolf-tv.com|tele-go.net|televizorus.com|tengrinews.kz|tfilm.co|the100-tv.com|theflash-tv.com|thg.ru|top-tor.org|tor-bit.net|tor-ru.net|tor-ru.org|tor-unblock.org|torentor.co|torentor.net|torrent-baza.com|torrent-filmi.net|torrent-mob.at.ua|torrent-windows.net|torrent-zona.com|torrent2games.net|torrentino.me|torrentino.online|torrentk.ru|torrents-free.ru|totori.ru|tparser.org|tracker.hdclub.com.ua|tracktor.tv|trialeset.org|trialeset.ru|turkey-tv.net|turksinema.net|tushkan.club|tushkan.net|tut-film.com|tv-300.ru|tv-only.org|tv-torrent.me|tvbook.tv|tvonline.su|tvseason.net|tvserial-online.biz|tvtorrent.me|tyachivnews.in.ua|ua-cinema.com|ua.today|uainfo.org|uaonlinefilms.com|uchebnik-online.net|uchim.org|udaff.com|ukr.net|ukrlib.com.ua|ukrlit.net|uniongang.net|uniongang.org|univeroff.net|unn.com.ua|ura-inform.com|uralpress.ru|uraltrack.net|valuta.online.ua|vd-tv.ru|vdvsn.ru|vepizode.net|veroyatno.com.ua|versii.com|vesti.kz|vgorode.ua|vikingi-online.net|vikka.ua|vinixmult.net|vip-tor.org|vkino-tv.ru|vkinoteatre.net|vklipe.com|vnx.su|volynnews.com|vserialy.com|vserpg.ru|vsesochineniya.ru|vsetop.com|vskazke-tv.com|vtorrents.net|westernfilm.ru|wikimovies.ru|women-page.ru|wood-film.net|world-ua.com|wow-show.ru|wsturbo.net|x-bit.net|x-tor.org|xmuzic.me|xn--c1adkjnf.net|xn--c1ajfnfb.net|xn--j1aidcn.org|xsport.ua|yahooeu.ru|yallaneliera.com|yaminecraft.ru|ymka.tv|youtubetv.com.ua|ytra.ru|zakon.kz|zercalorutor.org|zerkalo-rutor.org|zerx.club|zfilm-hd.club|zhd.life|zn.ua|znaj.ua|zombie-tv.org|zona-film.com|zona.mobi|zpravda.ru|zserials.cc|zwezda.net", "||ad.admitad.com^$domain=1track.ru|24warez.ru|2x2forum.ru|3porosenka.ru|5terka.com|720hdfilm.biz|alive-ua.com|appsgames.ru|bakemono.ru|bdobase.info|big-games.info|bloknot-khersona.ks.ua|chelnyagro.ru|cknow.ru|comodity.ru|dentv.ru|dokumentalkino.net|ecofoodferma.ru|elektrosat.ru|etika-education.ru|filmitorrent.site|forumodua.com|gameru.net|geekmir.ru|gitjournal.tech|gooool.org|goroskop.ru|hype.tech|igri-2012.ru|igui.mobi|ilenta.com|inform-ua.info|instrument16.ru|klub-masterov.ru|kritika24.ru|krovli-zabori.ru|list-org.com|lordfilm.net|lostfilm-2020.ru|moy-instrument.ru|mrtranslate.ru|multfilms.online|mywishlist.ru|newsgsm.com|ognennoetv.ru|ogribax.ru|onedivision.ru|osnovu-ved.ru|outsidethebox.ms|parazit24.me|peugeot-citroen.net|pluggedin.ru|privatbankrf.ru|ravis-avto.ru|real-vin.com|remont-avtovaz.ru|revelationonlinedb.ru|root-nation.com|rus-game.net|rusplt.ru|rutracker.lib|rutracker.net|rutracker.nl|rutracker.org|rutracker.ru|samelectric.ru|selomoe.ru|seloved.ru|shkolniku.com|siddgames.ru|small-games.info|sovetremont.com|sshut.ru|steampass.ru|superg.ru|synonymizer.ru|technical.city|tmbw.ru|topmmo-games.ru|torrent-games-2016.ru|torrentigri.xyz|torrentiko.net|trackitonline.ru|tuttop.com|tvoilokony.ru|uniondht.org|vizazh-2.ru|volga.news|vsetop.org|vsetut.su|webtoks.ru|zhaparova.ru", "||budport.com.ua/assets/upload/userfiles/fkr-118_1.jpg", "||budport.com.ua/assets/upload/userfiles/mm-5.jpg", "||budport.com.ua/assets/upload/userfiles/pn-11.jpg", "||market.yandex.ru/widget/$script,domain=1000000diy.ru|220.guru|3dnews.ru|bibe.ru|briefly.ru|cadelta.ru|cnews.ru|computerworld.ru|cross.expert|cubiq.ru|digger.ru|drive2.ru|electric-220.ru|expert-dacha.pro|f1comp.ru|fireman.club|housechief.ru|hype.tech|ichip.ru|iguides.ru|irecommend.ru|it-here.ru|itrew.ru|konstruktortestov.ru|kp.ru|kupidonia.ru|lavnik.net|mamsy.ru|megaobzor.com|migeek.ru|migid.ru|modxvm.com|newxboxone.ru|overclockers.ru|prochtu.ru|prosmarttv.ru|rbkgames.com|remontcma.ru|rozetked.me|russkiypro.ru|sad24.ru|servernews.ru|sovet-ingenera.com|stroy-podskazka.ru|tehnikoved.ru|tut.by|ukula.ru|vplate.ru|winnote.ru|wylsa.com|yablyk.com|zinref.ru", "||okna.ua/informer_ajax$xmlhttprequest", "@@||imgbum.net/img/pagebg.jpg|$image,domain=imgbum.ru", "@@||point-of-entry.com^$websocket,domain=ome.tv|ruletka.chat|videochatru.com|vk-videochatru.apps-host.com", "@@/fuckadblock$domain=164.132.204.49|433175.ru|46.30.41.66|46.30.42.50|46.30.43.38|blackdesertbase.ru|broshunters.com|budport.com.ua|dok-film.net|gwss.ru|liveball6.ml|omsi2mod.ru|pogarbibl.ru|revelationonlinedb.ru|role-me.ru|rpgdon.com|rybalku.ru|standupzona.ru|unit-car.com|widget.cdn-tv.net|winzoro.net|www.sport-express.ru", "@@||adservice.google.*/adsid/integrator.js$domain=izzylaif.com|maxpark.com|player.tubia.com|studbooks.net|studme.org|studref.com|studwood.ru|vuzlit.ru|xstud.ru", "@@||cyberleninka.ru/synad2.js|$script,domain=cyberleninka.ru", "@@||googleads.g.doubleclick.net/$xmlhttprequest,domain=cdnneedtv.ru|cdnpotok.com|cdntelesee.com|chepok.xyz|domatv.net|hdone.net|hindcine.tv|kipolino.site|klplayer.website|pokaz.me|rxtv.github.io|sovetromantica.com|src.media-base.co|starserial.ru|sudya-dredd.ru|tivix.co|viks.tv", "@@||pagead2.googlesyndication.com/pagead/js/adsbygoogle.js|$domain=3dsmaxvideo.ru|adult-images.ru|anitokyo.tv|anypictures.ru|archicadvideo.ru|autocadvideo.ru|bstudy.net|coreldrawvideo.ru|daz3d.ru|di.fm|electrotests.ru|excelvideo.ru|helpsetup.ru|img2txt.com|imgbum.ru|kompasvideo.ru|nv.ua|olegon.ru|open3dmodel.com|opensharing.org|ozlib.com|parnuxi.biz|photoshopvideo.ru|pixcloud.ru|solidworksvideo.ru|studbooks.net|studme.org|studref.com|studwood.ru|tarkov-market.com|tehnobzor.ru|tehnografi.com|test24.wweek.ru|tests24.su|testserver.pro|vuzlit.ru|wallpapershome.ru|warhead.su|wordvideo.ru|xpicture.ru|xstud.ru", "##.ainsyndication", "##[data-la-refresh-timeout]", "##[href*=\"://click.1k3pub.com/\"]", "##iframe[title=\"mixAd\"]", "medialeaks.ru###billboard-atf", "finanz.ru###brokerintegration", "liveinternet.ru###liveinternet_600x250", "liveinternet.ru###liveinternet_billboard", "topgir.com.ua###main > #secondary ~ div > .cell", "101kinopoisk.com,aghdrezka.com,ahdrezka.com,betahdrezka.com,clubhdrezka.com,cokinopoisk.com,drhdrezka.com,ehdrezka.com,ekinopoisk.com,ezhdrezka.com,gethdrezka.com,hdrezka-ag.com,hdrezka.buzz,hdrezka.city,hdrezka.club,hdrezka.co,hdrezka.gift,hdrezka.ink,hdrezka.link,hdrezka.loan,hdrezka.lol,hdrezka.name,hdrezka.rest,hdrezka.run,hdrezka.sh,hdrezka.today,hdrezka.tv,hdrezka.vip,hdrezka.website,hdrezka.win,hdrezkablog.com,hdrezkaweb.com,hdrezkayou.com,instahdrezka.com,justhdrezka.com,livehdrezka.com,livekinopoisk.com,metahdrezka.com,mrhdrezka.com,myhdrezka.com,nexthdrezka.com,nuhdrezka.com,nukinopoisk.com,rehdrezka.com,rezka.ag,thehdrezka.com,tryhdrezka.com,tvhdrezka.com,uphdrezka.com,youhdrezka.com###ownplayer-link-show", "freepiks.ru,opensharing.org###right-image", "101kinopoisk.com,aghdrezka.com,ahdrezka.com,betahdrezka.com,clubhdrezka.com,cokinopoisk.com,drhdrezka.com,ehdrezka.com,ekinopoisk.com,ezhdrezka.com,gethdrezka.com,hdrezka-ag.com,hdrezka.buzz,hdrezka.city,hdrezka.club,hdrezka.co,hdrezka.gift,hdrezka.ink,hdrezka.link,hdrezka.loan,hdrezka.lol,hdrezka.name,hdrezka.rest,hdrezka.run,hdrezka.sh,hdrezka.today,hdrezka.tv,hdrezka.vip,hdrezka.website,hdrezka.win,hdrezkablog.com,hdrezkaweb.com,hdrezkayou.com,instahdrezka.com,justhdrezka.com,livehdrezka.com,livekinopoisk.com,metahdrezka.com,mrhdrezka.com,myhdrezka.com,nexthdrezka.com,nuhdrezka.com,nukinopoisk.com,rehdrezka.com,rezka.ag,thehdrezka.com,tryhdrezka.com,tvhdrezka.com,uphdrezka.com,youhdrezka.com###vk_groups + div[style]", "1liveinternet.ru,1tvv-novosti.com,2017-medical.ru,24-rus.info,24reporter.ru,4jiqzr.ru,adregain.ru,ads.bid,advgoods.com,amigo-browser.ru,amigo-free.website,amigodistrib.ru,amigone.ru,animedub.ru,apicloud.ru,arka-gallery.ru,azartpl.com,azartplay.casino,b2b2.su,beamigo.pw,beamigo.ru,best-games.today,best-zdorovye.ru,best-zdrav.ru,beststbuy.ru,bignovosti.ru,blamper-novosti.ru,blamper-portal.ru,blogers-story.ru,blogersnews.com,blogi-novosti.ru,blogiblogi.com,blogisstore.com,blogistar.org,blogistories.com,blogonews.org,blogostar.org,blogstarhit.org,blogstarnews.org,boldblogs.com,bookofluck.net,breakingdigest.com,bro-freelite.ru,brofree-lite.ru,bromigo.pw,browser-lite.ru,browser-lite2018.ru,browser2018-lite.ru,browser2018lite.ru,browserextensions.net,browserlite-free.ru,browserlite2018.ru,browserlitefree.ru,budyte-zdorovy.ru,canal96.live,cardvrmirrorr.ru,centr-compensation.ru,chatreg.ru,chydomir.ru,cinemapub.top,clbvorange.com,clbvpurple.com,content.directadvert.ru,cosmosblogs.com,cosmow0mans.ru,cs-serva.net,csp-oz66pp.ru,curiousblogs.com,d38dub.ru,dastrutor.site,directx.biz,dnevni4ok.com,down-news-games.ru,downloadamigo.com,downloadbrowserlite.net,downloadlitebrowser.com,downloadlitebrowser.net,downloadlitefree.com,downloadlitefree.net,downloadlitefree.org,downloadlitefree.ru,drp.su,dugtor-deer.pw,elementsbrowser.com,endocri.ru,etarg.network,everinform.com,eversmi.com,ex-news.net,ex.24smi.info,ex.infox.sg,exonews.ru,extra-7news.ru,failovik.com,fancyblogz.com,fiieresmi.ru,fin-vecto.ru,fin-vector.ru,fine-blogs.com,flebolab.ru,fokspolit.ru,foto-video-foto.ru,foxpolit.ru,free-bro-lite.ru,free-lite-bro.ru,free-litebrowser.ru,free-torrents.eu.org,freebro-lite.ru,freebrowserlite.ru,freelite-browser.ru,freelitebrowser.com,freelitebrowser.ru,gameorplay.info,gamereleasedate.info,gamesfortuna.com,get-lite-browser.net,get-litebrowser.net,getbonus.info,getbrowser.org,getbrowser.ru,getbrowserlite.net,getdriverpack.ru,getlitebrowser.com,getlitebrowser.net,getlitebrowser.org,getlitebrowser.ru,getvivaldi.info,getvivaldibrowser.com,getvivaldibrowser.net,globalstylis.ru,go-torrent.pro,gobrowserdownload.com,good-pressa.com,govnogames.com,health-official.ru,i-blogos.ru,ibloggers.ru,idealmedia.io,info-blog24.ru,info-peoples.org,infoblogs.pro,infopolitfoks.ru,installpack.net,internet-gazeta.net,kick.media,kindblogs.com,kinowinx.ru,kinozal-zerkalo.appspot.com,krasota-zdorovie.com,krutor.eu.org,landpages.co,laynews.ru,lesnews.ru,liknews.ru,likuysebe.ru,lite-browser.ru,lite-browserfree.ru,lite-free.com,lite-free.net,lite-free.org,lite-free.ru,litebrowser-2018.ru,litebrowser.ru,litebrowser2018.com,litebrowser2018.ru,litebrowserdownload.com,litebrowserdownload.net,litedownload.org,litedownload.ru,litefree.org,litefree.ru,litefreebrowser.ru,litemybrowser.ru,litenewbrowser.ru,livbloogjournal.net,live-blogs.info,live-novostimira.ru,live-rutor.ga,liveblogjournal.biz,liveblogjournal.net,losnews.ru,mainews.ru,malusheva.ru,marketgid.com,marketgid.ru,masterbyte.gdn,mech.net.ru,med-ecina.info,med-infarmationen.ru,med24-mj.ru,med24otvet.ru,mediapress.xyz,medic-portal24.com,medic-statistic.ru,medicalblogs.ru,medicin-novosti-24.com,medicina-narodov.ru,medicine-news.net,medicineteaser.org,medicineteaser.ru,medinfo.today,medinforms.ru,medlifehistory.ru,medlifestory.ru,mednews-online.ru,mega-game.org,mega-pics-money.ru,melbetpyy.host,melbetqmq.host,mellowblogs.com,meycity.ru,minportal.ru,minroszdrav.com,mixerred.ru,mmorpgfree.ru,moi-oftalmolog.com,morozisneg.ru,moutrack.ru,msetup.pro,mvdpmr.ru,my-amigo-mail.info,my-lite-browser.info,my-story.info,my0blog.ru,mybrowserlite.ru,mylifeblog24.ru,mylitebro.com,mylitebro.net,mylitebro.ru,mylitebrowser.com,mylitebrowser.net,mytrk.xyz,mytvblogs24.ru,nalivali.ru,neatblogs.com,new-lite-browser.ru,new-rutor.com.pl,new-rutor.in,new-rutor.net.pl,new-rutor.org.pl,new-rutor.website,new-trio.com,newallsmi.ru,newbloggs.xyz,newbrowserlite.ru,newlitebrowser.ru,newrutor.eu.org,newrutor.org.pl,news-decent.com,news-top-rated.com,newsbouthealth.com,newsles.ru,newslik.ru,newsma.ru,newsmore.info,newssy.ru,nice-pressa.com,offergate.pro,ognyvo.ru,ognyvoinfo.ru,ok9ydq.ru,olx.ua.partners,omyamigo.pw,onestarblog.ru,online2017.ru,openew.ru,operadistrib.ru,opn-news.ru,orgsales.ru,para-new.com,pc-games-torrent.ru,pekagames.ru,picpick.ru,plsva.ru,pochistit.ru,polit-e-fox.ru,polit-fox.ru,polit-infox.ru,politfoks.ru,politfox.ru,politinfox.ru,politrook.ru,politrosnews.ru,popcornhd.ru,portal-peoples.com,pressa-plus.com,pricessmall.com,pro-zdorovye.ru,pusja.ga,readtoday.ru,readvesti.ru,realgoodies.ru,renderbrandium.com,rendersaveron.com,ribnadzo.ru,ros-infonews.ru,rosguards.date,rosinfonews.ru,rospolitfoks.ru,rospolitnews.ru,rossinfonews.ru,rossinfonewsrf.ru,ru-tor.biz,ruinfoblog.com,runews-time.xyz,runewslenta.com,rupolitnews.ru,rustoria-topnews.ru,rustory-news.ru,rutor.biz.pl,rutor.edu.pl,rutor.ml,rutor.net.pl,rutor.su,rutor.tech,rutorgame.org,rutorrent.co,rutors.tk,rutracker-zerkalo.appspot.com,rutracker.eu,rutracker.eu.org,rutracker.org.pl,rutracker.pp.ua,rutracker.work,saymigren.net,sb-on-line.ru,show.novostionline.net,smi24online.ru,smiru.ru,smivdetails.ru,spishi.vip,starblog.org,stories-news.com.ua,stories-news.ru,sweetbloggs.com,sysenvfiles.net,tft-test.ru,this-my-blog.ru,top-info24.ru,top-newsrustoria.ru,top-rutor.eu,top-zdorovie.ru,top.24smi.info,topallsmi.com,topik-blog.ru,toplenta.com,topnews.novostionline.net,topnews.smi.one,toprated-film.co,topruistory.ru,toprustory.ru,topsmileader.com,topstory-24.ru,torrent-rutor.eu,torrent-rutor.pl,torrent4game.com,torrentino-games.net,torrentino-games.ru,torrentum.ru,tranzitpagetop.ru,tranzitsmi.ru,trueblg.ru,trutor.org.pl,u-load.ru,ubar-pro.ru,ubar-pro2.ru,ubar-pro3.ru,ubar-pro4.ru,ubar.pro,ufiler-pro.ru,ufiler.pro,upro.me,utorrentfilmi.ru,vash-doktor24.ru,vashflebolog.ru,vesti-smi.ru,viniki.ru,vivaldi-browser.com,vivaldi-browser.net,vrutor.eu,vse-dly-vas.ru,vse-pro-zdorovye.ru,websdr.space,wogoods.com,worldinform.ru,wrutor.org.pl,x-yzabc.ru,xbox-torrent.ru,xrutor.eu,xrutor.eu.org,xrutor.ga,zdorov-story.ru,zdorovgoods.com,zdorovo.xyz,zdorovproduct.ru,zdorovtea.ru,zfvklk.ru,zodiac-game.info,zpppstop.ru,zqwjpxow7boc.ru##*", "obninsk.name,www.zoneofgames.ru##.Banner", "1927.kiev.ua,1plus1.video,bigpicture.ru,bubluoteka.org,chatadelic.net,day.az,fotokto.ru,gamehunt.net,gotoshop.net.ua,gs.by,gsconto.com,hentaiz.org,hotzoom.net,icons8.ru,infoniac.ru,jooble.org,jooble.ua,kino-krad.com,kinoafisha.info,kinogo-hit.com,kinogo10-filmi-2019.club,kinogo222.club,kinoonline.org,kinovip.online,klubok.com,like-film.online,malenkiy.ru,mangalib.me,meta.ua,orl.ec,podrobnosti.ua,ranobelib.me,scooter-remont.com,seasonvar24.com,sexytales.org,soccer.ru,sports.kz,takprosto.cc,tokino.me,tvsezon.com,vse.fm,world-knigi.ru,yaoilib.me##.ads", "newxboxone.ru,vz.ru##.adsbygoogle", "24video.adult,24video.click,24video.net,24video.vip##.adt", "liveinternet.ru##.allpageinner td[height=\"100\"]", "golovna.com.ua##.article > .article__sidebar ~ .article__sidebar", "101kinopoisk.com,aghdrezka.com,ahdrezka.com,betahdrezka.com,clubhdrezka.com,cokinopoisk.com,drhdrezka.com,ehdrezka.com,ekinopoisk.com,ezhdrezka.com,gethdrezka.com,hdrezka-ag.com,hdrezka.buzz,hdrezka.city,hdrezka.club,hdrezka.co,hdrezka.gift,hdrezka.ink,hdrezka.link,hdrezka.loan,hdrezka.lol,hdrezka.name,hdrezka.rest,hdrezka.run,hdrezka.sh,hdrezka.today,hdrezka.tv,hdrezka.vip,hdrezka.website,hdrezka.win,hdrezkablog.com,hdrezkaweb.com,hdrezkayou.com,instahdrezka.com,justhdrezka.com,livehdrezka.com,livekinopoisk.com,metahdrezka.com,mrhdrezka.com,myhdrezka.com,nexthdrezka.com,nuhdrezka.com,nukinopoisk.com,rehdrezka.com,rezka.ag,thehdrezka.com,tryhdrezka.com,tvhdrezka.com,uphdrezka.com,youhdrezka.com##.b-content__main > div[style][id]:not([class]):empty", "101kinopoisk.com,aghdrezka.com,ahdrezka.com,betahdrezka.com,clubhdrezka.com,cokinopoisk.com,drhdrezka.com,ehdrezka.com,ekinopoisk.com,ezhdrezka.com,gethdrezka.com,hdrezka-ag.com,hdrezka.buzz,hdrezka.city,hdrezka.club,hdrezka.co,hdrezka.gift,hdrezka.ink,hdrezka.link,hdrezka.loan,hdrezka.lol,hdrezka.name,hdrezka.rest,hdrezka.run,hdrezka.sh,hdrezka.today,hdrezka.tv,hdrezka.vip,hdrezka.website,hdrezka.win,hdrezkablog.com,hdrezkaweb.com,hdrezkayou.com,instahdrezka.com,justhdrezka.com,livehdrezka.com,livekinopoisk.com,metahdrezka.com,mrhdrezka.com,myhdrezka.com,nexthdrezka.com,nuhdrezka.com,nukinopoisk.com,rehdrezka.com,rezka.ag,thehdrezka.com,tryhdrezka.com,tvhdrezka.com,uphdrezka.com,youhdrezka.com##.b-post__mixedtext + div[id]", "kinoafisha.info##.btn-okko", "kinoafisha.info##.button-okko", "sdamgia.ru##.con_warper > .left_block", "sdamgia.ru##.con_warper > .right_block", "noob-club.ru##.content_cactus", "playground.ru##.features-slider-item > a[href*=\"dns-shop.ru\"]", "kinoafisha.info##.gamma-zen", "igromania.ru##.hmenu_box > a[href^=\"http\"]:not([href*=\"igromaina.ru/\"])", "newxboxone.ru##.stream-item-above-post", "topgir.com.ua##.widget-area > .textwidget > :not(#searchform)", "24video.adult,24video.click,24video.net,24video.vip##.xb-wrapper", "freepiks.ru,opensharing.org##:not(#container-top) > blockquote", "1927.kiev.ua,3dtoday.ru,5.ua,allboxing.ru,amic.ru,aratta-ukraine.com,asiaplustj.info,astrovedus.com,belaruspartisan.org,bigmir.net,bilshe.com,book-neva.narod.ru,brovary.net.ua,comments.ua,dt.ua,dv-gazeta.info,e-reading.club,echo.msk.ru,ecology.md,enovosty.com,fedpress.ru,football.by,from-ua.com,galinfo.com.ua,galka.if.ua,hdkinoteatr.com,hronika.info,i-news.kz,ictv.ua,infomir59.ru,inforesist.org,informat.com.ua,izmacity.com,kiev24.ua,korrespondent.net,kurufin.ru,liga.net,mskd-ru.net,neizvestniy-geniy.ru,news-front.info,newsone.ua,newspravda.com,nibler.ru,niknews.mk.ua,noi.md,nwcod.com,petrogazeta.ru,planetanovosti.com,prostotech.com,qiqru.org,qrz.ru,railway.kanaries.ru,real-vin.com,rusdozor.ru,rusjev.net,segodnya.ua,shans.com.ua,smolensk-i.ru,sportfm.ru,subject.com.ua,tambovnet.org,tehnowar.ru,ternopillive.com.ua,tochka.net,topgir.com.ua,tyurem.net,uainfo.org,ucrazy.ru,unn.com.ua,vd-tv.ru,vedomosti-ural.ru,volynnews.com,wpristav.ru,xsport.ua,yvision.kz,zakon.kz,zi.dn.ua,zn.ua,znaj.ua##[id^=\"n4p_\"]", "24video.adult,24video.click,24video.net,24video.vip##a[class$=\"-landing-page-link\"]", "adult-images.ru,imgbum.ru,opensharing.org,xpicture.ru##a[href*=\"//parnuxi.biz\"]", "24warez.ru,2x2forum.ru,5terka.com,720hdfilm.biz,ace-stream.tv,alive-ua.com,animedub.ru,aniplay.tv,ap22.ru,appsgames.ru,bakemono.ru,big-anime.ru,big-games.info,bik-info.ru,cheatground.ru,chelnyagro.ru,chemezova.ru,cknow.ru,dni24.com,ecofoodferma.ru,elektrosat.ru,etika-education.ru,filmitorrent.site,gamelendi.ru,gazetaby.com,geekmir.ru,gitjournal.tech,gooool.org,hdzal.net,hype.tech,igra-wow.ru,igui.mobi,inform-ua.info,instrument16.ru,kinogo-onlain.net,kinogo-v-hd.ru,kinogod.club,kinogou.co,kinomaxfilm.ru,klub-masterov.ru,kritika24.ru,lelang.ru,libking.ru,lordfilm.net,lostfilm-2020.ru,mixbits.ru,mmorpg.su,moy-instrument.ru,mrtranslate.ru,multfilms.online,newsgsm.com,ognennoetv.ru,ok-tv.org,only-tv.org,osortah.ru,outsidethebox.ms,parazit24.me,pekagames.ru,peugeot-citroen.net,pluggedin.ru,pravdatut.ua,privatbankrf.ru,ravis-avto.ru,remont-avtovaz.ru,repack-fitgirl.com,revelationonlinedb.ru,root-nation.com,rpgdon.com,rusplt.ru,rutracker.ru,samelectric.ru,seasonvar.re,selomoe.ru,seloved.ru,shkolniku.com,siddgames.ru,simhost.org,small-games.info,smotret-fizruk-online.su,smotri.com,sonix.tk,stalkermod.ru,steampass.ru,stiralkainfo.ru,technical.city,tivix.co,tmbw.ru,topasnew.ru,topmmo-games.ru,torrent-games-2016.ru,torrentigri.xyz,totori.ru,trackitonline.ru,tuttop.com,tv-only.org,tvoilokony.ru,uanic.name,uaspectr.com,vizazh-2.ru,volga.news,vsetop.org,vsetut.su,yamdex.net,zhaparova.ru##a[href*=\"/ad.admitad.com/\"]", "dni.ru,eg.ru,kakprosto.ru,metronews.ru,newxboxone.ru,sobesednik.ru,tvtver.ru##a[href*=\"zen.yandex.ru\"]", "24video.adult,24video.click,24video.net,24video.vip##a[href][target][style]", "1progs.ru,2womans.ru,anypictures.ru,pixcloud.ru,psysovet24.ru,screenpost.ru##blockquote", "adult-images.ru,xpicture.ru##div[align=\"center\"] > table[width=\"160\"]", "imgbum.ru##div[align=\"center\"] > table[width=\"205\"]", "okna.ua##div[class*=\"infr\"]", "zr.ru##div[class*=\"sidebar-block\"][class*=\"block bn\"]", "budport.com.ua##div[class] > a[href][rel=\"nofollow\"] > p", "sdamgia.ru##div[class][id]:first-child > div[class][id] > div[class][id] > div[class][id]", "sdamgia.ru##div[class][id]:first-child > div[style=\"width: 100%; height: 100%;\"]", "beautiflash.ru,liveinternet.ru,popcake.tv##div[class^=\"myblockbottom\"]", "mobiltelefon.ru##div[class^=\"rbanner\"]", "kinoafisha.info##noindex > a[href*=\"://okko.tv/\"]", "xpicture.ru##td > form ~ table", "xpicture.ru##td[width=\"195\"][align=\"left\"] > table ~ table", "63.ru,74.ru,e1.ru,ngs.ru,ufa1.ru,v1.ru##div[data-cms-place]", "e1.ru##div[data-place-id]", "it-actual.ru##body > div[class]:not([id])", "it-actual.ru##body > div[id][class]:nth-child(-n+2):not([style])", "stratege.ru##body > div[id*=\"top\"]", "yandex.by,yandex.kz,yandex.ru,yandex.ua,yandex.uz##div[class*=\" news-\"][class$=\"_mode_daas\"]", "mail.ru##body > .zeropixel ~ * div .covid", "wikihow.com###contribute_footer", "app2top.ru,fssp.gov.ru##+js(abort-on-property-read, tingle)", "bryansknovosti.ru,novozybkov.su,sudya-dredd.ru##+js(abort-on-property-read, stopPrntScr)", "budport.com.ua##+js(abort-current-inline-script, $, append)", "fssp.gov.ru##+js(abort-on-property-write, document.oncontextmenu)", "fssp.gov.ru##+js(abort-on-property-write, document.ondragstart)", "fssp.gov.ru##+js(abort-on-property-write, document.onselectstart)", "kurs.com.ua##+js(abort-current-inline-script, document.documentElement.clientWidth)", "liveinternet.ru##+js(abort-on-property-read, Object.prototype._isTurbo)", "scrin.org##+js(abort-on-property-read, onload)", "scrin.org##+js(remove-attr, onclick, a)", "sudya-dredd.ru,tehnobzor.ru##+js(abort-on-property-read, mdpDeBlocker)", "112.ua,24boxing.com.ua,4mama.ua,autoua.net,avtovod.com.ua,beauty.ua,bilshe.com,buhgalter.com.ua,buhgalter911.com,businessua.com,dengi.ua,ditey.com,edinstvennaya.ua,eknigi.org,enovosty.com,epravda.com.ua,eurointegration.com.ua,f1analytic.com,facenews.ua,factor.ua,football-ukraine.com,football24.ua,footballgazeta.com,footballtransfer.com.ua,gismeteo.ua,glianec.com,gorod.dp.ua,hvylya.net,i.ua,inforesist.org,internetua.com,isport.ua,kolobok.ua,kp.ua,kriminal.tv,kzblow.info,lifedon.com.ua,liga.net,mama.ua,mport.ua,nashamama.com,newsyou.info,nnovosti.info,nv.ua,okino.ua,orakul.com,ostro.org,~passport.i.ua,~pinformer.sinoptik.ua,pravda.com.ua,real-vin.com,segodnya.ua,sinoptik.ua,smak.ua,strana.ua,stravy.net,superdom.ua,telegraf.com.ua,tochka.net,tv.ua,tvgid.ua,tvoymalysh.com.ua,udoktora.net,viva.ua,vsetv.com,www.bigmir.net,zdorovia.com.ua##+js(set-constant, String.prototype.charCodeAt, trueFunc)"],
    "removed": ["||bgrndi.com^$third-party", "||brdmin.com^$third-party", "$third-party,script,domain=1poclimaty.ru|24film.top|2planeta.ru|2womans.ru|36doors.ru|4damki.ru|4k-kino.net|7ba.org|7ba.ru|a-dot-kinozal-tv.appspot.com|a-text.ru|accountingsys.ru|activestudy.info|agronom.expert|agronomam.com|agronomu.com|alcogolizm.com|alimero.ru|alkogolu.net|alkomir.net|alkotraz.ru|allsport-tv.ru|amperof.ru|anitorrent.ru|anypictures.ru|aogor.ru|apihot.ru|apkhleb.ru|apornoonlain.tv|appmo.org|artremstroi.ru|assz.ru|astrolibra.com|bad-room.ru|bermen.ru|besstidniki.ru|bestwagen.ru|bestweapon.ru|bit-lite.com|bookmo.org|breaking-bad.tv|bukin.tv|bulvisa.ru|businessmonster.ru|car3g.ru|cardio-life.info|carmen62.ru|centrelizarova.ru|chasov-master.ru|chepok.xyz|chernovsky.ru|chrome-portal-russia.ru|chudesnyemesta.ru|ckmosstroy.ru|clubkaksdelat.website|com-x.life|cools.biz|cools.dj|cosmo-frost.ru|crazyatomicgames.com|cvid.kiev.ua|dachnyuchastok.ru|delphimaster.net|devki.life|dextv.net|diabethelp.org|diabetik.guru|diametod.ru|document-expert.ru|dzd54.ru|ecofoodferma.ru|ecoinform.ru|economics-prorok.com|electroinfo.net|ellunium.ru|enigma-project.ru|erokomiksi.com|erokomiksi.org|eromo.org|erzsebet.org|etikket.ru|eurasia96.ru|ewaline.su|fanserial.net|fermahelp.ru|fetish-porn.online|fgssm.ru|fialka.tomsk.ru|film-ua.com|filmisub.com|filmitorrent.site|films-online.club|filmy-online.be|fit-ness24.ru|fitnessera.ru|fitohome.ru|flashfm.ru|flibusta.site|flower-vrn.ru|fonzo.ru|football-game.club|freepiks.ru|friends-online.me|fullpcgame.ru|games.portal.md|gaming-torrent.net|gastris.ru|gejzer.ru|gfilm.club|gidfermer.com|glaza.guru|goblins-online.ru|godzfilm.net|gold-song.ru|golovaneboli.ru|golovnie-boli.com|goodfilm.top|grand-lion.ru|grand2.ru|gubka-bob.ru|gwss.ru|hajr.ru|halalmemorial.ru|happy-biock.info|happy-block.info|hdkino.biz|hentai-x.ru|hentaiz.org|hentasis1.top|hi-electric.com|historyam.ru|hitmo.org|homeporn.website|horror.name|hot-matures.com|hotmo.org|howto-news.info|huyamba.tv|igra-prestolov.online|igrozoom.ru|iiotconf.ru|indi1.top|instrument16.ru|interesnoevmire.ru|inzhener-info.ru|irinazaytseva.ru|iv-modelist.ru|iz-kirpicha.su|joporn.net|ka4nem.ru|kabel-house.ru|kakpishem.ru|kape.cc|kapec.tv|kapectv.com|kapez.net|kartgeoburo.ru|kino-cinema.info|kino-history.net|kino-life.net|kino4k.in|kino4ua.net|kinobal.ru|kinobaza.info|kinoboom.su|kinocok.org|kinofilmpro.ru|kinofilmu.net|kinogoby.ru|kinohd-novinki.online|kinoking.club|kinopark.su|kinopleer.net|kinopovtor.online|kinoroom.biz|kinosafe.net|kinospace.be|kinospot.me|kinotorrs.me|kinotravel.co|kinotruea.club|kinovau.club|kinovhod.xyz|kinozal-me.appspot.com|kinozal-tv.appspot.com|kinozal-zerkalo.appspot.com|kipolino.site|klopkan.ru|klub-masterov.ru|knigogo.net|korneevroman.ru|kostitv.ru|kotmurka.ru|krov.expert|krovli-zabori.ru|kslift.ru|kubus-expo.ru|kulinarnayamozaika.ru|laservirta.ru|lgotivam.ru|lidrok.ru|lifegid.com|lion-tv.org|lordfilm.fun|lordfilm.guru|lostfilm-hd720.ru|lov16.ru|lucky-girl.ru|luckyfamilyman.ru|luxurytv.online|manrem.ru|manswoman.ru|many-books.org|maxifilm.live|mdroit.com|med-heal.ru|medicafit.ru|medkurs.ru|meduniver.com|mega-porno.me|megatfile.cc|meizer.kz|mhub.top|minusx.ru|modeland.ru|mods-craft.ru|moekopchenie.ru|moifundament.ru|moiinstrumenty.ru|momentpereloma.ru|momssite.ru|moreprodukt.info|moriana.ru|mostech-group.ru|moy-instrument.ru|mp3-muzyka.ru|mp3top.vip|mpsdoc.com|mschistota.ru|msutt.ru|muzmo.cc|muzoffs.ru|muzter.net|my-music-kiosk.ru|myseasonvar.ru|mysekret.ru|mzmuz.ru|nameology.ru|nash-sekret.ru|nashaplaneta.su|nasheporno.tv|nasimke.com|natrukodel.ru|natural-cosmetology.ru|neurodoc.ru|new-baskino.ru|new-kinokrad.club|new-kinokrad.co|new-kinokrad.net|nightmare.su|nitkoj.ru|nosnebolit.ru|obmenvsem.org|obuchonok.ru|ogradim.su|ok-tv.org|okommunalke.ru|olgushka1971.ru|omesyachnyh.ru|onwomen.ru|opensharing.org|os-helper.ru|osortah.ru|otfortlove.ru|otsvetax.ru|ovetryanke.ru|ozge.ru|papa-carlo.su|parnuxi.biz|parnuxi.com|pasmr21.ru|pejnya.me|pejnya.net|pejnya.org|pererojdenie.info|pic-chik.com|picusha.net|pinetka.com|pipdecor.ru|pixcloud.ru|pkrc.ru|planetatain.ru|planshet-info.ru|pmc-perm.ru|pobegtv.ru|podrobnosti.ua|poimel.live|politeka.net|porn720.biz|pornk.pro|pornolomka.com.ru|pornorasskazy.com|pornorota.net|pornotor.org|porus.ru|posudaa.ru|powerserial.club|praviloserdca.ru|prestolov.me|pricheska-strizhka.ru|prikoly2016.ru|pro-acne.ru|proiptv.top|pronpic.org|prookna.info|proua.com.ua|provsehsobak.ru|ptitsadoma.ru|radio-angusht.ru|radnuk.info|rastenia.info|remont-avtovaz.ru|repack-xatab.ru|repka.online|ringon.cc|rogoff.club|roypchel.ru|ru-tor.tech|rubook.org|ruporus.biz|ruporus.cc|ruporus.com|ruporus.net|ruporus.top|ruporus.tv|ruporus.xyz|rustico.ru|rustland.ru|samplepro.ru|sasisa.ru|sbankin.com|sberbanki-onlajn.ru|screenpost.ru|scribble.su|scrin.org|sdelayusama.ru|serial-mentalist.ru|setfilms.net|sex-comics.mobi|shaggyimg.pro|shiryaevpavel.ru|shlupkatv5.name|si-3.ru|siestafit.ru|skorogovo.ru|smartsowet.ru|smotret-fizruk-online.su|smotritut.online|soderzhanki2.ru|software-expert.ru|solutics.ru|sorokam.ru|soundtracks.pro|spar.org.ua|sportsalo.com.ua|sputres.ru|sssexxx.net|starlinemedia.ru|statusdm.ru|stilvann.ru|stop-tarif.ru|studfiles.net|subject.com.ua|subscribesmer.info|suncallin.ru|surgeryzone.net|svarkaed.ru|sweetbook.net|swoofe.ru|t1pochek.site|tapehub.tech|terev.ru|thetarif.ru|thisisus.ru|tip0chek.site|tipochek.xyz|tivix.co|tnt-online.life|tolkorus.info|tolmax.ru|topfacts.com.ua|topfacts.top|topmigrant.ru|topruporno.net|torrent-bro.ru|torrent-igruha.co|torrent-igruha.org|torrent-pirat.com|torrent-post.ru|torrentinka.me|torrentor.pro|torrentss.ru|torrentx.me|trand-store.ru|travelinthesky.ru|trend-city.ru|trupornolabs.org|tupikov.ru|turkish-tv-series.ru|tushkan-tv.net|tvizor.org|tvua.biz|uk-unblock.xyz|ukrlit.net|ukzdor.ru|umeha.3dn.ru|uraltrack.net|utorrentfilmi.ru|vashipitomcy.ru|vasque-russia.ru|veterinargid.ru|vhd1080.online|vi-pole.ru|videotut.live|vidmo.org|vikimult.net|vitaminius.ru|vjazanie-kreativ.ru|vklook.ru|vodakarta.ru|voin.guru|volosipro.info|volshebstvozizni.ru|vona.pp.ua|voyeyrist.com|vpopke.com|vpoz.ru|vsedeserti.ru|vseprokley.ru|vskazke.tv|vtekb.ru|vtorothodi.ru|vtrende72.ru|weaponland.ru|webhalpme.ru|webmaster.pp.ua|wikimetall.ru|windows-portal.pw|windowspro.ru|withcars.ru|world-knigi.ru|x-16.ru|x-minys.ru|x-video.top|xhdporno.porn|ximepa.ru|xittv.net|xn----7sblrbejkkdaeg5b2g.xn--p1ai|xn----8sbp3abdbfk9f.com|xn--d1ach1ajefc.net|xpicture.ru|xsound.kz|xxx-igra.com|ya2018.com|yaldagames.com|yaporn.club|yardyam.ru|yazdorov.win|yhogorlonos.com|z-torrents.ru|zaostalprom.ru|zapiski-stomatologa.ru|zarlit.com|zdorovo-zhivi.ru|zelenj.ru|zf-fm.top|zhkhinfo.ru|zombik.biz|zoom.ru.net", "$third-party,xmlhttprequest,domain=24video.net|24video.vip|4films.net|allhentai.ru|anisima.ru|arablionz.tv|artrozamnet.ru|autotopik.ru|baskino.fun|bigpuzzle.ru|bubluoteka.org|diakov.net|eku.ru|familyspace.ru|farap.ru|fast-torrent.co|film1080p.ru|filmitorrentom.org|findanime.net|ggtube.pro|gorodche.ru|gorodvo.ru|hd-720.com|hdkino.vip|hdklub.com|hdsite.net|hochu.tv|kaztorka.org|kino-hit-online.com|kino-klub.net|kino-tvserial.online|kinogo.cc|kinohd.net|kinohd.ws|kinosvit.tv|kogda.org|magicfilm.net|mainavi.ru|moviebuster.tv|neolove.ru|newcloud.tv|nisorinki.net|nnm-club.lib|nnm-club.me|nnmclub.ro|nnmclub.to|online-hd.biz|onlineguru.ru|ostfilm.tv|pc-torrents.net|pogoda.e1.ru|privat-fotka.ru|prokazan.ru|ru-kino.com|ruvi.tv|seasonvar.ru|shtorm777.ru|smotriserial.me|superhumor.ru|telspravochnik.com|top-radio.ru|torrent-soft.net|torrentshow.org|tryserial.net|voffka.com|vse-sezony.org|yummyanime.club|zk.fm", "$websocket,domain=0day.kiev.ua|192.102.7.159|193.106.30.70|193.106.30.84|1kinobig.ru|1kinogo.net|2000.ua|24molnia.com|24tv.ua|2baksa.net|3dn.ru|3porosenka.ru|4ertik.xxx|4films.net|4torrentgames.net|5.ua|abook-club.ru|ace-stream.tv|addpg.net|ahs-online.net|ahs-online.xyz|alexlan.org|all-best.pro|all-tor.net|allbesta.cc|allbesta.org|allmovie.pro|allmovie.tv|allsport-news.net|anatomia-strasti.com|anime-rus.ru|animespirit.ru|anti-block.org|apostrophe.ua|argumenti.ru|artword.com.ua|asbook.co|asbook.net|asn.in.ua|astro-tv.net|au-books.com|audilka.com|autonews.com.ua|ave-brasil.ru|babla.ru|babushky.ru|badcinema.ru|badtorrent.com|bagnet.org|baskino-hd.ru|baskinohd.ru|baskinonet.ru|bazkino.club|belnovosti.by|benfilm.net|bestnavi.ru|bestserials.net|big-bang-online.ru|big-tor.org|bigbang-tv.net|bigbangtv.space|bigcinema-hd.tv|bigcinema-online.ru|bigcinema-tv.club|bigcinema.org|bigcinemahd.net|bigkiev.com.ua|bit-tor.org|blogspot.com|blogspot.ru|bludlivaya-california.com|bo-em.com|bombardir.ru|book-online.com.ua|bookitut.ru|bookskeeper.ru|brovary.net.ua|bugaga.ru|business.ua|cat-a-cat.net|cccp-kino.com|champion.com.ua|com-x.life|concretejungle.ru|consol-games.net|coocook.me|cool-tor.org|cvid.kiev.ua|dead-online.net|dead-serial.com|delfilm.ru|detectivebooks.ru|deviloff.net|dialog.ua|directadvert.ru|dnevniki-vampira.net|dnevniki-vampira.org|dni24.com|dochronika.ru|dokonlin.ru|dokpro.club|dokumentfilm.ru|dom-filmov.ru|dream-film.tv|drevnie-online.net|drevnie-tv.com|dv-gazeta.info|ebalka.net|echo.msk.ru|elementarno-tv.com|elise.com.ua|epidemz.co|ereko.ru|ero-top.com|eurointegration.com.ua|every-holiday.ru|facenews.ua|fakty.ua|fantasticfilm.ru|fargo-online.net|fast-bit.org|fast-tor.net|fastpicc.ru|favoritemovies.at.ua|filin.tv|film-max.ru|film-tor.org|film4ik.tv|film720.ru|filmio.tv|filmix-online.net|filmogo.co|filmtor.net|filmzguru.ru|fithacker.ru|fizrukoff.net|football-russian.me|football.kulichki.net|football24.ua|free-ru.org|free-rutor.org|freedom-tor.org|friends-online.co|from-ua.com|fstreker.net|futurevideo.pro|gagadget.com|games-reviews.net|gamesontorrent.ru|gamestracker.org|gazeta.ua|get-tune.cc|gidonline-club.ru|gidonlinehd.ru|gighub.net|glavnoe.ua|glavpost.com|gmt-max.net|go-kino.ru|goblin-film.ru|goblins-online.ru|gold-song.ru|golos.zp.ua|goodkino.biz|gooool.org|gorno-altaisk.info|great-tv.ru|griffiny.ru|grimm-online.org|gvirt.com|hardnews.info|hd-720.biz|hd-720.ucoz.net|hd-720.ucoz.ru|hd-bit.org|hd-club.ru|hd-dream.ru|hd-kinogo.co|hd-kinomax.net|hd-kinomax.org|hd720.biz|hdclub.org|hdfilms.tv|hdkino.biz|hdkinohit.net|hdkinolenta.com|hdkinoset.net|hdkinoshka.net|hdkinoteatr.com|hdmulti.net|hdrezka.ag|hdrezka.club|hdrezka.fail|hdrezka.mba|hdrezka.su|hdzal.net|hentaiz.org|history.vn.ua|hotcharts.ru|hothome.info|hvylya.net|igra-prestoloff.cx|igra-prestolov-hd.xyz|ikino.su|ikinohd.club|imtw.ru|india-tv.net|inform-ua.info|informat.com.ua|inopressa.ru|interesnoiveselo.ru|isport.ua|itop-gear.ru|kaifzona.ru|kesemvv.com|kinino.ru|kino-1080hd.ru|kino-az.net|kino-dom.org|kino-filmi.net|kino-go.club|kino-hd.in|kino-hit.online|kino-kingdom.com|kino-nada.net|kino-online.club|kino-panda.net|kino-sayt.net|kino-tor.org|kino-torrent.net|kino-tv.club|kinoaa.ru|kinobaks.net|kinobal.ru|kinobi.club|kinoclips.net|kinoclips.tv|kinodacha.org|kinodacha.ucoz.ru|kinodema.com|kinodroid.net|kinofrog.ru|kinogo-2017.com|kinogo-720.co|kinogo-720.net|kinogo-720.online|kinogo-720p.ru|kinogo-club-online.net|kinogo-club.co|kinogo-club.com|kinogo-co-2016.ru|kinogo-dom.com|kinogo-film.co|kinogo-filmi.net|kinogo-filmov.net|kinogo-free.net|kinogo-hd-720.club|kinogo-hd.net|kinogo-hd.pro|kinogo-hdtv.net|kinogo-net-2016.ru|kinogo-net-2017.co|kinogo-net.tv|kinogo-onlain.club|kinogo-onlain.me|kinogo-onlain.net|kinogo-online.cc|kinogo-online.club|kinogo-online.net|kinogo-ru.net|kinogo-v-hd.ru|kinogo-x.ru|kinogo.by|kinogo.ru.net|kinogo1.club|kinogo16.net|kinogo2.net|kinogo22.net|kinogo4.net|kinogo720p.net|kinogo720p.org|kinogod.club|kinogohd.biz|kinogou.club|kinograd.tv|kinoha.xyz|kinohost.nov.ru|kinokrad-2017.net|kinokrad-onlain.net|kinokrad-online.net|kinokrad-tv.ru|kinokrad.co|kinomafia.tv|kinomagnit.net|kinomanya.net|kinomassa.biz|kinomol.ru|kinopati.ru|kinopictures.net|kinoplen.ru|kinopov.com|kinoprofi.su|kinoprosmotr.site|kinopult.com|kinorob.net|kinorom.com|kinorubik.com|kinosafe.net|kinoseriya.net|kinosok.org|kinospec.net|kinosprut.com|kinostok.tv|kinosub-online.ru|kinosweet.net|kinozal.guru|kinozal.me|kinozal.tv|kinozal.website|kinozaltv.net|kinozed.com|kinozubr.net|kinozver.club|kinozz-hd.ru|kkkino.net|knighki.com|kodik.name|komedra.com|korrespondent.net|korzik.net|kosti-tv.com|kp.ua|kriminal.tv|kulturologia.ru|lalapaluza.ru|latino-serialo.tv|latinochka.ru|lib.rus.ec|libtor.club|linecinema.org|liverpoolfc.ru|livetv-torrent.com|liza.ua|lokomotiv.info|lostfilmhd.ru|lostfilmonline.ru|loveread.ec|loveserial.net|lyudiipolitika.ru|magicfilm.net|marcoserv.ru|marketsignal.ru|mega-tor.org|mega-trek.com|megaserial.me|mind.ua|minizal.su|mirmult.com|mirror-rutor.org|moiserialy.net|molodegka.xyz|movieshok.ru|moviestape.net|mp3-mus.net|mp3zv.ru|multi-tor.org|multiki-online24.ru|multivarka.tv|multon-line.ru|multyasha.com|mundo-latino.ru|muz-color.ru|muztorr.ru|muzyka-torrent.ru|my-hit.org|my-music-kiosk.ru|myflashgame.com.ua|myhdrezka.com|mymult.net|myserialy.ru|myvideopl.com|myvimir.ru|na-kinogo.net|namenu.ru|narodna-pravda.ua|narutoplanet.ru|naspravdi.info|nevsedoma.com.ua|new-kinokrad.club|new-kinokrad.net|new-ru.org|new-tor.org|news-front.info|newserials.tv|newsmsk.com|newspravda.com|newsru.com|newsyou.info|nice-film.ru|nizaika.tv|nnm-club.lib|nnm-club.me|nnmclub.ro|nnmclub.to|no-block.org|nod32eset.ru|nokino.biz|notfilm.ru|novosti-n.info|novostionline.net|nowa.cc|nur.kz|o-filme.ru|oane.ws|oblgazeta.ru|ochevidets.ru|ojin.tv|okino.cc|okino.tv|oko-planet.su|olga-online.com|on-movie.net|onedivision.ru|onfillm.club|onfilmz.net|online-futurama.ru|online-south-park.ru|onlinevideohd.ru|only-tv.org|onlyf.net|onlyfilms.ws|onlymult.com|open-tor.org|ovgorskiy.ru|p-p.com.ua|pc-torrents.net|pdalife.ru|pesni-tut.com|petamusic.ru|petamusik.ru|piguiqproxy.com|pixelbrush.ru|planeta-mult.ru|planetanovosti.com|play-apk.ru|pleer.ws|podrobnosti.ua|poiskm.co|politeka.net|popadenec.ru|porjati.net|porjati.ru|pornoshara.tv|pravda.com.ua|primgazeta.ru|prnt.sc|prntscr.com|proxy-rutor.org|pure-t.ru|putin-today.ru|qiqru.org|qmp3.cc|qrz.ru|qwasd.ru|radikal.ru|radiola.audio|radnuk.info|rango.tv|real-game.net|real-vin.com|report.if.ua|ria-m.tv|rifey.ru|rogoff.club|rosserial.net|royallib.com|rp-mechanics.ru|rsload.net|ru-bit.com|ru-free-tor.org|ru-tor.net|rudifilm.com|rulit.me|rupolitshow.ru|rupor.info|rus-tor.com|rusdialog.ru|rusdozor.ru|rusjev.net|russian-porn.online|russiapost.su|rutor-group.pro|rutor.co|rutor.info|rutor.is|rutracker-2017.org|ruxox.ru|rvb.ru|sbornik-music.ru|season-var.net|seasonvar.cc|seasonvar.re|seasonvar.ru|segodnya.ua|selflib.me|serial.wiki|serialguru.ru|serialis.net|serialpro.net|serialsend.ru|sexvhd.net|sexytal.com|sezon-hd.ru|shans.com.ua|shanson.name|share-serials.net|sharij.net|sherlok.me|shnyagi.net|show-online.tv|showgid.tv|sibnet.ru|sitandwatch.org|skidows.com|skycinema.cc|slushat-radio.net|small-game.com|smo333.com|smotra.net|smotret-fizruk-online.su|smotret-online.kz|smotretfilm.online|smotri-filmi.cc|smotri-filmu.ru|sobytiya.net|sovkinofilm.ru|spletnica-tv.com|sportlook.tv|sputniktv.in.ua|srubirubli.ru|sshut.ru|stereotraker.ru|stockinfocus.ru|strana.ua|strela-online.com|super-tor.net|sverhestestvenoe.com|tapochek.net|tbperedachi.ucoz.ru|teenwolf-tv.com|tele-go.net|televizorus.com|tengrinews.kz|tfilm.co|the100-tv.com|theflash-tv.com|thg.ru|top-tor.org|tor-bit.net|tor-ru.net|tor-ru.org|tor-unblock.org|torentor.co|torentor.net|torrent-baza.com|torrent-filmi.net|torrent-mob.at.ua|torrent-windows.net|torrent-zona.com|torrent2games.net|torrentino.me|torrentino.online|torrentk.ru|torrents-free.ru|totori.ru|tparser.org|tracker.hdclub.com.ua|tracktor.tv|trialeset.org|trialeset.ru|turkey-tv.net|turksinema.net|tushkan.club|tushkan.net|tut-film.com|tv-300.ru|tv-only.org|tv-torrent.me|tvbook.tv|tvonline.su|tvseason.net|tvserial-online.biz|tvtorrent.me|tyachivnews.in.ua|ua-cinema.com|ua.today|uainfo.org|uaonlinefilms.com|uchebnik-online.net|uchim.org|udaff.com|ukr.net|ukrlib.com.ua|ukrlit.net|uniongang.net|uniongang.org|univeroff.net|unn.com.ua|ura-inform.com|uralpress.ru|uraltrack.net|valuta.online.ua|vd-tv.ru|vdvsn.ru|vepizode.net|veroyatno.com.ua|versii.com|vesti.kz|vgorode.ua|vikingi-online.net|vikka.ua|vinixmult.net|vip-tor.org|vkino-tv.ru|vkinoteatre.net|vklipe.com|vnx.su|volynnews.com|vserialy.com|vserpg.ru|vsesochineniya.ru|vsetop.com|vskazke-tv.com|vtorrents.net|westernfilm.ru|wikimovies.ru|women-page.ru|wood-film.net|world-ua.com|wow-show.ru|wsturbo.net|x-bit.net|x-tor.org|xmuzic.me|xn--c1adkjnf.net|xn--c1ajfnfb.net|xn--j1aidcn.org|xsport.ua|yahooeu.ru|yallaneliera.com|yaminecraft.ru|ymka.tv|youtubetv.com.ua|ytra.ru|zakon.kz|zercalorutor.org|zerkalo-rutor.org|zerx.club|zfilm-hd.club|zhd.life|znaj.ua|zona-film.com|zona.mobi|zpravda.ru|zserials.cc|zwezda.net", "|ws*://$domain=0day.kiev.ua|192.102.7.159|193.106.30.70|193.106.30.84|1kinobig.ru|1kinogo.net|2000.ua|24molnia.com|24tv.ua|2baksa.net|3dn.ru|3porosenka.ru|4ertik.xxx|4films.net|4torrentgames.net|5.ua|abook-club.ru|ace-stream.tv|addpg.net|ahs-online.net|ahs-online.xyz|alexlan.org|all-best.pro|all-tor.net|allbesta.cc|allbesta.org|allmovie.pro|allmovie.tv|allsport-news.net|anatomia-strasti.com|anekdot.ru|anime-rus.ru|animespirit.ru|anti-block.org|apostrophe.ua|argumenti.ru|artword.com.ua|asbook.co|asbook.net|asn.in.ua|astro-tv.net|au-books.com|audilka.com|autonews.com.ua|ave-brasil.ru|babla.ru|babushky.ru|badcinema.ru|badtorrent.com|bagnet.org|baskino-hd.ru|baskinohd.ru|baskinonet.ru|bazkino.club|belnovosti.by|benfilm.net|bestnavi.ru|bestserials.net|big-bang-online.ru|big-tor.org|bigbang-tv.net|bigbangtv.space|bigcinema-hd.tv|bigcinema-online.ru|bigcinema-tv.club|bigcinema.org|bigcinemahd.net|bigkiev.com.ua|bit-tor.org|blogspot.com|blogspot.ru|bludlivaya-california.com|bo-em.com|bombardir.ru|book-online.com.ua|bookitut.ru|bookskeeper.ru|brovary.net.ua|bugaga.ru|business.ua|cat-a-cat.net|cccp-kino.com|champion.com.ua|com-x.life|concretejungle.ru|consol-games.net|coocook.me|cool-tor.org|cvid.kiev.ua|dead-online.net|dead-serial.com|delfilm.ru|detectivebooks.ru|deviloff.net|dialog.ua|directadvert.ru|dnevniki-vampira.net|dnevniki-vampira.org|dni24.com|dochronika.ru|dokonlin.ru|dokpro.club|dokumentfilm.ru|dom-filmov.ru|dream-film.tv|drevnie-online.net|drevnie-tv.com|dv-gazeta.info|ebalka.net|echo.msk.ru|elementarno-tv.com|elise.com.ua|epidemz.co|ereko.ru|ero-top.com|eurointegration.com.ua|every-holiday.ru|facenews.ua|fakty.ua|fantasticfilm.ru|fargo-online.net|fast-bit.org|fast-tor.net|fastpicc.ru|favoritemovies.at.ua|filin.tv|film-max.ru|film-tor.org|film4ik.tv|film720.ru|filmio.tv|filmix-online.net|filmogo.co|filmtor.net|filmzguru.ru|fithacker.ru|fizrukoff.net|football-russian.me|football.kulichki.net|football24.ua|free-ru.org|free-rutor.org|freedom-tor.org|friends-online.co|from-ua.com|fstreker.net|futurevideo.pro|gagadget.com|games-reviews.net|gamesontorrent.ru|gamestracker.org|gazeta.ua|get-tune.cc|gidonline-club.ru|gidonlinehd.ru|gighub.net|glavnoe.ua|glavpost.com|gmt-max.net|go-kino.ru|goblin-film.ru|goblins-online.ru|gold-song.ru|golos.zp.ua|goodkino.biz|gooool.org|gorno-altaisk.info|great-tv.ru|griffiny.ru|grimm-online.org|gvirt.com|hardnews.info|hd-720.biz|hd-720.ucoz.net|hd-720.ucoz.ru|hd-bit.org|hd-club.ru|hd-dream.ru|hd-kinogo.co|hd-kinomax.net|hd-kinomax.org|hd720.biz|hdclub.org|hdfilms.tv|hdkino.biz|hdkinohit.net|hdkinolenta.com|hdkinoset.net|hdkinoshka.net|hdkinoteatr.com|hdmulti.net|hdrezka.ag|hdrezka.club|hdrezka.fail|hdrezka.mba|hdrezka.su|hdzal.net|hentaiz.org|history.vn.ua|hotcharts.ru|hothome.info|hvylya.net|igra-prestoloff.cx|igra-prestolov-hd.xyz|ikino.su|ikinohd.club|imtw.ru|india-tv.net|inform-ua.info|informat.com.ua|inopressa.ru|interesnoiveselo.ru|isport.ua|itop-gear.ru|kaifzona.ru|kesemvv.com|kinino.ru|kino-1080hd.ru|kino-az.net|kino-dom.org|kino-filmi.net|kino-go.club|kino-hd.in|kino-hit.online|kino-kingdom.com|kino-nada.net|kino-online.club|kino-panda.net|kino-sayt.net|kino-tor.org|kino-torrent.net|kino-tv.club|kinoaa.ru|kinobaks.net|kinobal.ru|kinobi.club|kinoclips.net|kinoclips.tv|kinodacha.org|kinodacha.ucoz.ru|kinodema.com|kinodroid.net|kinofrog.ru|kinogo-2017.com|kinogo-720.co|kinogo-720.net|kinogo-720.online|kinogo-720p.ru|kinogo-club-online.net|kinogo-club.co|kinogo-club.com|kinogo-co-2016.ru|kinogo-dom.com|kinogo-film.co|kinogo-filmi.net|kinogo-filmov.net|kinogo-free.net|kinogo-hd-720.club|kinogo-hd.net|kinogo-hd.pro|kinogo-hdtv.net|kinogo-net-2016.ru|kinogo-net-2017.co|kinogo-net.tv|kinogo-onlain.club|kinogo-onlain.me|kinogo-onlain.net|kinogo-online.cc|kinogo-online.club|kinogo-online.net|kinogo-ru.net|kinogo-v-hd.ru|kinogo-x.ru|kinogo.by|kinogo.ru.net|kinogo1.club|kinogo16.net|kinogo2.net|kinogo22.net|kinogo4.net|kinogo720p.net|kinogo720p.org|kinogod.club|kinogohd.biz|kinogou.club|kinograd.tv|kinoha.xyz|kinohost.nov.ru|kinokrad-2017.net|kinokrad-onlain.net|kinokrad-online.net|kinokrad-tv.ru|kinokrad.co|kinomafia.tv|kinomagnit.net|kinomanya.net|kinomassa.biz|kinomol.ru|kinopati.ru|kinopictures.net|kinoplen.ru|kinopov.com|kinoprofi.su|kinoprosmotr.site|kinopult.com|kinorob.net|kinorom.com|kinorubik.com|kinosafe.net|kinoseriya.net|kinosok.org|kinospec.net|kinosprut.com|kinostok.tv|kinosub-online.ru|kinosweet.net|kinozal.guru|kinozal.me|kinozal.tv|kinozal.website|kinozaltv.net|kinozed.com|kinozubr.net|kinozver.club|kinozz-hd.ru|kkkino.net|knighki.com|kodik.name|komedra.com|korrespondent.net|korzik.net|kosti-tv.com|kp.ua|kriminal.tv|kulturologia.ru|lalapaluza.ru|latino-serialo.tv|latinochka.ru|lib.rus.ec|libtor.club|linecinema.org|liverpoolfc.ru|livetv-torrent.com|liza.ua|lokomotiv.info|lostfilmhd.ru|lostfilmonline.ru|loveread.ec|loveserial.net|lyudiipolitika.ru|magicfilm.net|marcoserv.ru|marketsignal.ru|mega-tor.org|mega-trek.com|megaserial.me|mind.ua|minizal.su|mirmult.com|mirror-rutor.org|moiserialy.net|molodegka.xyz|movieshok.ru|moviestape.net|mp3-mus.net|mp3zv.ru|multi-tor.org|multiki-online24.ru|multivarka.tv|multon-line.ru|multyasha.com|mundo-latino.ru|muz-color.ru|muztorr.ru|muzyka-torrent.ru|my-hit.org|my-music-kiosk.ru|myflashgame.com.ua|myhdrezka.com|mymult.net|myserialy.ru|myvideopl.com|myvimir.ru|na-kinogo.net|namenu.ru|narodna-pravda.ua|narutoplanet.ru|naspravdi.info|nevsedoma.com.ua|new-kinokrad.club|new-kinokrad.net|new-ru.org|new-tor.org|news-front.info|newserials.tv|newsmsk.com|newspravda.com|newsru.com|newsyou.info|nice-film.ru|nizaika.tv|nnm-club.lib|nnm-club.me|nnmclub.ro|nnmclub.to|no-block.org|nod32eset.ru|nokino.biz|notfilm.ru|novosti-n.info|novostionline.net|nowa.cc|nur.kz|o-filme.ru|oane.ws|oblgazeta.ru|ochevidets.ru|ojin.tv|okino.cc|okino.tv|oko-planet.su|olga-online.com|on-movie.net|onedivision.ru|onfillm.club|onfilmz.net|online-futurama.ru|online-south-park.ru|onlinevideohd.ru|only-tv.org|onlyf.net|onlyfilms.ws|onlymult.com|open-tor.org|ovgorskiy.ru|p-p.com.ua|pc-torrents.net|pdalife.ru|pesni-tut.com|petamusic.ru|petamusik.ru|piguiqproxy.com|pixelbrush.ru|planeta-mult.ru|planetanovosti.com|play-apk.ru|pleer.ws|podrobnosti.ua|poiskm.co|politeka.net|popadenec.ru|porjati.net|porjati.ru|pornoshara.tv|pravda.com.ua|primgazeta.ru|prnt.sc|prntscr.com|proxy-rutor.org|pure-t.ru|putin-today.ru|qiqru.org|qmp3.cc|qrz.ru|qwasd.ru|radikal.ru|radiola.audio|radnuk.info|rango.tv|real-game.net|real-vin.com|report.if.ua|ria-m.tv|rifey.ru|rogoff.club|rosserial.net|royallib.com|rp-mechanics.ru|rsload.net|ru-bit.com|ru-free-tor.org|ru-tor.net|rudifilm.com|rulit.me|rupolitshow.ru|rupor.info|rus-tor.com|rusdialog.ru|rusdozor.ru|rusjev.net|russian-porn.online|russiapost.su|rutor-group.pro|rutor.co|rutor.info|rutor.is|rutracker-2017.org|ruxox.ru|rvb.ru|sbornik-music.ru|season-var.net|seasonvar.cc|seasonvar.re|seasonvar.ru|segodnya.ua|selflib.me|serial.wiki|serialguru.ru|serialis.net|serialpro.net|serialsend.ru|sexvhd.net|sexytal.com|sezon-hd.ru|shans.com.ua|shanson.name|share-serials.net|sharij.net|sherlok.me|shnyagi.net|show-online.tv|showgid.tv|sibnet.ru|sitandwatch.org|skidows.com|skycinema.cc|slushat-radio.net|small-game.com|smo333.com|smotra.net|smotret-fizruk-online.su|smotret-online.kz|smotretfilm.online|smotri-filmi.cc|smotri-filmu.ru|sobytiya.net|sovkinofilm.ru|spletnica-tv.com|sportlook.tv|sputniktv.in.ua|srubirubli.ru|sshut.ru|stereotraker.ru|stockinfocus.ru|strana.ua|strela-online.com|super-tor.net|sverhestestvenoe.com|tapochek.net|tbperedachi.ucoz.ru|teenwolf-tv.com|tele-go.net|televizorus.com|tengrinews.kz|tfilm.co|the100-tv.com|theflash-tv.com|thg.ru|top-tor.org|tor-bit.net|tor-ru.net|tor-ru.org|tor-unblock.org|torentor.co|torentor.net|torrent-baza.com|torrent-filmi.net|torrent-mob.at.ua|torrent-windows.net|torrent-zona.com|torrent2games.net|torrentino.me|torrentino.online|torrentk.ru|torrents-free.ru|totori.ru|tparser.org|tracker.hdclub.com.ua|tracktor.tv|trialeset.org|trialeset.ru|turkey-tv.net|turksinema.net|tushkan.club|tushkan.net|tut-film.com|tv-300.ru|tv-only.org|tv-torrent.me|tvbook.tv|tvonline.su|tvseason.net|tvserial-online.biz|tvtorrent.me|tyachivnews.in.ua|ua-cinema.com|ua.today|uainfo.org|uaonlinefilms.com|uchebnik-online.net|uchim.org|udaff.com|ukr.net|ukrlib.com.ua|ukrlit.net|uniongang.net|uniongang.org|univeroff.net|unn.com.ua|ura-inform.com|uralpress.ru|uraltrack.net|valuta.online.ua|vd-tv.ru|vdvsn.ru|vepizode.net|veroyatno.com.ua|versii.com|vesti.kz|vgorode.ua|vikingi-online.net|vikka.ua|vinixmult.net|vip-tor.org|vkino-tv.ru|vkinoteatre.net|vklipe.com|vnx.su|volynnews.com|vserialy.com|vserpg.ru|vsesochineniya.ru|vsetop.com|vskazke-tv.com|vtorrents.net|westernfilm.ru|wikimovies.ru|women-page.ru|wood-film.net|world-ua.com|wow-show.ru|wsturbo.net|x-bit.net|x-tor.org|xmuzic.me|xn--c1adkjnf.net|xn--c1ajfnfb.net|xn--j1aidcn.org|xsport.ua|yahooeu.ru|yallaneliera.com|yaminecraft.ru|ymka.tv|youtubetv.com.ua|ytra.ru|zakon.kz|zercalorutor.org|zerkalo-rutor.org|zerx.club|zfilm-hd.club|zhd.life|zn.ua|znaj.ua|zombie-tv.org|zona-film.com|zona.mobi|zpravda.ru|zserials.cc|zwezda.net", "||ad.admitad.com^$domain=1track.ru|24warez.ru|2x2forum.ru|3porosenka.ru|5terka.com|720hdfilm.biz|alive-ua.com|appsgames.ru|bakemono.ru|bdobase.info|big-games.info|bloknot-khersona.ks.ua|chelnyagro.ru|cknow.ru|comodity.ru|dentv.ru|dokumentalkino.net|ecofoodferma.ru|elektrosat.ru|etika-education.ru|filmitorrent.site|forumodua.com|gameru.net|geekmir.ru|gitjournal.tech|gooool.org|goroskop.ru|hype.tech|igri-2012.ru|igui.mobi|ilenta.com|inform-ua.info|instrument16.ru|klub-masterov.ru|kritika24.ru|krovli-zabori.ru|list-org.com|lordfilm.net|lostfilm-2020.ru|moy-instrument.ru|mrtranslate.ru|multfilms.online|mywishlist.ru|newsgsm.com|ognennoetv.ru|ogribax.ru|onedivision.ru|osnovu-ved.ru|outsidethebox.ms|parazit24.me|peugeot-citroen.net|pluggedin.ru|privatbankrf.ru|ravis-avto.ru|real-vin.com|remont-avtovaz.ru|revelationonlinedb.ru|root-nation.com|rus-game.net|rusplt.ru|rutracker.lib|rutracker.net|rutracker.nl|rutracker.org|rutracker.ru|samelectric.ru|selomoe.ru|seloved.ru|shkolniku.com|siddgames.ru|small-games.info|sovetremont.com|sshut.ru|steampass.ru|superg.ru|synonymizer.ru|tmbw.ru|topmmo-games.ru|torrent-games-2016.ru|torrentigri.xyz|torrentiko.net|trackitonline.ru|tuttop.com|tvoilokony.ru|uniondht.org|vizazh-2.ru|volga.news|vsetop.org|vsetut.su|webtoks.ru|zhaparova.ru", "||bobsoccer.ru/data/banners/$image", "||favn.noob-club.ru/", "||fub.noob-club.ru/", "||fursa.noob-club.ru/", "||highflyers.ru^$domain=stykrf.ru", "||market.yandex.ru/widget/$script,domain=1000000diy.ru|220.guru|3dnews.ru|bibe.ru|briefly.ru|cadelta.ru|cnews.ru|computerworld.ru|cross.expert|cubiq.ru|digger.ru|drive2.ru|electric-220.ru|expert-dacha.pro|f1comp.ru|fireman.club|housechief.ru|hype.tech|ichip.ru|iguides.ru|irecommend.ru|it-here.ru|itrew.ru|konstruktortestov.ru|kp.ru|kupidonia.ru|lavnik.net|mamsy.ru|megaobzor.com|migeek.ru|migid.ru|modxvm.com|overclockers.ru|prochtu.ru|prosmarttv.ru|rbkgames.com|remontcma.ru|rozetked.me|russkiypro.ru|sad24.ru|servernews.ru|sovet-ingenera.com|stroy-podskazka.ru|tehnikoved.ru|tut.by|ukula.ru|vplate.ru|winnote.ru|wylsa.com|yablyk.com|zinref.ru", "||noob-club.ru^$object", "||okna.ua/informer_ajax/", "||topgir.com.ua/files/$object", "@@||point-of-entry.com^$websocket,domain=ruletka.chat|videochatru.com|vk-videochatru.apps-host.com", "@@/fuckadblock$domain=164.132.204.49|433175.ru|46.30.41.66|46.30.42.50|46.30.43.38|blackdesertbase.ru|broshunters.com|dok-film.net|gwss.ru|liveball6.ml|omsi2mod.ru|pogarbibl.ru|revelationonlinedb.ru|role-me.ru|rpgdon.com|rybalku.ru|standupzona.ru|unit-car.com|widget.cdn-tv.net|winzoro.net|www.sport-express.ru", "@@||adservice.google.*/adsid/integrator.js$domain=izzylaif.com|maxpark.com|player.tubia.com", "@@||googleads.g.doubleclick.net/$xmlhttprequest,domain=cdnneedtv.ru|cdnpotok.com|cdntelesee.com|chepok.xyz|domatv.net|hdone.net|hindcine.tv|kipolino.site|klplayer.website|pokaz.me|rxtv.github.io|sovetromantica.com|src.media-base.co|starserial.ru|tivix.co|viks.tv", "@@||pagead2.googlesyndication.com/pagead/js/adsbygoogle.js|$domain=3dsmaxvideo.ru|anitokyo.tv|anypictures.ru|archicadvideo.ru|autocadvideo.ru|bstudy.net|coreldrawvideo.ru|daz3d.ru|di.fm|electrotests.ru|excelvideo.ru|helpsetup.ru|img2txt.com|imgbum.ru|kompasvideo.ru|nv.ua|olegon.ru|open3dmodel.com|opensharing.org|ozlib.com|parnuxi.biz|photoshopvideo.ru|pixcloud.ru|solidworksvideo.ru|studbooks.net|studme.org|studref.com|studwood.ru|tarkov-market.com|tehnobzor.ru|tehnografi.com|test24.wweek.ru|tests24.su|testserver.pro|vuzlit.ru|wallpapershome.ru|warhead.su|wordvideo.ru|xpicture.ru|xstud.ru", "aghdrezka.com,ahdrezka.com,betahdrezka.com,clubhdrezka.com,cokinopoisk.com,drhdrezka.com,ehdrezka.com,ekinopoisk.com,ezhdrezka.com,gethdrezka.com,hdrezka-ag.com,hdrezka.buzz,hdrezka.city,hdrezka.club,hdrezka.co,hdrezka.gift,hdrezka.ink,hdrezka.link,hdrezka.loan,hdrezka.lol,hdrezka.name,hdrezka.rest,hdrezka.run,hdrezka.sh,hdrezka.today,hdrezka.tv,hdrezka.vip,hdrezka.website,hdrezka.win,hdrezkablog.com,hdrezkaweb.com,hdrezkayou.com,instahdrezka.com,justhdrezka.com,livehdrezka.com,livekinopoisk.com,metahdrezka.com,mrhdrezka.com,myhdrezka.com,nexthdrezka.com,nuhdrezka.com,nukinopoisk.com,rehdrezka.com,rezka.ag,thehdrezka.com,tryhdrezka.com,tvhdrezka.com,uphdrezka.com,youhdrezka.com###ownplayer-link-show", "freepiks.ru###right-image", "aghdrezka.com,ahdrezka.com,betahdrezka.com,clubhdrezka.com,cokinopoisk.com,drhdrezka.com,ehdrezka.com,ekinopoisk.com,ezhdrezka.com,gethdrezka.com,hdrezka-ag.com,hdrezka.buzz,hdrezka.city,hdrezka.club,hdrezka.co,hdrezka.gift,hdrezka.ink,hdrezka.link,hdrezka.loan,hdrezka.lol,hdrezka.name,hdrezka.rest,hdrezka.run,hdrezka.sh,hdrezka.today,hdrezka.tv,hdrezka.vip,hdrezka.website,hdrezka.win,hdrezkablog.com,hdrezkaweb.com,hdrezkayou.com,instahdrezka.com,justhdrezka.com,livehdrezka.com,livekinopoisk.com,metahdrezka.com,mrhdrezka.com,myhdrezka.com,nexthdrezka.com,nuhdrezka.com,nukinopoisk.com,rehdrezka.com,rezka.ag,thehdrezka.com,tryhdrezka.com,tvhdrezka.com,uphdrezka.com,youhdrezka.com###vk_groups + div[style]", "newsland.com###wrapper > .sidebar[data-fabric]", "1liveinternet.ru,1tvv-novosti.com,2017-medical.ru,24-rus.info,24reporter.ru,4jiqzr.ru,adregain.ru,ads.bid,advgoods.com,amigo-browser.ru,amigo-free.website,amigodistrib.ru,amigone.ru,animedub.ru,apicloud.ru,arka-gallery.ru,azartpl.com,azartplay.casino,b2b2.su,beamigo.pw,beamigo.ru,best-games.today,best-zdorovye.ru,best-zdrav.ru,beststbuy.ru,bignovosti.ru,blamper-novosti.ru,blamper-portal.ru,blogers-story.ru,blogersnews.com,blogi-novosti.ru,blogiblogi.com,blogisstore.com,blogistar.org,blogistories.com,blogonews.org,blogostar.org,blogstarhit.org,blogstarnews.org,boldblogs.com,bookofluck.net,breakingdigest.com,bro-freelite.ru,brofree-lite.ru,bromigo.pw,browser-lite.ru,browser-lite2018.ru,browser2018-lite.ru,browser2018lite.ru,browserextensions.net,browserlite-free.ru,browserlite2018.ru,browserlitefree.ru,budyte-zdorovy.ru,canal96.live,cardvrmirrorr.ru,centr-compensation.ru,chatreg.ru,chydomir.ru,cinemapub.top,clbvorange.com,clbvpurple.com,content.directadvert.ru,cosmosblogs.com,cosmow0mans.ru,cs-serva.net,csp-oz66pp.ru,curiousblogs.com,d38dub.ru,dastrutor.site,directx.biz,dnevni4ok.com,down-news-games.ru,downloadamigo.com,downloadbrowserlite.net,downloadlitebrowser.com,downloadlitebrowser.net,downloadlitefree.com,downloadlitefree.net,downloadlitefree.org,downloadlitefree.ru,drp.su,dugtor-deer.pw,elementsbrowser.com,endocri.ru,etarg.network,everinform.com,eversmi.com,ex-news.net,ex.24smi.info,ex.infox.sg,exonews.ru,extra-7news.ru,failovik.com,fancyblogz.com,fiieresmi.ru,fin-vecto.ru,fin-vector.ru,fine-blogs.com,flebolab.ru,fokspolit.ru,foto-video-foto.ru,foxpolit.ru,free-bro-lite.ru,free-lite-bro.ru,free-litebrowser.ru,free-torrents.eu.org,freebro-lite.ru,freebrowserlite.ru,freelite-browser.ru,freelitebrowser.com,freelitebrowser.ru,gameorplay.info,gamereleasedate.info,gamesfortuna.com,get-lite-browser.net,get-litebrowser.net,getbonus.info,getbrowser.org,getbrowser.ru,getbrowserlite.net,getdriverpack.ru,getlitebrowser.com,getlitebrowser.net,getlitebrowser.org,getlitebrowser.ru,getvivaldi.info,getvivaldibrowser.com,getvivaldibrowser.net,globalstylis.ru,go-torrent.pro,gobrowserdownload.com,good-pressa.com,govnogames.com,health-official.ru,i-blogos.ru,ibloggers.ru,idealmedia.io,info-blog24.ru,info-peoples.org,infoblogs.pro,infopolitfoks.ru,installpack.net,internet-gazeta.net,kick.media,kindblogs.com,kinowinx.ru,kinozal-zerkalo.appspot.com,krasota-zdorovie.com,krutor.eu.org,landpages.co,laynews.ru,lesnews.ru,liknews.ru,likuysebe.ru,lite-browser.ru,lite-browserfree.ru,lite-free.com,lite-free.net,lite-free.org,lite-free.ru,litebrowser-2018.ru,litebrowser.ru,litebrowser2018.com,litebrowser2018.ru,litebrowserdownload.com,litebrowserdownload.net,litedownload.org,litedownload.ru,litefree.org,litefree.ru,litefreebrowser.ru,litemybrowser.ru,litenewbrowser.ru,livbloogjournal.net,live-blogs.info,live-novostimira.ru,live-rutor.ga,liveblogjournal.biz,liveblogjournal.net,losnews.ru,mainews.ru,malusheva.ru,marketgid.com,marketgid.ru,masterbyte.gdn,mech.net.ru,med-ecina.info,med-infarmationen.ru,med24-mj.ru,med24otvet.ru,mediapress.xyz,medic-portal24.com,medic-statistic.ru,medicalblogs.ru,medicin-novosti-24.com,medicina-narodov.ru,medicine-news.net,medicineteaser.org,medicineteaser.ru,medinfo.today,medinforms.ru,medlifehistory.ru,medlifestory.ru,mednews-online.ru,mega-game.org,mega-pics-money.ru,melbetpyy.host,melbetqmq.host,mellowblogs.com,meycity.ru,minportal.ru,minroszdrav.com,mixerred.ru,mmorpgfree.ru,moi-oftalmolog.com,morozisneg.ru,moutrack.ru,msetup.pro,mvdpmr.ru,my-amigo-mail.info,my-lite-browser.info,my-story.info,my0blog.ru,mybrowserlite.ru,mylifeblog24.ru,mylitebro.com,mylitebro.net,mylitebro.ru,mylitebrowser.com,mylitebrowser.net,mytrk.xyz,mytvblogs24.ru,nalivali.ru,neatblogs.com,new-lite-browser.ru,new-rutor.com.pl,new-rutor.in,new-rutor.net.pl,new-rutor.org.pl,new-trio.com,newallsmi.ru,newbloggs.xyz,newbrowserlite.ru,newlitebrowser.ru,newrutor.eu.org,newrutor.org.pl,news-decent.com,news-top-rated.com,newsbouthealth.com,newsles.ru,newslik.ru,newsma.ru,newsmore.info,newssy.ru,nice-pressa.com,offergate.pro,ognyvo.ru,ognyvoinfo.ru,ok9ydq.ru,olx.ua.partners,omyamigo.pw,onestarblog.ru,online2017.ru,openew.ru,operadistrib.ru,opn-news.ru,orgsales.ru,para-new.com,pc-games-torrent.ru,pekagames.ru,picpick.ru,plsva.ru,pochistit.ru,polit-e-fox.ru,polit-fox.ru,polit-infox.ru,politfoks.ru,politfox.ru,politinfox.ru,politrook.ru,politrosnews.ru,popcornhd.ru,portal-peoples.com,pressa-plus.com,pricessmall.com,pro-zdorovye.ru,pusja.ga,readtoday.ru,readvesti.ru,realgoodies.ru,renderbrandium.com,rendersaveron.com,ribnadzo.ru,ros-infonews.ru,rosguards.date,rosinfonews.ru,rospolitfoks.ru,rospolitnews.ru,rossinfonews.ru,rossinfonewsrf.ru,ru-tor.biz,ruinfoblog.com,runews-time.xyz,runewslenta.com,rupolitnews.ru,rustoria-topnews.ru,rustory-news.ru,rutor.biz.pl,rutor.edu.pl,rutor.ml,rutor.net.pl,rutor.su,rutor.tech,rutorgame.org,rutorrent.co,rutors.tk,rutracker-zerkalo.appspot.com,rutracker.eu,rutracker.eu.org,rutracker.org.pl,rutracker.pp.ua,rutracker.work,saymigren.net,sb-on-line.ru,show.novostionline.net,smi24online.ru,smiru.ru,smivdetails.ru,spishi.vip,starblog.org,stories-news.com.ua,stories-news.ru,sweetbloggs.com,sysenvfiles.net,tft-test.ru,this-my-blog.ru,top-info24.ru,top-newsrustoria.ru,top-rutor.eu,top-zdorovie.ru,top.24smi.info,topallsmi.com,topik-blog.ru,toplenta.com,topnews.novostionline.net,topnews.smi.one,toprated-film.co,topruistory.ru,toprustory.ru,topsmileader.com,topstory-24.ru,torrent-rutor.eu,torrent-rutor.pl,torrent4game.com,torrentino-games.net,torrentino-games.ru,torrentum.ru,tranzitpagetop.ru,tranzitsmi.ru,trueblg.ru,trutor.org.pl,u-load.ru,ubar-pro.ru,ubar-pro2.ru,ubar-pro3.ru,ubar-pro4.ru,ubar.pro,ufiler-pro.ru,ufiler.pro,upro.me,utorrentfilmi.ru,vash-doktor24.ru,vashflebolog.ru,vesti-smi.ru,viniki.ru,vivaldi-browser.com,vivaldi-browser.net,vrutor.eu,vse-dly-vas.ru,vse-pro-zdorovye.ru,websdr.space,wogoods.com,worldinform.ru,wrutor.org.pl,x-yzabc.ru,xbox-torrent.ru,xrutor.eu,xrutor.eu.org,xrutor.ga,zdorov-story.ru,zdorovgoods.com,zdorovo.xyz,zdorovproduct.ru,zdorovtea.ru,zfvklk.ru,zodiac-game.info,zpppstop.ru,zqwjpxow7boc.ru##*", "bobsoccer.ru,obninsk.name,www.zoneofgames.ru##.Banner", "1927.kiev.ua,1plus1.video,bigpicture.ru,bubluoteka.org,chatadelic.net,day.az,fotokto.ru,gamehunt.net,gotoshop.net.ua,gs.by,gsconto.com,hentaiz.org,hotzoom.net,icons8.ru,infoniac.ru,jooble.org,jooble.ua,kino-krad.com,kinogo-hit.com,kinogo10-filmi-2019.club,kinogo222.club,kinoonline.org,kinovip.online,klubok.com,like-film.online,malenkiy.ru,mangalib.me,meta.ua,orl.ec,podrobnosti.ua,ranobelib.me,scooter-remont.com,seasonvar24.com,sexytales.org,soccer.ru,sports.kz,takprosto.cc,tokino.me,tvsezon.com,vse.fm,world-knigi.ru,yaoilib.me##.ads", "vz.ru##.adsbygoogle", "24video.net,24video.vip##.adt", "aghdrezka.com,ahdrezka.com,betahdrezka.com,clubhdrezka.com,cokinopoisk.com,drhdrezka.com,ehdrezka.com,ekinopoisk.com,ezhdrezka.com,gethdrezka.com,hdrezka-ag.com,hdrezka.buzz,hdrezka.city,hdrezka.club,hdrezka.co,hdrezka.gift,hdrezka.ink,hdrezka.link,hdrezka.loan,hdrezka.lol,hdrezka.name,hdrezka.rest,hdrezka.run,hdrezka.sh,hdrezka.today,hdrezka.tv,hdrezka.vip,hdrezka.website,hdrezka.win,hdrezkablog.com,hdrezkaweb.com,hdrezkayou.com,instahdrezka.com,justhdrezka.com,livehdrezka.com,livekinopoisk.com,metahdrezka.com,mrhdrezka.com,myhdrezka.com,nexthdrezka.com,nuhdrezka.com,nukinopoisk.com,rehdrezka.com,rezka.ag,thehdrezka.com,tryhdrezka.com,tvhdrezka.com,uphdrezka.com,youhdrezka.com##.b-content__main > div[style][id]:not([class]):empty", "aghdrezka.com,ahdrezka.com,betahdrezka.com,clubhdrezka.com,cokinopoisk.com,drhdrezka.com,ehdrezka.com,ekinopoisk.com,ezhdrezka.com,gethdrezka.com,hdrezka-ag.com,hdrezka.buzz,hdrezka.city,hdrezka.club,hdrezka.co,hdrezka.gift,hdrezka.ink,hdrezka.link,hdrezka.loan,hdrezka.lol,hdrezka.name,hdrezka.rest,hdrezka.run,hdrezka.sh,hdrezka.today,hdrezka.tv,hdrezka.vip,hdrezka.website,hdrezka.win,hdrezkablog.com,hdrezkaweb.com,hdrezkayou.com,instahdrezka.com,justhdrezka.com,livehdrezka.com,livekinopoisk.com,metahdrezka.com,mrhdrezka.com,myhdrezka.com,nexthdrezka.com,nuhdrezka.com,nukinopoisk.com,rehdrezka.com,rezka.ag,thehdrezka.com,tryhdrezka.com,tvhdrezka.com,uphdrezka.com,youhdrezka.com##.b-post__mixedtext + div[id]", "kinoafisha.info##.channels_item-zen", "igromania.ru##.hmenu_box > a[href*=\"://vk.com/app\"]", "topgir.com.ua##.informers", "beautiflash.ru,liveinternet.ru,popcake.tv##.myblockbottom", "budport.com.ua##.pad > div[class^=\"lft-col\"] ~ div[class]:last-child > :not(#SinoptikInformer):not([class=\"articles-custom-block-right\"])", "newsland.com##.sidebar > [class*=\"banner\"]", "24video.net,24video.vip##.xb-wrapper", "1927.kiev.ua,3dtoday.ru,5.ua,allboxing.ru,amic.ru,aratta-ukraine.com,asiaplustj.info,astrovedus.com,belaruspartisan.org,bigmir.net,bilshe.com,book-neva.narod.ru,brovary.net.ua,comments.ua,dt.ua,dv-gazeta.info,e-reading.club,echo.msk.ru,ecology.md,enovosty.com,fedpress.ru,football.by,from-ua.com,galinfo.com.ua,galka.if.ua,hdkinoteatr.com,hronika.info,i-news.kz,ictv.ua,infomir59.ru,inforesist.org,informat.com.ua,izmacity.com,kiev24.ua,korrespondent.net,kurufin.ru,liga.net,mskd-ru.net,neizvestniy-geniy.ru,news-front.info,newsone.ua,newspravda.com,nibler.ru,niknews.mk.ua,noi.md,nwcod.com,petrogazeta.ru,planetanovosti.com,prostotech.com,qiqru.org,qrz.ru,railway.kanaries.ru,real-vin.com,rusdozor.ru,rusjev.net,segodnya.ua,shans.com.ua,smolensk-i.ru,sportfm.ru,subject.com.ua,tambovnet.org,tehnowar.ru,ternopillive.com.ua,tochka.net,tyurem.net,uainfo.org,ucrazy.ru,unn.com.ua,vd-tv.ru,vedomosti-ural.ru,volynnews.com,wpristav.ru,xsport.ua,yvision.kz,zakon.kz,zi.dn.ua,zn.ua,znaj.ua##[id^=\"n4p_\"]", "opensharing.org##a[href*=\"//parnuxi.biz\"]", "24warez.ru,2x2forum.ru,5terka.com,720hdfilm.biz,ace-stream.tv,alive-ua.com,animedub.ru,aniplay.tv,ap22.ru,appsgames.ru,bakemono.ru,big-anime.ru,big-games.info,bik-info.ru,cheatground.ru,chelnyagro.ru,chemezova.ru,cknow.ru,dni24.com,ecofoodferma.ru,elektrosat.ru,etika-education.ru,filmitorrent.site,gamelendi.ru,gazetaby.com,geekmir.ru,gitjournal.tech,gooool.org,hdzal.net,hype.tech,igra-wow.ru,igui.mobi,inform-ua.info,instrument16.ru,kinogo-onlain.net,kinogo-v-hd.ru,kinogod.club,kinogou.co,kinomaxfilm.ru,klub-masterov.ru,kritika24.ru,lelang.ru,libking.ru,lordfilm.net,lostfilm-2020.ru,mixbits.ru,mmorpg.su,moy-instrument.ru,mrtranslate.ru,multfilms.online,newsgsm.com,ognennoetv.ru,ok-tv.org,only-tv.org,osortah.ru,outsidethebox.ms,parazit24.me,pekagames.ru,peugeot-citroen.net,pluggedin.ru,pravdatut.ua,privatbankrf.ru,ravis-avto.ru,remont-avtovaz.ru,repack-fitgirl.com,revelationonlinedb.ru,root-nation.com,rpgdon.com,rusplt.ru,rutracker.ru,samelectric.ru,seasonvar.re,selomoe.ru,seloved.ru,shkolniku.com,siddgames.ru,simhost.org,small-games.info,smotret-fizruk-online.su,smotri.com,sonix.tk,stalkermod.ru,steampass.ru,stiralkainfo.ru,tivix.co,tmbw.ru,topasnew.ru,topmmo-games.ru,torrent-games-2016.ru,torrentigri.xyz,totori.ru,trackitonline.ru,tuttop.com,tv-only.org,tvoilokony.ru,uanic.name,uaspectr.com,vizazh-2.ru,volga.news,vsetop.org,vsetut.su,yamdex.net,zhaparova.ru##a[href*=\"/ad.admitad.com/\"]", "playground.ru##a[href*=\"iliferobot.social\"]", "dni.ru,eg.ru,kakprosto.ru,metronews.ru,sobesednik.ru,tvtver.ru##a[href*=\"zen.yandex.ru\"]", "24video.net,24video.vip,russian-porn.online##a[href][target][style]", "1progs.ru,2womans.ru,anypictures.ru,freepiks.ru,opensharing.org,pixcloud.ru,psysovet24.ru,screenpost.ru##blockquote", "sdamgia.ru##div:not([id]):not([class]):first-child > style:first-child + div[class][style]", "adult-images.ru,imgbum.ru,xpicture.ru##div[align=\"center\"] > table[width=\"150\"]", "budport.com.ua##div[class] > a[href][target=\"_blank\"][rel=\"nofollow\"] > p", "sdamgia.ru##div[class]:not([id]):first-child > div[class*=\" \"] > div[class*=\" \"] > div[class*=\" \"]", "topgir.com.ua##div[id^=\"template_ad_\"]", "63.ru,74.ru,ngs.ru,ufa1.ru,v1.ru##div[data-cms-place]", "mail.ru##body > .grid .i-pull-left.coronavirus > .wrapper > .footer", "app2top.ru##+js(abort-on-property-read, tingle)", "bryansknovosti.ru,novozybkov.su##+js(abort-on-property-read, stopPrntScr)", "fssprus.ru##+js(abort-on-property-write, document.oncontextmenu)", "fssprus.ru##+js(abort-on-property-write, document.ondragstart)", "fssprus.ru##+js(abort-on-property-write, document.onselectstart)", "kurs.com.ua##+js(abort-on-property-read, matchMedia)", "liveinternet.ru##+js(abort-on-property-read, Object.prototype.isTurboPage)", "scrin.org###view-full-image:style(cursor: pointer !important)", "scrin.org##+js(remove-attr, href, [href*=\"utarget\"])", "scrin.org##+js(remove-attr, onclick, [onclick*=\"utarget\"])", "scrin.org##.radius.box > center:style(color: white !important)", "tehnobzor.ru##+js(abort-on-property-read, mdpDeBlocker)", "112.ua,24boxing.com.ua,4mama.ua,autoua.net,avtovod.com.ua,beauty.ua,bilshe.com,buhgalter.com.ua,buhgalter911.com,businessua.com,dengi.ua,ditey.com,edinstvennaya.ua,eknigi.org,enovosty.com,epravda.com.ua,eurointegration.com.ua,f1analytic.com,facenews.ua,factor.ua,football-ukraine.com,football24.ua,footballgazeta.com,footballtransfer.com.ua,gismeteo.ua,glianec.com,gorod.dp.ua,hvylya.net,i.ua,inforesist.org,internetua.com,isport.ua,kolobok.ua,kp.ua,kriminal.tv,kzblow.info,lifedon.com.ua,liga.net,mama.ua,mport.ua,nashamama.com,newsyou.info,nnovosti.info,nv.ua,okino.ua,ostro.org,~passport.i.ua,~pinformer.sinoptik.ua,pravda.com.ua,real-vin.com,segodnya.ua,sinoptik.ua,smak.ua,strana.ua,stravy.net,superdom.ua,telegraf.com.ua,tochka.net,tv.ua,tvgid.ua,tvoymalysh.com.ua,udoktora.net,viva.ua,vsetv.com,www.bigmir.net,zdorovia.com.ua##+js(set-constant, String.prototype.charCodeAt, trueFunc)"]
}